(module Elite_TCXO_Ceramic_5032 (layer F.Cu) (tedit 5B69045D)
  (descr "Elite TCXO Ceramic 5032")
  (attr smd)
  (fp_text reference %R (at -1.1872 -3.327464) (layer F.SilkS)
    (effects (font (size 0.508 0.508) (thickness 0.127)))
  )
  (fp_text value Elite_TCXO (at -0.857 0 90) (layer F.Fab)
    (effects (font (size 0.508 0.508) (thickness 0.127)))
  )
  (fp_line (start -1.6 -1.8) (end -0.9 -2.5) (layer F.Fab) (width 0.1))
  (fp_line (start -1.8 -2.7) (end 1.8 -2.7) (layer F.CrtYd) (width 0.05))
  (fp_line (start -1.6 -1.8) (end -1.6 2.5) (layer F.Fab) (width 0.1))
  (fp_line (start -1.6 2.5) (end 1.6 2.5) (layer F.Fab) (width 0.1))
  (fp_line (start 1.6 2.5) (end 1.6 -2.5) (layer F.Fab) (width 0.1))
  (fp_line (start 1.6 -2.5) (end -0.9 -2.5) (layer F.Fab) (width 0.1))
  (fp_line (start -1.8 -2.7) (end -1.8 2.7) (layer F.CrtYd) (width 0.05))
  (fp_line (start -1.8 2.7) (end 1.8 2.7) (layer F.CrtYd) (width 0.05))
  (fp_line (start 1.8 2.7) (end 1.8 -2.7) (layer F.CrtYd) (width 0.05))
  (fp_line (start -1.75 -2.65) (end -1.75 2.65) (layer F.SilkS) (width 0.05))
  (fp_line (start -1.75 2.65) (end 1.75 2.65) (layer F.SilkS) (width 0.05))
  (fp_line (start 1.75 2.65) (end 1.75 -2.65) (layer F.SilkS) (width 0.05))
  (fp_line (start 1.75 -2.65) (end -1.75 -2.65) (layer F.SilkS) (width 0.05))
  (fp_text user %R (at 0 0 90) (layer F.Fab)
    (effects (font (size 0.508 0.508) (thickness 0.127)))
  )
  (pad 1 smd rect (at -1.2625 -2.1125) (size 0.975 1.075) (layers F.Cu F.Paste F.Mask))
  (pad 2 smd rect (at -1.1125 -0.6) (size 1.275 0.6) (layers F.Cu F.Paste F.Mask))
  (pad 3 smd rect (at -1.1125 0.6) (size 1.275 0.6) (layers F.Cu F.Paste F.Mask))
  (pad 4 smd rect (at -1.2625 2.1125) (size 0.975 1.075) (layers F.Cu F.Paste F.Mask))
  (pad 6 smd rect (at 1.2625 2.1125) (size 0.975 1.075) (layers F.Cu F.Paste F.Mask))
  (pad 5 smd rect (at 0 2.1125) (size 0.6 1.075) (layers F.Cu F.Paste F.Mask))
  (pad 7 smd rect (at 1.1125 0.6) (size 1.275 0.6) (layers F.Cu F.Paste F.Mask))
  (pad 8 smd rect (at 1.1125 -0.6) (size 1.275 0.6) (layers F.Cu F.Paste F.Mask))
  (pad 9 smd rect (at 1.2625 -2.1125) (size 0.975 1.075) (layers F.Cu F.Paste F.Mask))
  (pad 10 smd rect (at 0 -2.1125) (size 0.6 1.075) (layers F.Cu F.Paste F.Mask))
  (model ${KISYS3DMOD}/TO_SOT_Packages_SMD.3dshapes/SOT-23-6.wrl
    (at (xyz 0 0 0))
    (scale (xyz 1 1 1))
    (rotate (xyz 0 0 0))
  )
)
