EESchema Schematic File Version 4
EELAYER 30 0
EELAYER END
$Descr D 34000 22000
encoding utf-8
Sheet 1 1
Title ""
Date ""
Rev ""
Comp ""
Comment1 ""
Comment2 ""
Comment3 ""
Comment4 ""
$EndDescr
Wire Notes Line
	23500 2850 23500 8550
Wire Notes Line
	23300 3500 31500 3500
Wire Notes Line
	23300 4500 31500 4500
Wire Notes Line
	23300 5500 31500 5500
Wire Notes Line
	23550 4450 23650 4450
Wire Notes Line
	23750 3950 23750 4450
Wire Notes Line
	23650 3950 23750 3950
Wire Notes Line
	23650 3950 23650 4450
Wire Notes Line
	23750 4450 23850 4450
Wire Notes Line
	23950 3950 23950 4450
Wire Notes Line
	23850 3950 23950 3950
Wire Notes Line
	23850 3950 23850 4450
Wire Notes Line
	23950 4450 24050 4450
Wire Notes Line
	24150 3950 24150 4450
Wire Notes Line
	24050 3950 24150 3950
Wire Notes Line
	24050 3950 24050 4450
Wire Notes Line
	24150 4450 24250 4450
Wire Notes Line
	24350 3950 24350 4450
Wire Notes Line
	24250 3950 24350 3950
Wire Notes Line
	24250 3950 24250 4450
Wire Notes Line
	24350 4450 24450 4450
Wire Notes Line
	24550 3950 24550 4450
Wire Notes Line
	24450 3950 24550 3950
Wire Notes Line
	24450 3950 24450 4450
Wire Notes Line
	24550 4450 24650 4450
Wire Notes Line
	24750 3950 24750 4450
Wire Notes Line
	24650 3950 24750 3950
Wire Notes Line
	24650 3950 24650 4450
Wire Notes Line
	24750 4450 24850 4450
Wire Notes Line
	24950 3950 24950 4450
Wire Notes Line
	24850 3950 24950 3950
Wire Notes Line
	24850 3950 24850 4450
Wire Notes Line
	24950 4450 25050 4450
Wire Notes Line
	25150 3950 25150 4450
Wire Notes Line
	25050 3950 25150 3950
Wire Notes Line
	25050 3950 25050 4450
Wire Notes Line
	25150 4450 25250 4450
Wire Notes Line
	25350 3950 25350 4450
Wire Notes Line
	25250 3950 25350 3950
Wire Notes Line
	25250 3950 25250 4450
Wire Notes Line
	25350 4450 25450 4450
Wire Notes Line
	25550 3950 25550 4450
Wire Notes Line
	25450 3950 25550 3950
Wire Notes Line
	25450 3950 25450 4450
Wire Notes Line
	25550 4450 25650 4450
Wire Notes Line
	25750 3950 25750 4450
Wire Notes Line
	25650 3950 25750 3950
Wire Notes Line
	25650 3950 25650 4450
Wire Notes Line
	25750 4450 25850 4450
Wire Notes Line
	25950 3950 25950 4450
Wire Notes Line
	25850 3950 25950 3950
Wire Notes Line
	25850 3950 25850 4450
Wire Notes Line
	25950 4450 26050 4450
Wire Notes Line
	26150 3950 26150 4450
Wire Notes Line
	26050 3950 26150 3950
Wire Notes Line
	26050 3950 26050 4450
Wire Notes Line
	26150 4450 26250 4450
Wire Notes Line
	26350 3950 26350 4450
Wire Notes Line
	26250 3950 26350 3950
Wire Notes Line
	26250 3950 26250 4450
Wire Notes Line
	26350 4450 26450 4450
Wire Notes Line
	26550 3950 26550 4450
Wire Notes Line
	26450 3950 26550 3950
Wire Notes Line
	26450 3950 26450 4450
Wire Notes Line
	26550 4450 26650 4450
Wire Notes Line
	26750 3950 26750 4450
Wire Notes Line
	26650 3950 26750 3950
Wire Notes Line
	26650 3950 26650 4450
Wire Notes Line
	26750 4450 26850 4450
Wire Notes Line
	26950 3950 26950 4450
Wire Notes Line
	26850 3950 26950 3950
Wire Notes Line
	26850 3950 26850 4450
Wire Notes Line
	26950 4450 27050 4450
Wire Notes Line
	27150 3950 27150 4450
Wire Notes Line
	27050 3950 27150 3950
Wire Notes Line
	27050 3950 27050 4450
Wire Notes Line
	27150 4450 27250 4450
Wire Notes Line
	27350 3950 27350 4450
Wire Notes Line
	27250 3950 27350 3950
Wire Notes Line
	27250 3950 27250 4450
Wire Notes Line
	27350 4450 27450 4450
Wire Notes Line
	27550 3950 27550 4450
Wire Notes Line
	27450 3950 27550 3950
Wire Notes Line
	27450 3950 27450 4450
Wire Notes Line
	27550 4450 27650 4450
Wire Notes Line
	27750 3950 27750 4450
Wire Notes Line
	27650 3950 27750 3950
Wire Notes Line
	27650 3950 27650 4450
Wire Notes Line
	27750 4450 27850 4450
Wire Notes Line
	27950 3950 27950 4450
Wire Notes Line
	27850 3950 27950 3950
Wire Notes Line
	27850 3950 27850 4450
Wire Notes Line
	27950 4450 28050 4450
Wire Notes Line
	28150 3950 28150 4450
Wire Notes Line
	28050 3950 28150 3950
Wire Notes Line
	28050 3950 28050 4450
Wire Notes Line
	28150 4450 28250 4450
Wire Notes Line
	28350 3950 28350 4450
Wire Notes Line
	28250 3950 28350 3950
Wire Notes Line
	28250 3950 28250 4450
Wire Notes Line
	28350 4450 28450 4450
Wire Notes Line
	28550 3950 28550 4450
Wire Notes Line
	28450 3950 28550 3950
Wire Notes Line
	28450 3950 28450 4450
Wire Notes Line
	28550 4450 28650 4450
Wire Notes Line
	28750 3950 28750 4450
Wire Notes Line
	28650 3950 28750 3950
Wire Notes Line
	28650 3950 28650 4450
Wire Notes Line
	28750 4450 28850 4450
Wire Notes Line
	28950 3950 28950 4450
Wire Notes Line
	28850 3950 28950 3950
Wire Notes Line
	28850 3950 28850 4450
Wire Notes Line
	28950 4450 29050 4450
Wire Notes Line
	29150 3950 29150 4450
Wire Notes Line
	29050 3950 29150 3950
Wire Notes Line
	29050 3950 29050 4450
Wire Notes Line
	29150 4450 29250 4450
Wire Notes Line
	29350 3950 29350 4450
Wire Notes Line
	29250 3950 29350 3950
Wire Notes Line
	29250 3950 29250 4450
Wire Notes Line
	29350 4450 29450 4450
Wire Notes Line
	29550 3950 29550 4450
Wire Notes Line
	29450 3950 29550 3950
Wire Notes Line
	29450 3950 29450 4450
Wire Notes Line
	29550 4450 29650 4450
Wire Notes Line
	29750 3950 29750 4450
Wire Notes Line
	29650 3950 29750 3950
Wire Notes Line
	29650 3950 29650 4450
Wire Notes Line
	29750 4450 29850 4450
Wire Notes Line
	29950 3950 29950 4450
Wire Notes Line
	29850 3950 29950 3950
Wire Notes Line
	29850 3950 29850 4450
Wire Notes Line
	29950 4450 30050 4450
Wire Notes Line
	30150 3950 30150 4450
Wire Notes Line
	30050 3950 30150 3950
Wire Notes Line
	30050 3950 30050 4450
Wire Notes Line
	30150 4450 30250 4450
Wire Notes Line
	30350 3950 30350 4450
Wire Notes Line
	30250 3950 30350 3950
Wire Notes Line
	30250 3950 30250 4450
Wire Notes Line
	30350 4450 30450 4450
Wire Notes Line
	23550 5450 23650 5450
Wire Notes Line
	23650 4950 23650 5450
Wire Notes Line
	24050 4950 24050 5450
Wire Notes Line
	23650 4950 24050 4950
Wire Notes Line
	24050 5450 24450 5450
Wire Notes Line
	24450 4950 24450 5450
Wire Notes Line
	24850 4950 24850 5450
Wire Notes Line
	24450 4950 24850 4950
Wire Notes Line
	24850 5450 25250 5450
Wire Notes Line
	25250 4950 25250 5450
Wire Notes Line
	25650 4950 25650 5450
Wire Notes Line
	25250 4950 25650 4950
Wire Notes Line
	25650 5450 26050 5450
Wire Notes Line
	26050 4950 26050 5450
Wire Notes Line
	26450 4950 26450 5450
Wire Notes Line
	26050 4950 26450 4950
Wire Notes Line
	26450 5450 26850 5450
Wire Notes Line
	26850 4950 26850 5450
Wire Notes Line
	27250 4950 27250 5450
Wire Notes Line
	26850 4950 27250 4950
Wire Notes Line
	27250 5450 27650 5450
Wire Notes Line
	27650 4950 27650 5450
Wire Notes Line
	28050 4950 28050 5450
Wire Notes Line
	27650 4950 28050 4950
Wire Notes Line
	28050 5450 28450 5450
Wire Notes Line
	28450 4950 28450 5450
Wire Notes Line
	28850 4950 28850 5450
Wire Notes Line
	28450 4950 28850 4950
Wire Notes Line
	28850 5450 29250 5450
Wire Notes Line
	29250 4950 29250 5450
Wire Notes Line
	29650 4950 29650 5450
Wire Notes Line
	29250 4950 29650 4950
Wire Notes Line
	29650 5450 30050 5450
Wire Notes Line
	30050 4950 30050 5450
Wire Notes Line
	30450 4950 30450 5450
Wire Notes Line
	30050 4950 30450 4950
Wire Notes Line
	30550 3950 30550 4450
Wire Notes Line
	30450 3950 30550 3950
Wire Notes Line
	30550 4450 30650 4450
Wire Notes Line
	30450 3950 30450 4450
Wire Notes Line
	30450 5450 30850 5450
Wire Notes Line
	23300 6500 31500 6500
Wire Notes Line
	23800 3500 23800 3000
Wire Notes Line
	30200 3500 30200 3000
Wire Notes Line
	27000 3000 27000 3500
Wire Notes Line
	25400 3500 25400 3000
Wire Notes Line
	28600 3000 28600 3500
Wire Notes Line
	23800 6450 23800 6000
Wire Notes Line
	30200 6450 30200 6000
Wire Notes Line
	27000 6000 27000 6450
Wire Notes Line
	25400 6450 25400 6000
Wire Notes Line
	28600 6000 28600 6450
Wire Notes Line
	24450 6450 24450 6000
Wire Notes Line
	30850 6450 30850 6000
Wire Notes Line
	27650 6000 27650 6450
Wire Notes Line
	26050 6450 26050 6000
Wire Notes Line
	29250 6000 29250 6450
Wire Notes Line
	23800 6000 24450 6000
Wire Notes Line
	25400 6000 26050 6000
Wire Notes Line
	27000 6000 27650 6000
Wire Notes Line
	28600 6000 29250 6000
Wire Notes Line
	30200 6000 30850 6000
Wire Notes Line
	30850 4950 30850 5450
Wire Notes Line
	30850 4950 31250 4950
Wire Notes Line
	31250 4950 31250 5450
Wire Notes Line
	31250 5450 31650 5450
Wire Notes Line
	30750 3950 30750 4450
Wire Notes Line
	30650 3950 30750 3950
Wire Notes Line
	30750 4450 30850 4450
Wire Notes Line
	30950 3950 30950 4450
Wire Notes Line
	30850 3950 30950 3950
Wire Notes Line
	30850 3950 30850 4450
Wire Notes Line
	30950 4450 31050 4450
Wire Notes Line
	31150 3950 31150 4450
Wire Notes Line
	31050 3950 31150 3950
Wire Notes Line
	31050 3950 31050 4450
Wire Notes Line
	31150 4450 31250 4450
Wire Notes Line
	31350 3950 31350 4450
Wire Notes Line
	31250 3950 31350 3950
Wire Notes Line
	31350 4450 31450 4450
Wire Notes Line
	31250 3950 31250 4450
Wire Notes Line
	30650 3950 30650 4450
Text Notes 23450 2950 2    100  ~ 20
1PPS
Text Notes 23450 3950 2    100  ~ 20
CLK
Wire Notes Line
	24450 6450 25400 6450
Wire Notes Line
	26050 6450 27000 6450
Wire Notes Line
	27650 6450 28600 6450
Wire Notes Line
	29250 6450 30200 6450
Wire Notes Line
	30850 6450 31800 6450
Wire Notes Line
	23550 6450 23800 6450
Text Notes 23450 4950 2    100  ~ 20
DIV_CLK
Text Notes 23450 6000 2    100  ~ 20
Phase Diff
Wire Notes Line
	23300 7500 31500 7500
Wire Notes Line
	23800 7500 23800 7000
Text Notes 23450 7000 2    100  ~ 20
Start Pulse
Wire Notes Line
	25400 7500 25400 7000
Wire Notes Line
	27000 7500 27000 7000
Wire Notes Line
	28600 7500 28600 7000
Wire Notes Line
	30200 7500 30200 7000
Wire Notes Line
	23300 8500 31500 8500
Wire Notes Line
	24450 8500 24450 8000
Wire Notes Line
	26050 8500 26050 8000
Wire Notes Line
	27650 8500 27650 8000
Wire Notes Line
	29250 8500 29250 8000
Wire Notes Line
	30850 8500 30850 8000
Text Notes 23450 8000 2    100  ~ 20
Stop Pulse
Wire Notes Line
	10000 16000 19500 16000
Text Label 15050 6800 2    50   ~ 0
TDC_REF_CLK
Wire Wire Line
	12150 5700 15050 5700
Text Label 15050 7600 2    50   ~ 0
~PSOC_PHASE_CMP_RESET
Text Notes 11400 7250 0    100  ~ 0
REGULATOR
Text Notes 11650 4950 0    100  ~ 0
32 kHz
Text Label 15050 7000 2    50   ~ 0
OCXO_CLK+
Text Label 15050 3600 2    50   ~ 0
EXT_REF_CLK_EN
Text Label 15050 7900 2    50   ~ 0
EXT_REF_CLK
Wire Wire Line
	12400 8000 12400 8150
Wire Wire Line
	12250 8000 12400 8000
$Comp
L power:GND #PWR046
U 1 1 61AB0FFB
P 12400 8450
F 0 "#PWR046" H 12400 8200 50  0001 C CNN
F 1 "GND" H 12400 8300 50  0000 C CNN
F 2 "" H 12400 8450 50  0001 C CNN
F 3 "" H 12400 8450 50  0001 C CNN
	1    12400 8450
	1    0    0    -1  
$EndComp
$Comp
L Device:C C10
U 1 1 61AB0FF5
P 12400 8300
F 0 "C10" H 12515 8391 50  0000 L CNN
F 1 "10n" H 12515 8300 50  0000 L CNN
F 2 "Capacitor_SMD:C_0402_1005Metric_Pad0.74x0.62mm_HandSolder" H 12438 8150 50  0001 C CNN
F 3 "~" H 12400 8300 50  0001 C CNN
F 4 "0402" H 12515 8209 50  0000 L CNN "Package"
F 5 "CL05B103KB5NNNC" H 12400 8300 50  0001 C CNN "MPN"
F 6 "C15195" H 12400 8300 50  0001 C CNN "LCSC"
	1    12400 8300
	-1   0    0    -1  
$EndComp
Wire Wire Line
	11000 7700 11450 7700
$Comp
L Sundial:MIC5219YM5 U7
U 1 1 6199C7BD
P 11850 7850
F 0 "U7" H 11850 8287 60  0000 C CNN
F 1 "MIC5219YM5" H 11850 8181 60  0000 C CNN
F 2 "Package_TO_SOT_SMD:SOT-23-5" H 11850 7700 60  0001 C CNN
F 3 "" H 11850 7700 60  0001 C CNN
F 4 "SOT-23-5" H 11850 7500 50  0000 C CNN "Package"
F 5 "MIC5219-3.3YM5" H 11850 7850 50  0001 C CNN "MPN"
F 6 "C29613" H 11850 7850 50  0001 C CNN "LCSC"
	1    11850 7850
	1    0    0    -1  
$EndComp
$Comp
L power:+5V #PWR030
U 1 1 60212BD3
P 11000 7600
F 0 "#PWR030" H 11000 7450 50  0001 C CNN
F 1 "+5V" H 11000 7750 50  0000 C CNN
F 2 "" H 11000 7600 50  0001 C CNN
F 3 "" H 11000 7600 50  0001 C CNN
	1    11000 7600
	-1   0    0    -1  
$EndComp
Wire Wire Line
	13750 6300 13600 6300
Connection ~ 13750 6300
Wire Wire Line
	13750 6400 13750 6300
Wire Wire Line
	15050 6300 13750 6300
$Comp
L power:+3.3VP #PWR054
U 1 1 60751D4D
P 13600 6300
F 0 "#PWR054" H 13750 6250 50  0001 C CNN
F 1 "+3.3VP" V 13600 6550 50  0000 C CNN
F 2 "" H 13600 6300 50  0001 C CNN
F 3 "" H 13600 6300 50  0001 C CNN
	1    13600 6300
	0    -1   1    0   
$EndComp
$Comp
L power:+3.3VP #PWR053
U 1 1 6072F834
P 13600 5400
F 0 "#PWR053" H 13750 5350 50  0001 C CNN
F 1 "+3.3VP" V 13600 5650 50  0000 C CNN
F 2 "" H 13600 5400 50  0001 C CNN
F 3 "" H 13600 5400 50  0001 C CNN
	1    13600 5400
	0    -1   1    0   
$EndComp
$Comp
L power:+3.3VP #PWR052
U 1 1 6070D375
P 13600 4600
F 0 "#PWR052" H 13750 4550 50  0001 C CNN
F 1 "+3.3VP" V 13600 4850 50  0000 C CNN
F 2 "" H 13600 4600 50  0001 C CNN
F 3 "" H 13600 4600 50  0001 C CNN
	1    13600 4600
	0    -1   1    0   
$EndComp
$Comp
L power:+3.3VP #PWR051
U 1 1 606EB03B
P 13600 3900
F 0 "#PWR051" H 13750 3850 50  0001 C CNN
F 1 "+3.3VP" V 13600 4150 50  0000 C CNN
F 2 "" H 13600 3900 50  0001 C CNN
F 3 "" H 13600 3900 50  0001 C CNN
	1    13600 3900
	0    -1   1    0   
$EndComp
$Comp
L power:+3.3VP #PWR050
U 1 1 606C8BFE
P 13600 3100
F 0 "#PWR050" H 13750 3050 50  0001 C CNN
F 1 "+3.3VP" V 13600 3350 50  0000 C CNN
F 2 "" H 13600 3100 50  0001 C CNN
F 3 "" H 13600 3100 50  0001 C CNN
	1    13600 3100
	0    -1   1    0   
$EndComp
$Comp
L power:+3.3VP #PWR088
U 1 1 606845A8
P 19000 3600
F 0 "#PWR088" H 19150 3550 50  0001 C CNN
F 1 "+3.3VP" V 19000 3850 50  0000 C CNN
F 2 "" H 19000 3600 50  0001 C CNN
F 3 "" H 19000 3600 50  0001 C CNN
	1    19000 3600
	0    1    -1   0   
$EndComp
$Comp
L power:+3.3VP #PWR087
U 1 1 6063FEA2
P 19000 3500
F 0 "#PWR087" H 19150 3450 50  0001 C CNN
F 1 "+3.3VP" V 19000 3750 50  0000 C CNN
F 2 "" H 19000 3500 50  0001 C CNN
F 3 "" H 19000 3500 50  0001 C CNN
	1    19000 3500
	0    1    -1   0   
$EndComp
$Comp
L power:+3.3VP #PWR048
U 1 1 6061BF65
P 12750 7600
F 0 "#PWR048" H 12900 7550 50  0001 C CNN
F 1 "+3.3VP" H 12765 7773 50  0000 C CNN
F 2 "" H 12750 7600 50  0001 C CNN
F 3 "" H 12750 7600 50  0001 C CNN
	1    12750 7600
	1    0    0    -1  
$EndComp
Connection ~ 11000 7700
Wire Wire Line
	11000 7700 11000 8000
$Comp
L power:GND #PWR031
U 1 1 6052352A
P 11000 8450
F 0 "#PWR031" H 11000 8200 50  0001 C CNN
F 1 "GND" H 11000 8300 50  0000 C CNN
F 2 "" H 11000 8450 50  0001 C CNN
F 3 "" H 11000 8450 50  0001 C CNN
	1    11000 8450
	1    0    0    -1  
$EndComp
$Comp
L Device:C C4
U 1 1 60523524
P 11000 8300
F 0 "C4" H 11115 8391 50  0000 L CNN
F 1 "1u" H 11115 8300 50  0000 L CNN
F 2 "Capacitor_SMD:C_0603_1608Metric_Pad1.05x0.95mm_HandSolder" H 11038 8150 50  0001 C CNN
F 3 "~" H 11000 8300 50  0001 C CNN
F 4 "0603" H 11115 8209 50  0000 L CNN "Package"
F 5 "CL10A105KB8NNNC" H 11000 8300 50  0001 C CNN "MPN"
F 6 "C15849" H 11000 8300 50  0001 C CNN "LCSC"
	1    11000 8300
	-1   0    0    -1  
$EndComp
Wire Wire Line
	12750 7700 12750 7850
Connection ~ 12750 7700
Wire Wire Line
	12750 7600 12750 7700
Wire Wire Line
	12250 7700 12750 7700
$Comp
L power:GND #PWR049
U 1 1 60523513
P 12750 8150
F 0 "#PWR049" H 12750 7900 50  0001 C CNN
F 1 "GND" H 12750 8000 50  0000 C CNN
F 2 "" H 12750 8150 50  0001 C CNN
F 3 "" H 12750 8150 50  0001 C CNN
	1    12750 8150
	1    0    0    -1  
$EndComp
Wire Wire Line
	11000 7700 11000 7600
$Comp
L power:GND #PWR036
U 1 1 605234FF
P 11450 7850
F 0 "#PWR036" H 11450 7600 50  0001 C CNN
F 1 "GND" V 11450 7650 50  0000 C CNN
F 2 "" H 11450 7850 50  0001 C CNN
F 3 "" H 11450 7850 50  0001 C CNN
	1    11450 7850
	0    1    -1   0   
$EndComp
$Comp
L power:GND #PWR021
U 1 1 605234E4
P 5900 6900
F 0 "#PWR021" H 5900 6650 50  0001 C CNN
F 1 "GND" H 5900 6750 50  0000 C CNN
F 2 "" H 5900 6900 50  0001 C CNN
F 3 "" H 5900 6900 50  0001 C CNN
	1    5900 6900
	-1   0    0    -1  
$EndComp
$Comp
L power:GND #PWR065
U 1 1 62728540
P 15050 2900
F 0 "#PWR065" H 15050 2650 50  0001 C CNN
F 1 "GND" V 15050 2700 50  0000 C CNN
F 2 "" H 15050 2900 50  0001 C CNN
F 3 "" H 15050 2900 50  0001 C CNN
	1    15050 2900
	0    1    -1   0   
$EndComp
Wire Wire Line
	15050 4100 14400 4100
Wire Wire Line
	15050 5600 14400 5600
NoConn ~ 15050 3200
NoConn ~ 17850 3000
Text Notes 17800 1800 2    250  ~ 0
PSoC 5LP Microcontroller
Wire Notes Line
	10000 2000 20500 2000
Wire Notes Line
	10000 9500 10000 2000
Wire Notes Line
	20500 9500 10000 9500
Wire Notes Line
	20500 2000 20500 9500
Wire Wire Line
	18200 3400 17850 3400
Text Label 12300 5700 0    50   ~ 0
PSOC_32KHZ_RTC
$Comp
L power:GND #PWR047
U 1 1 60745E00
P 12350 5250
F 0 "#PWR047" H 12350 5000 50  0001 C CNN
F 1 "GND" V 12350 5050 50  0000 C CNN
F 2 "" H 12350 5250 50  0001 C CNN
F 3 "" H 12350 5250 50  0001 C CNN
	1    12350 5250
	0    -1   -1   0   
$EndComp
$Comp
L power:GND #PWR042
U 1 1 6073A395
P 11850 6000
F 0 "#PWR042" H 11850 5750 50  0001 C CNN
F 1 "GND" H 11850 5850 50  0000 C CNN
F 2 "" H 11850 6000 50  0001 C CNN
F 3 "" H 11850 6000 50  0001 C CNN
	1    11850 6000
	1    0    0    -1  
$EndComp
Wire Wire Line
	11850 5250 11850 5400
Connection ~ 11850 5250
Wire Wire Line
	11700 5250 11850 5250
Wire Wire Line
	12050 5250 11850 5250
$Comp
L Device:C C9
U 1 1 6070DA01
P 12200 5250
F 0 "C9" V 12300 5350 50  0000 L CNN
F 1 "0.1u" V 12300 5150 50  0000 R CNN
F 2 "Capacitor_SMD:C_0402_1005Metric_Pad0.74x0.62mm_HandSolder" H 12238 5100 50  0001 C CNN
F 3 "~" H 12200 5250 50  0001 C CNN
F 4 "0402" V 12050 5250 50  0000 C CNN "Package"
F 5 "CL05B104KO5NNNC" H 12200 5250 50  0001 C CNN "MPN"
F 6 "C1525" V 12200 5250 50  0001 C CNN "LCSC"
	1    12200 5250
	0    -1   -1   0   
$EndComp
$Comp
L Sundial:SIT1630 X1
U 1 1 6070BCC3
P 11850 5700
F 0 "X1" H 11620 5746 50  0000 R CNN
F 1 "SIT1630" H 11620 5655 50  0000 R CNN
F 2 "Package_TO_SOT_SMD:SOT-23-5" H 11850 5350 50  0001 C CNN
F 3 "https://support.epson.biz/td/api/doc_check.php?mode=dl&lang=en&Parts=SG-3030CM" H 11750 5700 50  0001 C CNN
	1    11850 5700
	1    0    0    -1  
$EndComp
Text Label 15050 6500 2    50   ~ 0
OCXO_HSENSE2
Text Label 15050 4500 2    50   ~ 0
OCXO_HSET2
Text Label 15050 4400 2    50   ~ 0
OCXO_HSET1
Text Label 15050 5000 2    50   ~ 0
OCXO_HSENSE1
Text Label 15050 4200 2    50   ~ 0
OCXO_SPI_MISO
Text Label 15050 8400 2    50   ~ 0
I2CM_SDA
Text Label 15050 8500 2    50   ~ 0
I2CM_SCL
Text Label 18200 3400 0    50   ~ 0
~PSOC_XRES
Text Label 15050 8300 2    50   ~ 0
PSOC_SWDIO
Text Label 15050 5900 2    50   ~ 0
PSOC_SPIS_MOSI
Text Label 15050 7700 2    50   ~ 0
TDC_TRIGGER
Text Label 15050 7800 2    50   ~ 0
TDC_ENABLE
Text Label 15050 7400 2    50   ~ 0
TDC_SPI_CLK
Text Label 15050 6400 2    50   ~ 0
~TDC_SPI_CS
Text Label 15050 7500 2    50   ~ 0
TDC_SPI_MOSI
Text Label 15050 6200 2    50   ~ 0
TDC_SPI_MISO
Text Label 15050 6700 2    50   ~ 0
~TDC_INTB
$Comp
L Device:C C18
U 1 1 5F4BB5C6
P 14250 5600
F 0 "C18" V 14150 5700 50  0000 L CNN
F 1 "1u" V 14150 5500 50  0000 R CNN
F 2 "Capacitor_SMD:C_0603_1608Metric_Pad1.05x0.95mm_HandSolder" H 14288 5450 50  0001 C CNN
F 3 "~" H 14250 5600 50  0001 C CNN
F 4 "0603" V 14100 5600 50  0000 C CNN "Package"
F 5 "CL10A105KB8NNNC" H 14250 5600 50  0001 C CNN "MPN"
F 6 "C15849" V 14250 5600 50  0001 C CNN "LCSC"
	1    14250 5600
	0    1    1    0   
$EndComp
$Comp
L power:GND #PWR062
U 1 1 5F4BB5BE
P 14100 5600
F 0 "#PWR062" H 14100 5350 50  0001 C CNN
F 1 "GND" H 14100 5450 50  0000 C CNN
F 2 "" H 14100 5600 50  0001 C CNN
F 3 "" H 14100 5600 50  0001 C CNN
	1    14100 5600
	0    1    -1   0   
$EndComp
$Comp
L Device:C C17
U 1 1 5F4B6B6E
P 14250 4100
F 0 "C17" V 14150 4200 50  0000 L CNN
F 1 "1u" V 14150 4000 50  0000 R CNN
F 2 "Capacitor_SMD:C_0603_1608Metric_Pad1.05x0.95mm_HandSolder" H 14288 3950 50  0001 C CNN
F 3 "~" H 14250 4100 50  0001 C CNN
F 4 "0603" V 14100 4100 50  0000 C CNN "Package"
F 5 "CL10A105KB8NNNC" H 14250 4100 50  0001 C CNN "MPN"
F 6 "C15849" V 14250 4100 50  0001 C CNN "LCSC"
	1    14250 4100
	0    1    1    0   
$EndComp
$Comp
L power:GND #PWR061
U 1 1 5F4B6B66
P 14100 4100
F 0 "#PWR061" H 14100 3850 50  0001 C CNN
F 1 "GND" H 14100 3950 50  0000 C CNN
F 2 "" H 14100 4100 50  0001 C CNN
F 3 "" H 14100 4100 50  0001 C CNN
	1    14100 4100
	0    1    -1   0   
$EndComp
$Comp
L power:GND #PWR068
U 1 1 5F4AB577
P 15050 5500
F 0 "#PWR068" H 15050 5250 50  0001 C CNN
F 1 "GND" V 15050 5300 50  0000 C CNN
F 2 "" H 15050 5500 50  0001 C CNN
F 3 "" H 15050 5500 50  0001 C CNN
	1    15050 5500
	0    1    -1   0   
$EndComp
$Comp
L power:GND #PWR067
U 1 1 5F4AA30A
P 15050 5300
F 0 "#PWR067" H 15050 5050 50  0001 C CNN
F 1 "GND" V 15050 5100 50  0000 C CNN
F 2 "" H 15050 5300 50  0001 C CNN
F 3 "" H 15050 5300 50  0001 C CNN
	1    15050 5300
	0    1    -1   0   
$EndComp
$Comp
L power:GND #PWR066
U 1 1 5F4A9058
P 15050 4000
F 0 "#PWR066" H 15050 3750 50  0001 C CNN
F 1 "GND" V 15050 3800 50  0000 C CNN
F 2 "" H 15050 4000 50  0001 C CNN
F 3 "" H 15050 4000 50  0001 C CNN
	1    15050 4000
	0    1    -1   0   
$EndComp
Wire Wire Line
	17850 3800 18000 3800
Wire Wire Line
	18000 3950 18000 3800
$Comp
L power:GND #PWR079
U 1 1 5F4A2A11
P 18000 4250
F 0 "#PWR079" H 18000 4000 50  0001 C CNN
F 1 "GND" H 18005 4077 50  0000 C CNN
F 2 "" H 18000 4250 50  0001 C CNN
F 3 "" H 18000 4250 50  0001 C CNN
	1    18000 4250
	-1   0    0    -1  
$EndComp
$Comp
L Device:C C21
U 1 1 5F4A2A0B
P 18000 4100
F 0 "C21" H 18115 4191 50  0000 L CNN
F 1 "1u" H 18115 4100 50  0000 L CNN
F 2 "Capacitor_SMD:C_0603_1608Metric_Pad1.05x0.95mm_HandSolder" H 18038 3950 50  0001 C CNN
F 3 "~" H 18000 4100 50  0001 C CNN
F 4 "0603" H 18115 4009 50  0000 L CNN "Package"
F 5 "CL10A105KB8NNNC" H 18000 4100 50  0001 C CNN "MPN"
F 6 "C15849" H 18000 4100 50  0001 C CNN "LCSC"
	1    18000 4100
	-1   0    0    -1  
$EndComp
$Comp
L power:GND #PWR077
U 1 1 5F4A03C7
P 17850 3700
F 0 "#PWR077" H 17850 3450 50  0001 C CNN
F 1 "GND" V 17850 3500 50  0000 C CNN
F 2 "" H 17850 3700 50  0001 C CNN
F 3 "" H 17850 3700 50  0001 C CNN
	1    17850 3700
	0    -1   1    0   
$EndComp
$Comp
L power:GND #PWR074
U 1 1 5F49EAB6
P 17850 3100
F 0 "#PWR074" H 17850 2850 50  0001 C CNN
F 1 "GND" V 17850 2900 50  0000 C CNN
F 2 "" H 17850 3100 50  0001 C CNN
F 3 "" H 17850 3100 50  0001 C CNN
	1    17850 3100
	0    -1   1    0   
$EndComp
$Comp
L power:GND #PWR075
U 1 1 5F49D7DA
P 17850 3200
F 0 "#PWR075" H 17850 2950 50  0001 C CNN
F 1 "GND" V 17850 3000 50  0000 C CNN
F 2 "" H 17850 3200 50  0001 C CNN
F 3 "" H 17850 3200 50  0001 C CNN
	1    17850 3200
	0    -1   1    0   
$EndComp
$Comp
L power:GND #PWR076
U 1 1 5F49C24E
P 17850 3300
F 0 "#PWR076" H 17850 3050 50  0001 C CNN
F 1 "GND" V 17850 3100 50  0000 C CNN
F 2 "" H 17850 3300 50  0001 C CNN
F 3 "" H 17850 3300 50  0001 C CNN
	1    17850 3300
	0    -1   1    0   
$EndComp
$Comp
L power:GND #PWR073
U 1 1 5F49B126
P 17850 2900
F 0 "#PWR073" H 17850 2650 50  0001 C CNN
F 1 "GND" V 17850 2700 50  0000 C CNN
F 2 "" H 17850 2900 50  0001 C CNN
F 3 "" H 17850 2900 50  0001 C CNN
	1    17850 2900
	0    -1   1    0   
$EndComp
Wire Wire Line
	18850 3600 19000 3600
Connection ~ 18850 3600
Wire Wire Line
	17850 3600 18850 3600
Wire Wire Line
	18850 3750 18850 3600
$Comp
L power:GND #PWR086
U 1 1 5F499D6B
P 18850 4050
F 0 "#PWR086" H 18850 3800 50  0001 C CNN
F 1 "GND" H 18855 3877 50  0000 C CNN
F 2 "" H 18850 4050 50  0001 C CNN
F 3 "" H 18850 4050 50  0001 C CNN
	1    18850 4050
	-1   0    0    -1  
$EndComp
$Comp
L Device:C C24
U 1 1 5F499D65
P 18850 3900
F 0 "C24" H 18965 3991 50  0000 L CNN
F 1 "0.1u" H 18965 3900 50  0000 L CNN
F 2 "Capacitor_SMD:C_0402_1005Metric_Pad0.74x0.62mm_HandSolder" H 18888 3750 50  0001 C CNN
F 3 "~" H 18850 3900 50  0001 C CNN
F 4 "0402" H 18965 3809 50  0000 L CNN "Package"
F 5 "CL05B104KO5NNNC" H 18850 3900 50  0001 C CNN "MPN"
F 6 "C1525" H 18850 3900 50  0001 C CNN "LCSC"
	1    18850 3900
	1    0    0    -1  
$EndComp
Wire Wire Line
	18850 3500 19000 3500
Connection ~ 18850 3500
Wire Wire Line
	17850 3500 18850 3500
Wire Wire Line
	18850 3350 18850 3500
$Comp
L power:GND #PWR085
U 1 1 5F49847B
P 18850 3050
F 0 "#PWR085" H 18850 2800 50  0001 C CNN
F 1 "GND" H 18855 2877 50  0000 C CNN
F 2 "" H 18850 3050 50  0001 C CNN
F 3 "" H 18850 3050 50  0001 C CNN
	1    18850 3050
	-1   0    0    1   
$EndComp
$Comp
L Device:C C23
U 1 1 5F498475
P 18850 3200
F 0 "C23" H 18965 3291 50  0000 L CNN
F 1 "0.1u" H 18965 3200 50  0000 L CNN
F 2 "Capacitor_SMD:C_0402_1005Metric_Pad0.74x0.62mm_HandSolder" H 18888 3050 50  0001 C CNN
F 3 "~" H 18850 3200 50  0001 C CNN
F 4 "0402" H 18965 3109 50  0000 L CNN "Package"
F 5 "CL05B104KO5NNNC" H 18850 3200 50  0001 C CNN "MPN"
F 6 "C1525" H 18850 3200 50  0001 C CNN "LCSC"
	1    18850 3200
	1    0    0    -1  
$EndComp
$Comp
L power:GND #PWR059
U 1 1 5F4955A7
P 13750 6700
F 0 "#PWR059" H 13750 6450 50  0001 C CNN
F 1 "GND" H 13755 6527 50  0000 C CNN
F 2 "" H 13750 6700 50  0001 C CNN
F 3 "" H 13750 6700 50  0001 C CNN
	1    13750 6700
	-1   0    0    -1  
$EndComp
$Comp
L Device:C C16
U 1 1 5F4955A1
P 13750 6550
F 0 "C16" H 13865 6641 50  0000 L CNN
F 1 "0.1u" H 13865 6550 50  0000 L CNN
F 2 "Capacitor_SMD:C_0402_1005Metric_Pad0.74x0.62mm_HandSolder" H 13788 6400 50  0001 C CNN
F 3 "~" H 13750 6550 50  0001 C CNN
F 4 "0402" H 13865 6459 50  0000 L CNN "Package"
F 5 "CL05B104KO5NNNC" H 13750 6550 50  0001 C CNN "MPN"
F 6 "C1525" H 13750 6550 50  0001 C CNN "LCSC"
	1    13750 6550
	-1   0    0    -1  
$EndComp
Wire Wire Line
	13750 5400 13600 5400
Connection ~ 13750 5400
Wire Wire Line
	15050 5400 13750 5400
Wire Wire Line
	13750 5250 13750 5400
$Comp
L power:GND #PWR058
U 1 1 5F493F80
P 13750 4950
F 0 "#PWR058" H 13750 4700 50  0001 C CNN
F 1 "GND" H 13755 4777 50  0000 C CNN
F 2 "" H 13750 4950 50  0001 C CNN
F 3 "" H 13750 4950 50  0001 C CNN
	1    13750 4950
	1    0    0    1   
$EndComp
$Comp
L Device:C C15
U 1 1 5F493F7A
P 13750 5100
F 0 "C15" H 13865 5191 50  0000 L CNN
F 1 "0.1u" H 13865 5100 50  0000 L CNN
F 2 "Capacitor_SMD:C_0402_1005Metric_Pad0.74x0.62mm_HandSolder" H 13788 4950 50  0001 C CNN
F 3 "~" H 13750 5100 50  0001 C CNN
F 4 "0402" H 13865 5009 50  0000 L CNN "Package"
F 5 "CL05B104KO5NNNC" H 13750 5100 50  0001 C CNN "MPN"
F 6 "C1525" H 13750 5100 50  0001 C CNN "LCSC"
	1    13750 5100
	-1   0    0    -1  
$EndComp
Wire Wire Line
	13750 4600 13600 4600
Connection ~ 13750 4600
Wire Wire Line
	15050 4600 13750 4600
Wire Wire Line
	13750 4450 13750 4600
$Comp
L power:GND #PWR057
U 1 1 5F4926DA
P 13750 4150
F 0 "#PWR057" H 13750 3900 50  0001 C CNN
F 1 "GND" H 13755 3977 50  0000 C CNN
F 2 "" H 13750 4150 50  0001 C CNN
F 3 "" H 13750 4150 50  0001 C CNN
	1    13750 4150
	1    0    0    1   
$EndComp
$Comp
L Device:C C14
U 1 1 5F4926D4
P 13750 4300
F 0 "C14" H 13865 4391 50  0000 L CNN
F 1 "0.1u" H 13865 4300 50  0000 L CNN
F 2 "Capacitor_SMD:C_0402_1005Metric_Pad0.74x0.62mm_HandSolder" H 13788 4150 50  0001 C CNN
F 3 "~" H 13750 4300 50  0001 C CNN
F 4 "0402" H 13865 4209 50  0000 L CNN "Package"
F 5 "CL05B104KO5NNNC" H 13750 4300 50  0001 C CNN "MPN"
F 6 "C1525" H 13750 4300 50  0001 C CNN "LCSC"
	1    13750 4300
	-1   0    0    -1  
$EndComp
Wire Wire Line
	13750 3900 13600 3900
Connection ~ 13750 3900
Wire Wire Line
	15050 3900 13750 3900
Wire Wire Line
	13750 3750 13750 3900
$Comp
L power:GND #PWR056
U 1 1 5F491662
P 13750 3450
F 0 "#PWR056" H 13750 3200 50  0001 C CNN
F 1 "GND" H 13755 3277 50  0000 C CNN
F 2 "" H 13750 3450 50  0001 C CNN
F 3 "" H 13750 3450 50  0001 C CNN
	1    13750 3450
	1    0    0    1   
$EndComp
$Comp
L Device:C C13
U 1 1 5F49165C
P 13750 3600
F 0 "C13" H 13865 3691 50  0000 L CNN
F 1 "0.1u" H 13865 3600 50  0000 L CNN
F 2 "Capacitor_SMD:C_0402_1005Metric_Pad0.74x0.62mm_HandSolder" H 13788 3450 50  0001 C CNN
F 3 "~" H 13750 3600 50  0001 C CNN
F 4 "0402" H 13865 3509 50  0000 L CNN "Package"
F 5 "CL05B104KO5NNNC" H 13750 3600 50  0001 C CNN "MPN"
F 6 "C1525" H 13750 3600 50  0001 C CNN "LCSC"
	1    13750 3600
	-1   0    0    -1  
$EndComp
Wire Wire Line
	13750 3100 13600 3100
Connection ~ 13750 3100
Wire Wire Line
	15050 3100 13750 3100
Wire Wire Line
	13750 2950 13750 3100
$Comp
L power:GND #PWR055
U 1 1 5F48E89D
P 13750 2650
F 0 "#PWR055" H 13750 2400 50  0001 C CNN
F 1 "GND" H 13755 2477 50  0000 C CNN
F 2 "" H 13750 2650 50  0001 C CNN
F 3 "" H 13750 2650 50  0001 C CNN
	1    13750 2650
	1    0    0    1   
$EndComp
$Comp
L Device:C C12
U 1 1 5F48E897
P 13750 2800
F 0 "C12" H 13865 2891 50  0000 L CNN
F 1 "0.1u" H 13865 2800 50  0000 L CNN
F 2 "Capacitor_SMD:C_0402_1005Metric_Pad0.74x0.62mm_HandSolder" H 13788 2650 50  0001 C CNN
F 3 "~" H 13750 2800 50  0001 C CNN
F 4 "0402" H 13865 2709 50  0000 L CNN "Package"
F 5 "CL05B104KO5NNNC" H 13750 2800 50  0001 C CNN "MPN"
F 6 "C1525" H 13750 2800 50  0001 C CNN "LCSC"
	1    13750 2800
	-1   0    0    -1  
$EndComp
$Comp
L power:+5V #PWR020
U 1 1 64DF738B
P 5900 6600
F 0 "#PWR020" H 5900 6450 50  0001 C CNN
F 1 "+5V" H 5900 6750 50  0000 C CNN
F 2 "" H 5900 6600 50  0001 C CNN
F 3 "" H 5900 6600 50  0001 C CNN
	1    5900 6600
	-1   0    0    -1  
$EndComp
Text Label 17400 15000 2    50   ~ 0
OCXO_CLK+_RETIMER_OUT
Wire Wire Line
	13750 15000 13450 15000
$Comp
L power:GND #PWR041
U 1 1 64A5A5BB
P 13200 15350
F 0 "#PWR041" H 13200 15100 50  0001 C CNN
F 1 "GND" H 13200 15200 50  0000 C CNN
F 2 "" H 13200 15350 50  0001 C CNN
F 3 "" H 13200 15350 50  0001 C CNN
	1    13200 15350
	1    0    0    -1  
$EndComp
$Comp
L power:GND #PWR043
U 1 1 64A7310A
P 13700 14700
F 0 "#PWR043" H 13700 14450 50  0001 C CNN
F 1 "GND" V 13700 14500 50  0000 C CNN
F 2 "" H 13700 14700 50  0001 C CNN
F 3 "" H 13700 14700 50  0001 C CNN
	1    13700 14700
	0    -1   -1   0   
$EndComp
Wire Wire Line
	13200 14700 13200 14850
Connection ~ 13200 14700
Wire Wire Line
	13200 14550 13200 14700
Wire Wire Line
	13400 14700 13200 14700
$Comp
L Device:C C8
U 1 1 64A73116
P 13550 14700
F 0 "C8" V 13650 14800 50  0000 L CNN
F 1 "0.1u" V 13650 14600 50  0000 R CNN
F 2 "Capacitor_SMD:C_0402_1005Metric_Pad0.74x0.62mm_HandSolder" H 13588 14550 50  0001 C CNN
F 3 "~" H 13550 14700 50  0001 C CNN
F 4 "0402" V 13400 14700 50  0000 C CNN "Package"
F 5 "CL05B104KO5NNNC" H 13550 14700 50  0001 C CNN "MPN"
F 6 "C1525" V 13550 14700 50  0001 C CNN "LCSC"
	1    13550 14700
	0    -1   -1   0   
$EndComp
$Comp
L Sundial:74x1G79 U6
U 1 1 60670B7C
P 13200 15100
F 0 "U6" H 13450 14950 50  0000 L CNN
F 1 "74x1G79" H 13450 14850 50  0000 L CNN
F 2 "Package_TO_SOT_SMD:SOT-353_SC-70-5" H 13200 15100 50  0001 C CNN
F 3 "" H 13200 15100 50  0001 C CNN
F 4 "SC70-5" H 13450 14750 50  0000 L CNN "Package"
F 5 "74LVC1G79GV,125" H 13200 15100 50  0001 C CNN "MPN"
F 6 "" H 13200 15100 50  0001 C CNN "LCSC"
	1    13200 15100
	1    0    0    -1  
$EndComp
Text Label 12350 15200 2    50   ~ 0
OCXO_CLK+
Wire Wire Line
	18600 14900 18450 14900
Text Label 18600 14900 0    50   ~ 0
TDC_STOP_PULSE
$Comp
L power:GND #PWR032
U 1 1 63B3E5E3
P 17700 15100
F 0 "#PWR032" H 17700 14850 50  0001 C CNN
F 1 "GND" H 17700 14950 50  0000 C CNN
F 2 "" H 17700 15100 50  0001 C CNN
F 3 "" H 17700 15100 50  0001 C CNN
	1    17700 15100
	1    0    0    -1  
$EndComp
$Comp
L power:GND #PWR037
U 1 1 63B3E5D7
P 18200 14500
F 0 "#PWR037" H 18200 14250 50  0001 C CNN
F 1 "GND" V 18200 14300 50  0000 C CNN
F 2 "" H 18200 14500 50  0001 C CNN
F 3 "" H 18200 14500 50  0001 C CNN
	1    18200 14500
	0    -1   -1   0   
$EndComp
Wire Wire Line
	17700 14500 17700 14700
Connection ~ 17700 14500
Wire Wire Line
	17550 14500 17700 14500
Wire Wire Line
	17900 14500 17700 14500
$Comp
L Device:C C6
U 1 1 63B3E5CD
P 18050 14500
F 0 "C6" V 18150 14600 50  0000 L CNN
F 1 "0.1u" V 18150 14400 50  0000 R CNN
F 2 "Capacitor_SMD:C_0402_1005Metric_Pad0.74x0.62mm_HandSolder" H 18088 14350 50  0001 C CNN
F 3 "~" H 18050 14500 50  0001 C CNN
F 4 "0402" V 17900 14500 50  0000 C CNN "Package"
F 5 "CL05B104KO5NNNC" H 18050 14500 50  0001 C CNN "MPN"
F 6 "C1525" V 18050 14500 50  0001 C CNN "LCSC"
	1    18050 14500
	0    -1   -1   0   
$EndComp
$Comp
L Sundial:74x1G126 U4
U 1 1 63B3E5C4
P 17700 14900
F 0 "U4" H 17850 14700 50  0000 L CNN
F 1 "74LVC1G126" H 17850 14600 50  0000 L CNN
F 2 "Package_TO_SOT_SMD:SOT-353_SC-70-5" H 17700 14900 50  0001 C CNN
F 3 "" H 17700 14900 50  0001 C CNN
F 4 "SC-70-5" H 17850 14500 50  0000 L CNN "Package"
F 5 "SN74LVC1G126DCKR" H 17700 14900 50  0001 C CNN "MPN"
F 6 "C88039" H 17700 14900 50  0001 C CNN "LCSC"
	1    17700 14900
	1    0    0    -1  
$EndComp
Wire Wire Line
	18150 14900 18000 14900
Text Label 17250 11800 2    50   ~ 0
~CLK_PULSE_RESET
Wire Wire Line
	17450 11800 17250 11800
Wire Wire Line
	17950 11800 17750 11800
$Comp
L Device:R R6
U 1 1 62E88B2C
P 17600 11800
F 0 "R6" V 17500 11800 50  0000 C CNN
F 1 "0" V 17600 11800 50  0000 C CNN
F 2 "Resistor_SMD:R_0402_1005Metric_Pad0.72x0.64mm_HandSolder" V 17530 11800 50  0001 C CNN
F 3 "~" H 17600 11800 50  0001 C CNN
F 4 "0402" V 17700 11800 50  0000 C CNN "Package"
F 5 "0402WGF0000TCE" V 17600 11800 50  0001 C CNN "MPN"
F 6 "C17168" V 17600 11800 50  0001 C CNN "LCSC"
	1    17600 11800
	0    -1   1    0   
$EndComp
Text Label 17950 11800 0    50   ~ 0
~PSOC_PHASE_CMP_RESET
Text Label 17250 11500 2    50   ~ 0
~CLK_PULSE_RESET
Wire Wire Line
	17450 11500 17250 11500
Wire Wire Line
	17950 11500 17750 11500
$Comp
L Device:R R5
U 1 1 62E5A13E
P 17600 11500
F 0 "R5" V 17500 11500 50  0000 C CNN
F 1 "DNI" V 17600 11500 50  0000 C CNN
F 2 "Resistor_SMD:R_0402_1005Metric_Pad0.72x0.64mm_HandSolder" V 17530 11500 50  0001 C CNN
F 3 "~" H 17600 11500 50  0001 C CNN
F 4 "0402" V 17700 11500 50  0000 C CNN "Package"
F 5 "0402WGF0000TCE" V 17600 11500 50  0001 C CNN "MPN"
F 6 "C17168" V 17600 11500 50  0001 C CNN "LCSC"
	1    17600 11500
	0    -1   1    0   
$EndComp
Text Label 11350 12750 2    50   ~ 0
~CLK_PULSE_RESET
Wire Notes Line
	10000 16000 10000 11000
Wire Notes Line
	19500 11000 19500 16000
$Comp
L power:GND #PWR027
U 1 1 6186F159
P 12250 11850
F 0 "#PWR027" H 12250 11600 50  0001 C CNN
F 1 "GND" V 12250 11650 50  0000 C CNN
F 2 "" H 12250 11850 50  0001 C CNN
F 3 "" H 12250 11850 50  0001 C CNN
	1    12250 11850
	0    -1   -1   0   
$EndComp
Connection ~ 11750 11850
Wire Wire Line
	11750 11700 11750 11850
Wire Wire Line
	11950 11850 11750 11850
$Comp
L Device:C C3
U 1 1 6186F14F
P 12100 11850
F 0 "C3" V 12200 11950 50  0000 L CNN
F 1 "0.1u" V 12200 11750 50  0000 R CNN
F 2 "Capacitor_SMD:C_0402_1005Metric_Pad0.74x0.62mm_HandSolder" H 12138 11700 50  0001 C CNN
F 3 "~" H 12100 11850 50  0001 C CNN
F 4 "0402" V 11950 11850 50  0000 C CNN "Package"
F 5 "CL05B104KO5NNNC" H 12100 11850 50  0001 C CNN "MPN"
F 6 "C1525" V 12100 11850 50  0001 C CNN "LCSC"
	1    12100 11850
	0    -1   -1   0   
$EndComp
$Comp
L power:GND #PWR022
U 1 1 6167388A
P 11600 12450
F 0 "#PWR022" H 11600 12200 50  0001 C CNN
F 1 "GND" H 11600 12300 50  0000 C CNN
F 2 "" H 11600 12450 50  0001 C CNN
F 3 "" H 11600 12450 50  0001 C CNN
	1    11600 12450
	1    0    0    -1  
$EndComp
NoConn ~ 12000 12400
Wire Wire Line
	11350 12200 11500 12200
Wire Wire Line
	11750 11850 11750 12050
Wire Wire Line
	11600 11850 11750 11850
Wire Wire Line
	11600 12150 11600 11850
Wire Wire Line
	12000 12200 12300 12200
$Comp
L Device:R R4
U 1 1 609B6291
P 12450 12200
F 0 "R4" V 12350 12200 50  0000 C CNN
F 1 "10" V 12450 12200 50  0000 C CNN
F 2 "Resistor_SMD:R_0402_1005Metric_Pad0.72x0.64mm_HandSolder" V 12380 12200 50  0001 C CNN
F 3 "~" H 12450 12200 50  0001 C CNN
F 4 "0402" V 12550 12200 50  0000 C CNN "Package"
F 5 "0402WGF100JTCE" V 12450 12200 50  0001 C CNN "MPN"
F 6 "C25077" V 12450 12200 50  0001 C CNN "LCSC"
	1    12450 12200
	0    1    1    0   
$EndComp
Wire Wire Line
	11750 12750 11350 12750
Wire Wire Line
	11750 12550 11750 12750
$Comp
L 74xGxx:74AUP1G74 U2
U 1 1 60969320
P 11750 12300
F 0 "U2" H 11900 12050 50  0000 L CNN
F 1 "74AUP1G74" H 11900 11950 50  0000 L CNN
F 2 "Package_SO:VSSOP-8_2.3x2mm_P0.5mm" H 11750 12300 50  0001 C CNN
F 3 "http://www.ti.com/lit/sg/scyt129e/scyt129e.pdf" H 11750 12300 50  0001 C CNN
F 4 "VSSOP-8" H 11900 11850 50  0000 L CNN "Package"
F 5 "SN74LVC1G74DCUR" H 11750 12300 50  0001 C CNN "MPN"
F 6 "C70285" H 11750 12300 50  0001 C CNN "LCSC"
	1    11750 12300
	1    0    0    -1  
$EndComp
$Comp
L Device:R R8
U 1 1 607E1EAA
P 18300 14900
F 0 "R8" V 18200 14900 50  0000 C CNN
F 1 "10" V 18300 14900 50  0000 C CNN
F 2 "Resistor_SMD:R_0402_1005Metric_Pad0.72x0.64mm_HandSolder" V 18230 14900 50  0001 C CNN
F 3 "~" H 18300 14900 50  0001 C CNN
F 4 "0402" V 18400 14900 50  0000 C CNN "Package"
F 5 "0402WGF100JTCE" V 18300 14900 50  0001 C CNN "MPN"
F 6 "C25077" V 18300 14900 50  0001 C CNN "LCSC"
	1    18300 14900
	0    1    1    0   
$EndComp
Text Label 17950 11500 0    50   ~ 0
~TDC_INTB
Text Notes 11900 17300 0    250  ~ 0
Phase Measurement
Wire Notes Line
	17500 17500 10000 17500
Wire Notes Line
	17500 21000 17500 17500
Wire Notes Line
	10000 21000 17500 21000
Wire Notes Line
	10000 17500 10000 21000
Text Notes 4800 1800 0    250  ~ 0
Card Edge Connector
Text Label 6550 2600 2    50   ~ 0
PSOC_SPIS_CLK
Text Label 6550 2800 2    50   ~ 0
PSOC_SPIS_MOSI
Text Label 6550 3100 2    50   ~ 0
~PSOC_XRES
Wire Notes Line
	8500 4500 8500 2000
Wire Notes Line
	8500 2000 5000 2000
Wire Notes Line
	5000 4500 8500 4500
Wire Notes Line
	5000 2000 5000 4500
$Comp
L Device:R R16
U 1 1 60991C00
P 12600 15000
F 0 "R16" V 12500 15000 50  0000 C CNN
F 1 "10" V 12600 15000 50  0000 C CNN
F 2 "Resistor_SMD:R_0402_1005Metric_Pad0.72x0.64mm_HandSolder" V 12530 15000 50  0001 C CNN
F 3 "~" H 12600 15000 50  0001 C CNN
F 4 "0402" V 12700 15000 50  0000 C CNN "Package"
F 5 "0402WGF100JTCE" V 12600 15000 50  0001 C CNN "MPN"
F 6 "C25077" V 12600 15000 50  0001 C CNN "LCSC"
	1    12600 15000
	0    1    1    0   
$EndComp
Text Label 15050 4300 2    50   ~ 0
PSOC_OCXO_CLK_DIV
NoConn ~ 15050 3800
NoConn ~ 15050 5800
NoConn ~ 15050 6600
NoConn ~ 15050 6900
NoConn ~ 15050 7300
Text Label 15050 5200 2    50   ~ 0
PSOC_SPIS_MISO
Text Label 15050 5100 2    50   ~ 0
~PSOC_SPIS_SS
Text Label 15050 8100 2    50   ~ 0
PSOC_1PPS_OUT
Text Label 15050 8200 2    50   ~ 0
PSOC_SWCLK
$Comp
L Device:R R23
U 1 1 613A4FF4
P 13900 15000
F 0 "R23" V 13800 15000 50  0000 C CNN
F 1 "10" V 13900 15000 50  0000 C CNN
F 2 "Resistor_SMD:R_0402_1005Metric_Pad0.72x0.64mm_HandSolder" V 13830 15000 50  0001 C CNN
F 3 "~" H 13900 15000 50  0001 C CNN
F 4 "0402" V 14000 15000 50  0000 C CNN "Package"
F 5 "0402WGF100JTCE" V 13900 15000 50  0001 C CNN "MPN"
F 6 "C25077" V 13900 15000 50  0001 C CNN "LCSC"
	1    13900 15000
	0    1    1    0   
$EndComp
Wire Wire Line
	17400 15000 14050 15000
$Comp
L Device:CP C11
U 1 1 6052350D
P 12750 8000
F 0 "C11" H 12865 8091 50  0000 L CNN
F 1 "2.2u" H 12865 8000 50  0000 L CNN
F 2 "Capacitor_Tantalum_SMD:CP_EIA-3216-12_Kemet-S" H 12788 7850 50  0001 C CNN
F 3 "~" H 12750 8000 50  0001 C CNN
F 4 "3216" H 12865 7909 50  0000 L CNN "Package"
F 5 "293D225X9016A2TE3" H 12750 8000 50  0001 C CNN "MPN"
F 6 "C146174" H 12750 8000 50  0001 C CNN "LCSC"
	1    12750 8000
	1    0    0    -1  
$EndComp
$Comp
L power:+5V #PWR0102
U 1 1 6193057E
P 17150 13550
F 0 "#PWR0102" H 17150 13400 50  0001 C CNN
F 1 "+5V" H 17150 13700 50  0000 C CNN
F 2 "" H 17150 13550 50  0001 C CNN
F 3 "" H 17150 13550 50  0001 C CNN
	1    17150 13550
	1    0    0    1   
$EndComp
Wire Wire Line
	17300 13100 17150 13100
Wire Wire Line
	17150 13250 17150 13100
Wire Wire Line
	18250 13100 18250 13250
Wire Wire Line
	18100 13100 18250 13100
$Comp
L power:GND #PWR0104
U 1 1 61930591
P 18250 13550
F 0 "#PWR0104" H 18250 13300 50  0001 C CNN
F 1 "GND" H 18250 13400 50  0000 C CNN
F 2 "" H 18250 13550 50  0001 C CNN
F 3 "" H 18250 13550 50  0001 C CNN
	1    18250 13550
	1    0    0    -1  
$EndComp
$Comp
L Device:C C28
U 1 1 6193059A
P 18250 13400
F 0 "C28" H 18365 13491 50  0000 L CNN
F 1 "10n" H 18365 13400 50  0000 L CNN
F 2 "Capacitor_SMD:C_0402_1005Metric_Pad0.74x0.62mm_HandSolder" H 18288 13250 50  0001 C CNN
F 3 "~" H 18250 13400 50  0001 C CNN
F 4 "0402" H 18365 13309 50  0000 L CNN "Package"
F 5 "CL05B103KB5NNNC" H 18250 13400 50  0001 C CNN "MPN"
F 6 "C15195" H 18250 13400 50  0001 C CNN "LCSC"
	1    18250 13400
	-1   0    0    -1  
$EndComp
Wire Wire Line
	16850 12800 17300 12800
$Comp
L Sundial:MIC5219YM5 U11
U 1 1 619305A4
P 17700 12950
F 0 "U11" H 17700 13387 60  0000 C CNN
F 1 "MIC5219-3.3YM5" H 17700 13281 60  0000 C CNN
F 2 "Package_TO_SOT_SMD:SOT-23-5" H 17700 12800 60  0001 C CNN
F 3 "" H 17700 12800 60  0001 C CNN
F 4 "SOT-23-5" H 17700 12600 50  0000 C CNN "Package"
F 5 "MIC5219-3.3YM5" H 17700 12950 50  0001 C CNN "MPN"
F 6 "C29613" H 17700 12950 50  0001 C CNN "LCSC"
	1    17700 12950
	1    0    0    -1  
$EndComp
$Comp
L power:+5V #PWR0105
U 1 1 619305AA
P 16850 12700
F 0 "#PWR0105" H 16850 12550 50  0001 C CNN
F 1 "+5V" H 16850 12850 50  0000 C CNN
F 2 "" H 16850 12700 50  0001 C CNN
F 3 "" H 16850 12700 50  0001 C CNN
	1    16850 12700
	-1   0    0    -1  
$EndComp
Connection ~ 16850 12800
Wire Wire Line
	16850 12800 16850 12950
$Comp
L power:GND #PWR0106
U 1 1 619305B2
P 16850 13250
F 0 "#PWR0106" H 16850 13000 50  0001 C CNN
F 1 "GND" H 16850 13100 50  0000 C CNN
F 2 "" H 16850 13250 50  0001 C CNN
F 3 "" H 16850 13250 50  0001 C CNN
	1    16850 13250
	1    0    0    -1  
$EndComp
$Comp
L Device:C C25
U 1 1 619305BB
P 16850 13100
F 0 "C25" H 16965 13191 50  0000 L CNN
F 1 "1u" H 16965 13100 50  0000 L CNN
F 2 "Capacitor_SMD:C_0603_1608Metric_Pad1.05x0.95mm_HandSolder" H 16888 12950 50  0001 C CNN
F 3 "~" H 16850 13100 50  0001 C CNN
F 4 "0603" H 16965 13009 50  0000 L CNN "Package"
F 5 "CL10A105KB8NNNC" H 16850 13100 50  0001 C CNN "MPN"
F 6 "C15849" H 16850 13100 50  0001 C CNN "LCSC"
	1    16850 13100
	-1   0    0    -1  
$EndComp
Wire Wire Line
	18600 12800 18600 12950
Connection ~ 18600 12800
Wire Wire Line
	18600 12700 18600 12800
Wire Wire Line
	18100 12800 18600 12800
$Comp
L power:GND #PWR0108
U 1 1 619305C5
P 18600 13250
F 0 "#PWR0108" H 18600 13000 50  0001 C CNN
F 1 "GND" H 18600 13100 50  0000 C CNN
F 2 "" H 18600 13250 50  0001 C CNN
F 3 "" H 18600 13250 50  0001 C CNN
	1    18600 13250
	1    0    0    -1  
$EndComp
Wire Wire Line
	16850 12800 16850 12700
$Comp
L power:GND #PWR0113
U 1 1 619305CC
P 17300 12950
F 0 "#PWR0113" H 17300 12700 50  0001 C CNN
F 1 "GND" V 17300 12750 50  0000 C CNN
F 2 "" H 17300 12950 50  0001 C CNN
F 3 "" H 17300 12950 50  0001 C CNN
	1    17300 12950
	0    1    -1   0   
$EndComp
$Comp
L Device:CP C30
U 1 1 619305D5
P 18600 13100
F 0 "C30" H 18715 13191 50  0000 L CNN
F 1 "2.2u" H 18715 13100 50  0000 L CNN
F 2 "Capacitor_Tantalum_SMD:CP_EIA-3216-12_Kemet-S" H 18638 12950 50  0001 C CNN
F 3 "~" H 18600 13100 50  0001 C CNN
F 4 "3216" H 18715 13009 50  0000 L CNN "Package"
F 5 "293D225X9016A2TE3" H 18600 13100 50  0001 C CNN "MPN"
F 6 "C146174" H 18600 13100 50  0001 C CNN "LCSC"
	1    18600 13100
	1    0    0    -1  
$EndComp
$Comp
L power:+3.3VP #PWR0116
U 1 1 6199B5AC
P 11700 5250
F 0 "#PWR0116" H 11850 5200 50  0001 C CNN
F 1 "+3.3VP" H 11715 5423 50  0000 C CNN
F 2 "" H 11700 5250 50  0001 C CNN
F 3 "" H 11700 5250 50  0001 C CNN
	1    11700 5250
	0    -1   -1   0   
$EndComp
$Comp
L Sundial:TDC7200PW U9
U 1 1 5F457643
P 15350 18950
F 0 "U9" H 15350 19755 50  0000 C CNN
F 1 "TDC7200PW" H 15350 19664 50  0000 C CNN
F 2 "Package_SO:TSSOP-14_4.4x5mm_P0.65mm" H 15400 19150 50  0001 C CNN
F 3 "http://www.ti.com/lit/ds/symlink/tdc7200.pdf" H 15400 19150 50  0001 C CNN
F 4 "TSSOP-14" H 15350 19573 50  0000 C CNN "Package"
F 5 "TDC7200PW" H 15350 18950 50  0001 C CNN "MPN"
F 6 "C1523567" H 15350 18950 50  0001 C CNN "LCSC"
	1    15350 18950
	1    0    0    -1  
$EndComp
Wire Wire Line
	14900 18500 14800 18500
Text Label 14900 18650 2    50   ~ 0
TDC_TRIGGER
Text Label 14900 18800 2    50   ~ 0
TDC_START_PULSE
Text Label 14900 18950 2    50   ~ 0
TDC_STOP_PULSE
Text Label 14900 19100 2    50   ~ 0
TDC_CLK
NoConn ~ 14900 19250
$Comp
L power:GND #PWR070
U 1 1 5F4806BF
P 14900 19400
F 0 "#PWR070" H 14900 19150 50  0001 C CNN
F 1 "GND" V 14900 19200 50  0000 C CNN
F 2 "" H 14900 19400 50  0001 C CNN
F 3 "" H 14900 19400 50  0001 C CNN
	1    14900 19400
	0    1    1    0   
$EndComp
Text Label 16150 19400 0    50   ~ 0
~TDC_INTB
Text Label 15800 19250 0    50   ~ 0
TDC_SPI_MISO
Text Label 15800 19100 0    50   ~ 0
TDC_SPI_MOSI
Text Label 15800 18950 0    50   ~ 0
~TDC_SPI_CS
Text Label 15800 18800 0    50   ~ 0
TDC_SPI_CLK
$Comp
L power:GND #PWR084
U 1 1 5F4829ED
P 16750 18650
F 0 "#PWR084" H 16750 18400 50  0001 C CNN
F 1 "GND" H 16750 18500 50  0000 C CNN
F 2 "" H 16750 18650 50  0001 C CNN
F 3 "" H 16750 18650 50  0001 C CNN
	1    16750 18650
	0    -1   -1   0   
$EndComp
$Comp
L Device:C C22
U 1 1 5F483C36
P 16600 18650
F 0 "C22" V 16500 18750 50  0000 L CNN
F 1 "1u" V 16500 18550 50  0000 R CNN
F 2 "Capacitor_SMD:C_0603_1608Metric_Pad1.05x0.95mm_HandSolder" H 16638 18500 50  0001 C CNN
F 3 "~" H 16600 18650 50  0001 C CNN
F 4 "0603" V 16400 18650 50  0000 C CNN "Package"
F 5 "CL10A105KB8NNNC" H 16600 18650 50  0001 C CNN "MPN"
F 6 "C15849" V 16600 18650 50  0001 C CNN "LCSC"
	1    16600 18650
	0    -1   -1   0   
$EndComp
Wire Wire Line
	16450 18650 15800 18650
$Comp
L Device:R R10
U 1 1 5F485F6C
P 14800 18200
F 0 "R10" V 14700 18200 50  0000 C CNN
F 1 "10k" V 14800 18200 50  0000 C CNN
F 2 "Resistor_SMD:R_0402_1005Metric_Pad0.72x0.64mm_HandSolder" V 14730 18200 50  0001 C CNN
F 3 "~" H 14800 18200 50  0001 C CNN
F 4 "0402" V 14900 18200 50  0000 C CNN "Package"
F 5 "0402WGF1002TCE" V 14800 18200 50  0001 C CNN "MPN"
F 6 "C25744" V 14800 18200 50  0001 C CNN "LCSC"
	1    14800 18200
	1    0    0    -1  
$EndComp
$Comp
L power:GND #PWR069
U 1 1 5F486881
P 14800 18050
F 0 "#PWR069" H 14800 17800 50  0001 C CNN
F 1 "GND" H 14805 17877 50  0000 C CNN
F 2 "" H 14800 18050 50  0001 C CNN
F 3 "" H 14800 18050 50  0001 C CNN
	1    14800 18050
	-1   0    0    1   
$EndComp
Wire Wire Line
	14800 18350 14800 18500
Connection ~ 14800 18500
$Comp
L Device:R R11
U 1 1 5FD0CFA3
P 15950 19650
F 0 "R11" V 15850 19650 50  0000 C CNN
F 1 "10k" V 15950 19650 50  0000 C CNN
F 2 "Resistor_SMD:R_0402_1005Metric_Pad0.72x0.64mm_HandSolder" V 15880 19650 50  0001 C CNN
F 3 "~" H 15950 19650 50  0001 C CNN
F 4 "0402" V 16050 19650 50  0000 C CNN "Package"
F 5 "0402WGF1002TCE" V 15950 19650 50  0001 C CNN "MPN"
F 6 "C25744" V 15950 19650 50  0001 C CNN "LCSC"
	1    15950 19650
	1    0    0    -1  
$EndComp
Wire Wire Line
	15800 19400 15950 19400
Wire Wire Line
	15950 19500 15950 19400
Connection ~ 15950 19400
Wire Wire Line
	15950 19400 16150 19400
Wire Wire Line
	14800 18500 14600 18500
Text Label 14600 18500 2    50   ~ 0
TDC_ENABLE
Wire Wire Line
	15950 18500 16100 18500
Wire Wire Line
	15800 18500 15950 18500
Connection ~ 15950 18500
Wire Wire Line
	15950 18350 15950 18500
$Comp
L power:GND #PWR071
U 1 1 5F48BB57
P 15950 18050
F 0 "#PWR071" H 15950 17800 50  0001 C CNN
F 1 "GND" H 15955 17877 50  0000 C CNN
F 2 "" H 15950 18050 50  0001 C CNN
F 3 "" H 15950 18050 50  0001 C CNN
	1    15950 18050
	-1   0    0    1   
$EndComp
$Comp
L Device:C C20
U 1 1 5F48B355
P 15950 18200
F 0 "C20" H 16065 18291 50  0000 L CNN
F 1 "0.1u" H 16065 18200 50  0000 L CNN
F 2 "Capacitor_SMD:C_0402_1005Metric_Pad0.74x0.62mm_HandSolder" H 15988 18050 50  0001 C CNN
F 3 "~" H 15950 18200 50  0001 C CNN
F 4 "0402" H 16065 18109 50  0000 L CNN "Package"
F 5 "CL05B104KO5NNNC" H 15950 18200 50  0001 C CNN "MPN"
F 6 "C1525" H 15950 18200 50  0001 C CNN "LCSC"
	1    15950 18200
	1    0    0    -1  
$EndComp
Wire Wire Line
	12500 18650 13000 18650
Connection ~ 12500 18650
Wire Wire Line
	12500 18500 12500 18650
$Comp
L power:GND #PWR063
U 1 1 6189B12A
P 12500 18200
F 0 "#PWR063" H 12500 17950 50  0001 C CNN
F 1 "GND" H 12500 18050 50  0000 C CNN
F 2 "" H 12500 18200 50  0001 C CNN
F 3 "" H 12500 18200 50  0001 C CNN
	1    12500 18200
	-1   0    0    1   
$EndComp
$Comp
L Device:C C19
U 1 1 6189B124
P 12500 18350
F 0 "C19" H 12615 18441 50  0000 L CNN
F 1 "0.1u" H 12615 18350 50  0000 L CNN
F 2 "Capacitor_SMD:C_0402_1005Metric_Pad0.74x0.62mm_HandSolder" H 12538 18200 50  0001 C CNN
F 3 "~" H 12500 18350 50  0001 C CNN
F 4 "0402" H 12615 18259 50  0000 L CNN "Package"
F 5 "CL05B104KO5NNNC" H 12500 18350 50  0001 C CNN "MPN"
F 6 "C1525" H 12500 18350 50  0001 C CNN "LCSC"
	1    12500 18350
	1    0    0    -1  
$EndComp
Wire Wire Line
	11900 18650 12500 18650
$Comp
L power:GND #PWR060
U 1 1 6065AFBC
P 11000 18950
F 0 "#PWR060" H 11000 18700 50  0001 C CNN
F 1 "GND" H 11000 18800 50  0000 C CNN
F 2 "" H 11000 18950 50  0001 C CNN
F 3 "" H 11000 18950 50  0001 C CNN
	1    11000 18950
	0    1    1    0   
$EndComp
$Comp
L Sundial:Elite_5032_10L_SPI U8
U 1 1 60507004
P 11450 18800
F 0 "U8" H 11450 19387 60  0000 C CNN
F 1 "Elite_5032_10L_SPI" H 11450 19281 60  0000 C CNN
F 2 "Sundial:Elite_TCXO_Ceramic_5032" H 11350 18850 60  0001 C CNN
F 3 "" H 11350 18850 60  0001 C CNN
F 4 "" H 11450 18800 50  0001 C CNN "MPN"
	1    11450 18800
	1    0    0    -1  
$EndComp
NoConn ~ 11900 18800
NoConn ~ 11900 18950
NoConn ~ 11000 18500
NoConn ~ 11000 18800
NoConn ~ 11000 19100
Wire Wire Line
	11600 15000 12450 15000
Wire Notes Line
	10000 11000 19500 11000
Text Notes 3200 9300 0    250  ~ 0
OCXO DIP14 Interposer
Wire Wire Line
	16150 12300 16150 14800
Wire Wire Line
	16150 14800 17400 14800
$Comp
L power:+3.3V #PWR0127
U 1 1 6259375E
P 18600 12700
F 0 "#PWR0127" H 18600 12550 50  0001 C CNN
F 1 "+3.3V" H 18615 12873 50  0000 C CNN
F 2 "" H 18600 12700 50  0001 C CNN
F 3 "" H 18600 12700 50  0001 C CNN
	1    18600 12700
	1    0    0    -1  
$EndComp
$Comp
L power:+3.3V #PWR0129
U 1 1 625CA546
P 11750 11700
F 0 "#PWR0129" H 11750 11550 50  0001 C CNN
F 1 "+3.3V" H 11765 11873 50  0000 C CNN
F 2 "" H 11750 11700 50  0001 C CNN
F 3 "" H 11750 11700 50  0001 C CNN
	1    11750 11700
	1    0    0    -1  
$EndComp
$Comp
L power:+3.3V #PWR0131
U 1 1 625FE9A0
P 13200 14550
F 0 "#PWR0131" H 13200 14400 50  0001 C CNN
F 1 "+3.3V" H 13215 14723 50  0000 C CNN
F 2 "" H 13200 14550 50  0001 C CNN
F 3 "" H 13200 14550 50  0001 C CNN
	1    13200 14550
	1    0    0    -1  
$EndComp
$Comp
L power:+3.3V #PWR0132
U 1 1 62632B5E
P 17550 14500
F 0 "#PWR0132" H 17550 14350 50  0001 C CNN
F 1 "+3.3V" H 17565 14673 50  0000 C CNN
F 2 "" H 17550 14500 50  0001 C CNN
F 3 "" H 17550 14500 50  0001 C CNN
	1    17550 14500
	0    -1   -1   0   
$EndComp
Text Notes 12900 10750 0    250  ~ 0
START/STOP PULSE
$Comp
L power:+3.3V #PWR0117
U 1 1 63384363
P 13150 18650
F 0 "#PWR0117" H 13150 18500 50  0001 C CNN
F 1 "+3.3V" V 13150 18900 50  0000 C CNN
F 2 "" H 13150 18650 50  0001 C CNN
F 3 "" H 13150 18650 50  0001 C CNN
	1    13150 18650
	0    1    1    0   
$EndComp
$Comp
L power:+3.3V #PWR0118
U 1 1 63399D51
P 16100 18500
F 0 "#PWR0118" H 16100 18350 50  0001 C CNN
F 1 "+3.3V" V 16100 18750 50  0000 C CNN
F 2 "" H 16100 18500 50  0001 C CNN
F 3 "" H 16100 18500 50  0001 C CNN
	1    16100 18500
	0    1    1    0   
$EndComp
Wire Wire Line
	13000 18500 13000 18650
$Comp
L power:GND #PWR0119
U 1 1 633C5E0B
P 13000 18200
F 0 "#PWR0119" H 13000 17950 50  0001 C CNN
F 1 "GND" H 13000 18050 50  0000 C CNN
F 2 "" H 13000 18200 50  0001 C CNN
F 3 "" H 13000 18200 50  0001 C CNN
	1    13000 18200
	-1   0    0    1   
$EndComp
$Comp
L Device:C C32
U 1 1 633C5E14
P 13000 18350
F 0 "C32" H 13115 18441 50  0000 L CNN
F 1 "1u" H 13115 18350 50  0000 L CNN
F 2 "Capacitor_SMD:C_0603_1608Metric_Pad1.05x0.95mm_HandSolder" H 13038 18200 50  0001 C CNN
F 3 "~" H 13000 18350 50  0001 C CNN
F 4 "0603" H 13115 18259 50  0000 L CNN "Package"
F 5 "CL10A105KB8NNNC" H 13000 18350 50  0001 C CNN "MPN"
F 6 "C15849" H 13000 18350 50  0001 C CNN "LCSC"
	1    13000 18350
	1    0    0    -1  
$EndComp
$Comp
L power:+3.3V #PWR0120
U 1 1 633F6BD1
P 15950 19800
F 0 "#PWR0120" H 15950 19650 50  0001 C CNN
F 1 "+3.3V" H 15950 19950 50  0000 C CNN
F 2 "" H 15950 19800 50  0001 C CNN
F 3 "" H 15950 19800 50  0001 C CNN
	1    15950 19800
	-1   0    0    1   
$EndComp
Connection ~ 13000 18650
Wire Wire Line
	13000 18650 13150 18650
Wire Wire Line
	12750 15000 12950 15000
Text Label 11350 12200 2    50   ~ 0
EXT_REF_CLK_EN
Wire Wire Line
	14250 12200 14450 12200
Connection ~ 14250 12200
$Comp
L power:+3.3V #PWR0128
U 1 1 625B039F
P 14700 11500
F 0 "#PWR0128" H 14700 11350 50  0001 C CNN
F 1 "+3.3V" H 14715 11673 50  0000 C CNN
F 2 "" H 14700 11500 50  0001 C CNN
F 3 "" H 14700 11500 50  0001 C CNN
	1    14700 11500
	0    -1   -1   0   
$EndComp
Wire Wire Line
	12600 12200 14250 12200
$Comp
L 74xx:74HC164 U5
U 1 1 6065F156
P 14850 12200
F 0 "U5" H 15000 11600 50  0000 L CNN
F 1 "74HC164" H 15000 11500 50  0000 L CNN
F 2 "Package_SO:TSSOP-14_4.4x5mm_P0.65mm" H 15750 11900 50  0001 C CNN
F 3 "https://assets.nexperia.com/documents/data-sheet/74HC_HCT164.pdf" H 15750 11900 50  0001 C CNN
F 4 "TSSOP-14" H 15000 11400 50  0000 L CNN "Package"
F 5 "C5612" H 14850 12200 50  0001 C CNN "LCSC"
F 6 "74HC164PW,118" H 14850 12200 50  0001 C CNN "MPN"
	1    14850 12200
	1    0    0    -1  
$EndComp
$Comp
L Device:C C7
U 1 1 606F6332
P 15200 11500
F 0 "C7" V 15300 11600 50  0000 L CNN
F 1 "0.1u" V 15300 11400 50  0000 R CNN
F 2 "Capacitor_SMD:C_0402_1005Metric_Pad0.74x0.62mm_HandSolder" H 15238 11350 50  0001 C CNN
F 3 "~" H 15200 11500 50  0001 C CNN
F 4 "0402" V 15050 11500 50  0000 C CNN "Package"
F 5 "CL05B104KO5NNNC" H 15200 11500 50  0001 C CNN "MPN"
F 6 "C1525" V 15200 11500 50  0001 C CNN "LCSC"
	1    15200 11500
	0    -1   -1   0   
$EndComp
Wire Wire Line
	15050 11500 14850 11500
Wire Wire Line
	14700 11500 14850 11500
Connection ~ 14850 11500
Wire Wire Line
	14850 11500 14850 11700
$Comp
L power:GND #PWR038
U 1 1 606F633C
P 15350 11500
F 0 "#PWR038" H 15350 11250 50  0001 C CNN
F 1 "GND" V 15350 11300 50  0000 C CNN
F 2 "" H 15350 11500 50  0001 C CNN
F 3 "" H 15350 11500 50  0001 C CNN
	1    15350 11500
	0    -1   -1   0   
$EndComp
$Comp
L power:GND #PWR033
U 1 1 607741E7
P 14850 12800
F 0 "#PWR033" H 14850 12550 50  0001 C CNN
F 1 "GND" H 14850 12650 50  0000 C CNN
F 2 "" H 14850 12800 50  0001 C CNN
F 3 "" H 14850 12800 50  0001 C CNN
	1    14850 12800
	1    0    0    -1  
$EndComp
NoConn ~ 15250 11900
NoConn ~ 15250 12000
NoConn ~ 15250 12100
NoConn ~ 15250 12200
NoConn ~ 15250 12400
NoConn ~ 15250 12500
NoConn ~ 15250 12600
Text Label 14450 12200 2    50   ~ 0
TDC_START_PULSE
Text Label 14450 12000 2    50   ~ 0
~CLK_PULSE_RESET
Text Label 11900 18500 0    50   ~ 0
I2CM_SDA
Text Label 11000 18650 2    50   ~ 0
I2CM_SCL
$Comp
L Device:R R9
U 1 1 61930588
P 17150 13400
F 0 "R9" V 17050 13400 50  0000 C CNN
F 1 "10k" V 17150 13400 50  0000 C CNN
F 2 "Resistor_SMD:R_0402_1005Metric_Pad0.72x0.64mm_HandSolder" V 17080 13400 50  0001 C CNN
F 3 "~" H 17150 13400 50  0001 C CNN
F 4 "0402" V 17250 13400 50  0000 C CNN "Package"
F 5 "0402WGF1002TCE" V 17150 13400 50  0001 C CNN "MPN"
F 6 "C25744" V 17150 13400 50  0001 C CNN "LCSC"
	1    17150 13400
	1    0    0    -1  
$EndComp
$Comp
L Device:CP C2
U 1 1 605234EC
P 5900 6750
F 0 "C2" H 5800 6850 50  0000 R CNN
F 1 "10u" H 5800 6750 50  0000 R CNN
F 2 "Capacitor_Tantalum_SMD:CP_EIA-3216-10_Kemet-I" H 5938 6600 50  0001 C CNN
F 3 "~" H 5900 6750 50  0001 C CNN
F 4 "3216" H 5800 6650 50  0000 R CNN "Package"
F 5 "" H 5900 6750 50  0001 C CNN "MPN"
F 6 "" H 5900 6750 50  0001 C CNN "LCSC"
	1    5900 6750
	1    0    0    -1  
$EndComp
Text Label 6200 12000 2    50   ~ 0
OCXO_CLK+_OUT_EN
Wire Wire Line
	6500 11700 6350 11700
$Comp
L power:+3.3V #PWR0134
U 1 1 62666E5B
P 6350 11700
F 0 "#PWR0134" H 6350 11550 50  0001 C CNN
F 1 "+3.3V" H 6365 11873 50  0000 C CNN
F 2 "" H 6350 11700 50  0001 C CNN
F 3 "" H 6350 11700 50  0001 C CNN
	1    6350 11700
	0    -1   -1   0   
$EndComp
$Comp
L Device:R R15
U 1 1 60631CA6
P 7100 12100
F 0 "R15" V 7000 12100 50  0000 C CNN
F 1 "10" V 7100 12100 50  0000 C CNN
F 2 "Resistor_SMD:R_0402_1005Metric_Pad0.72x0.64mm_HandSolder" V 7030 12100 50  0001 C CNN
F 3 "~" H 7100 12100 50  0001 C CNN
F 4 "0402" V 7200 12100 50  0000 C CNN "Package"
F 5 "0402WGF100JTCE" V 7100 12100 50  0001 C CNN "MPN"
F 6 "C25077" V 7100 12100 50  0001 C CNN "LCSC"
	1    7100 12100
	0    1    1    0   
$EndComp
Wire Wire Line
	6950 12100 6800 12100
$Comp
L Sundial:74x1G126 U12
U 1 1 60631C9D
P 6500 12100
F 0 "U12" H 6650 11900 50  0000 L CNN
F 1 "74LVC1G126" H 6650 11800 50  0000 L CNN
F 2 "Package_TO_SOT_SMD:SOT-353_SC-70-5" H 6500 12100 50  0001 C CNN
F 3 "" H 6500 12100 50  0001 C CNN
F 4 "SC-70-5" H 6650 11700 50  0000 L CNN "Package"
F 5 "SN74LVC1G126DCKR" H 6500 12100 50  0001 C CNN "MPN"
F 6 "C88039" H 6500 12100 50  0001 C CNN "LCSC"
	1    6500 12100
	1    0    0    -1  
$EndComp
$Comp
L Device:C C26
U 1 1 60631C96
P 6850 11700
F 0 "C26" V 6950 11800 50  0000 L CNN
F 1 "0.1u" V 6950 11600 50  0000 R CNN
F 2 "Capacitor_SMD:C_0402_1005Metric_Pad0.74x0.62mm_HandSolder" H 6888 11550 50  0001 C CNN
F 3 "~" H 6850 11700 50  0001 C CNN
F 4 "0402" V 6700 11700 50  0000 C CNN "Package"
F 5 "CL05B104KO5NNNC" H 6850 11700 50  0001 C CNN "MPN"
F 6 "C1525" V 6850 11700 50  0001 C CNN "LCSC"
	1    6850 11700
	0    -1   -1   0   
$EndComp
Wire Wire Line
	6700 11700 6500 11700
Connection ~ 6500 11700
Wire Wire Line
	6500 11700 6500 11900
$Comp
L power:GND #PWR0109
U 1 1 60631C8A
P 7000 11700
F 0 "#PWR0109" H 7000 11450 50  0001 C CNN
F 1 "GND" V 7000 11500 50  0000 C CNN
F 2 "" H 7000 11700 50  0001 C CNN
F 3 "" H 7000 11700 50  0001 C CNN
	1    7000 11700
	0    -1   -1   0   
$EndComp
$Comp
L power:GND #PWR0107
U 1 1 60631C7E
P 6500 12300
F 0 "#PWR0107" H 6500 12050 50  0001 C CNN
F 1 "GND" H 6500 12150 50  0000 C CNN
F 2 "" H 6500 12300 50  0001 C CNN
F 3 "" H 6500 12300 50  0001 C CNN
	1    6500 12300
	1    0    0    -1  
$EndComp
Wire Wire Line
	7400 12100 7250 12100
Text Label 3850 12200 0    50   ~ 0
OCXO_CLK+
Text Label 3350 11700 2    50   ~ 0
I2CM_CLK
Text Label 3850 11700 0    50   ~ 0
I2CM_SDA
Text Label 15050 3500 2    50   ~ 0
OCXO_SPI_MOSI
Text Label 15050 3400 2    50   ~ 0
OCXO_SPI_CLK
Wire Notes Line
	2000 13000 2000 9500
Wire Notes Line
	8500 13000 8500 9500
Wire Notes Line
	8500 9500 2000 9500
Wire Notes Line
	8500 13000 2000 13000
Wire Wire Line
	11500 12400 11300 12400
$Comp
L Device:R R12
U 1 1 6091558D
P 11150 12400
F 0 "R12" V 11050 12400 50  0000 C CNN
F 1 "10" V 11150 12400 50  0000 C CNN
F 2 "Resistor_SMD:R_0402_1005Metric_Pad0.72x0.64mm_HandSolder" V 11080 12400 50  0001 C CNN
F 3 "~" H 11150 12400 50  0001 C CNN
F 4 "0402" V 11250 12400 50  0000 C CNN "Package"
F 5 "0402WGF100JTCE" V 11150 12400 50  0001 C CNN "MPN"
F 6 "C25077" V 11150 12400 50  0001 C CNN "LCSC"
	1    11150 12400
	0    1    1    0   
$EndComp
Wire Wire Line
	11000 12400 10850 12400
Text Label 10850 12400 2    50   ~ 0
EXT_REF_CLK
Text Label 7400 12100 0    50   ~ 0
OCXO_CLK+_OUT
Text Label 7050 3900 0    50   ~ 0
OCXO_CLK+_OUT
Text Label 7050 3700 0    50   ~ 0
PSOC_1PPS_OUT
Text Label 6550 3700 2    50   ~ 0
EXT_REF_CLK
NoConn ~ 15050 3300
NoConn ~ 15050 6100
Text Label 6550 3900 2    50   ~ 0
TDC_REF_CLK
Text Label 3350 11900 2    50   ~ 0
OCXO_HSET1
Text Label 3350 12000 2    50   ~ 0
OCXO_HSENSE1
Text Label 3850 11900 0    50   ~ 0
OCXO_HSET2
Text Label 3850 12000 0    50   ~ 0
OCXO_HSENSE2
$Comp
L power:+5V #PWR0101
U 1 1 618CC8FB
P 3350 11800
F 0 "#PWR0101" H 3350 11650 50  0001 C CNN
F 1 "+5V" V 3350 12000 50  0000 C CNN
F 2 "" H 3350 11800 50  0001 C CNN
F 3 "" H 3350 11800 50  0001 C CNN
	1    3350 11800
	0    -1   1    0   
$EndComp
$Comp
L power:GND #PWR0110
U 1 1 61902CA6
P 3350 12200
F 0 "#PWR0110" H 3350 11950 50  0001 C CNN
F 1 "GND" V 3350 12000 50  0000 C CNN
F 2 "" H 3350 12200 50  0001 C CNN
F 3 "" H 3350 12200 50  0001 C CNN
	1    3350 12200
	0    1    -1   0   
$EndComp
$Comp
L power:GND #PWR0111
U 1 1 6191DD7E
P 3850 12100
F 0 "#PWR0111" H 3850 11850 50  0001 C CNN
F 1 "GND" V 3850 11900 50  0000 C CNN
F 2 "" H 3850 12100 50  0001 C CNN
F 3 "" H 3850 12100 50  0001 C CNN
	1    3850 12100
	0    -1   1    0   
$EndComp
Text Label 3850 11800 0    50   ~ 0
OCXO_VOUT2
Text Label 3350 12100 2    50   ~ 0
OCXO_VOUT1
$Comp
L Device:R R2
U 1 1 61C5A701
P 12200 19100
F 0 "R2" V 12100 19100 50  0000 C CNN
F 1 "DNI" V 12200 19100 50  0000 C CNN
F 2 "Resistor_SMD:R_0402_1005Metric_Pad0.72x0.64mm_HandSolder" V 12130 19100 50  0001 C CNN
F 3 "~" H 12200 19100 50  0001 C CNN
F 4 "0402" V 12300 19100 50  0000 C CNN "Package"
F 5 "0402WGF1001TCE" V 12200 19100 50  0001 C CNN "MPN"
F 6 "C11702" V 12200 19100 50  0001 C CNN "LCSC"
	1    12200 19100
	0    1    1    0   
$EndComp
Wire Wire Line
	11900 19100 12050 19100
$Comp
L Device:R R3
U 1 1 61CA1C23
P 12200 19700
F 0 "R3" V 12100 19700 50  0000 C CNN
F 1 "DNI" V 12200 19700 50  0000 C CNN
F 2 "Resistor_SMD:R_0402_1005Metric_Pad0.72x0.64mm_HandSolder" V 12130 19700 50  0001 C CNN
F 3 "~" H 12200 19700 50  0001 C CNN
F 4 "0402" V 12300 19700 50  0000 C CNN "Package"
F 5 "0402WGF1001TCE" V 12200 19700 50  0001 C CNN "MPN"
F 6 "C11702" V 12200 19700 50  0001 C CNN "LCSC"
	1    12200 19700
	0    1    1    0   
$EndComp
$Comp
L power:+3.3V #PWR0122
U 1 1 6136F0F5
P 12050 3200
F 0 "#PWR0122" H 12050 3050 50  0001 C CNN
F 1 "+3.3V" V 12050 3450 50  0000 C CNN
F 2 "" H 12050 3200 50  0001 C CNN
F 3 "" H 12050 3200 50  0001 C CNN
	1    12050 3200
	0    1    1    0   
$EndComp
$Comp
L power:+3.3V #PWR0121
U 1 1 61352D85
P 12050 2900
F 0 "#PWR0121" H 12050 2750 50  0001 C CNN
F 1 "+3.3V" V 12050 3150 50  0000 C CNN
F 2 "" H 12050 2900 50  0001 C CNN
F 3 "" H 12050 2900 50  0001 C CNN
	1    12050 2900
	0    1    1    0   
$EndComp
Text Label 11450 2900 2    50   ~ 0
I2CM_SCL
Text Label 11450 3200 2    50   ~ 0
I2CM_SDA
$Comp
L Device:R R24
U 1 1 6078D9F8
P 11750 3200
F 0 "R24" V 11650 3200 50  0000 C CNN
F 1 "1k" V 11750 3200 50  0000 C CNN
F 2 "Resistor_SMD:R_0402_1005Metric_Pad0.72x0.64mm_HandSolder" V 11680 3200 50  0001 C CNN
F 3 "~" H 11750 3200 50  0001 C CNN
F 4 "0402" V 11850 3200 50  0000 C CNN "Package"
F 5 "0402WGF1001TCE" V 11750 3200 50  0001 C CNN "MPN"
F 6 "C11702" V 11750 3200 50  0001 C CNN "LCSC"
	1    11750 3200
	0    1    1    0   
$EndComp
$Comp
L Device:R R22
U 1 1 6078D9EF
P 11750 2900
F 0 "R22" V 11650 2900 50  0000 C CNN
F 1 "1k" V 11750 2900 50  0000 C CNN
F 2 "Resistor_SMD:R_0402_1005Metric_Pad0.72x0.64mm_HandSolder" V 11680 2900 50  0001 C CNN
F 3 "~" H 11750 2900 50  0001 C CNN
F 4 "0402" V 11850 2900 50  0000 C CNN "Package"
F 5 "0402WGF1001TCE" V 11750 2900 50  0001 C CNN "MPN"
F 6 "C11702" V 11750 2900 50  0001 C CNN "LCSC"
	1    11750 2900
	0    1    1    0   
$EndComp
Text Notes 11250 2650 0    100  ~ 0
I2CM_PULLUP
Wire Wire Line
	11900 2900 12050 2900
Wire Wire Line
	11900 3200 12050 3200
Wire Wire Line
	11600 3200 11450 3200
Wire Wire Line
	11450 2900 11600 2900
Text Label 11650 19700 2    50   ~ 0
TDC_REF_CLK
Wire Wire Line
	11650 19700 12050 19700
Wire Wire Line
	12350 19700 13350 19700
Wire Wire Line
	12350 19100 13350 19100
$Comp
L Device:R R18
U 1 1 61D6132B
P 13350 19400
F 0 "R18" V 13250 19400 50  0000 C CNN
F 1 "DNI" V 13350 19400 50  0000 C CNN
F 2 "Resistor_SMD:R_0402_1005Metric_Pad0.72x0.64mm_HandSolder" V 13280 19400 50  0001 C CNN
F 3 "~" H 13350 19400 50  0001 C CNN
F 4 "0402" V 13450 19400 50  0000 C CNN "Package"
F 5 "0402WGF1001TCE" V 13350 19400 50  0001 C CNN "MPN"
F 6 "C11702" V 13350 19400 50  0001 C CNN "LCSC"
	1    13350 19400
	1    0    0    -1  
$EndComp
Wire Wire Line
	13350 19700 13350 19550
Wire Wire Line
	13350 19250 13350 19100
Connection ~ 13350 19100
Wire Wire Line
	13350 19100 14900 19100
Text Label 7050 3300 0    50   ~ 0
EXT_INTR
Text Label 7050 3100 0    50   ~ 0
PSOC_STATUS_INTR
$Comp
L power:GND #PWR0112
U 1 1 61F5257D
P 6500 6900
F 0 "#PWR0112" H 6500 6650 50  0001 C CNN
F 1 "GND" H 6500 6750 50  0000 C CNN
F 2 "" H 6500 6900 50  0001 C CNN
F 3 "" H 6500 6900 50  0001 C CNN
	1    6500 6900
	-1   0    0    -1  
$EndComp
$Comp
L power:+5V #PWR0114
U 1 1 61F52583
P 6500 6600
F 0 "#PWR0114" H 6500 6450 50  0001 C CNN
F 1 "+5V" H 6500 6750 50  0000 C CNN
F 2 "" H 6500 6600 50  0001 C CNN
F 3 "" H 6500 6600 50  0001 C CNN
	1    6500 6600
	-1   0    0    -1  
$EndComp
$Comp
L power:GND #PWR0115
U 1 1 61F6A8B8
P 7100 6900
F 0 "#PWR0115" H 7100 6650 50  0001 C CNN
F 1 "GND" H 7100 6750 50  0000 C CNN
F 2 "" H 7100 6900 50  0001 C CNN
F 3 "" H 7100 6900 50  0001 C CNN
	1    7100 6900
	-1   0    0    -1  
$EndComp
$Comp
L power:+5V #PWR0125
U 1 1 61F6A8BE
P 7100 6600
F 0 "#PWR0125" H 7100 6450 50  0001 C CNN
F 1 "+5V" H 7100 6750 50  0000 C CNN
F 2 "" H 7100 6600 50  0001 C CNN
F 3 "" H 7100 6600 50  0001 C CNN
	1    7100 6600
	-1   0    0    -1  
$EndComp
$Comp
L power:GND #PWR0126
U 1 1 61F8299B
P 7700 6900
F 0 "#PWR0126" H 7700 6650 50  0001 C CNN
F 1 "GND" H 7700 6750 50  0000 C CNN
F 2 "" H 7700 6900 50  0001 C CNN
F 3 "" H 7700 6900 50  0001 C CNN
	1    7700 6900
	-1   0    0    -1  
$EndComp
$Comp
L power:+5V #PWR0133
U 1 1 61F829A1
P 7700 6600
F 0 "#PWR0133" H 7700 6450 50  0001 C CNN
F 1 "+5V" H 7700 6750 50  0000 C CNN
F 2 "" H 7700 6600 50  0001 C CNN
F 3 "" H 7700 6600 50  0001 C CNN
	1    7700 6600
	-1   0    0    -1  
$EndComp
$Comp
L Device:CP C1
U 1 1 61FB3251
P 6500 6750
F 0 "C1" H 6400 6850 50  0000 R CNN
F 1 "10u" H 6400 6750 50  0000 R CNN
F 2 "Capacitor_Tantalum_SMD:CP_EIA-3216-10_Kemet-I" H 6538 6600 50  0001 C CNN
F 3 "~" H 6500 6750 50  0001 C CNN
F 4 "3216" H 6400 6650 50  0000 R CNN "Package"
F 5 "" H 6500 6750 50  0001 C CNN "MPN"
F 6 "" H 6500 6750 50  0001 C CNN "LCSC"
	1    6500 6750
	1    0    0    -1  
$EndComp
$Comp
L Device:CP C27
U 1 1 61FCB0E8
P 7100 6750
F 0 "C27" H 7000 6850 50  0000 R CNN
F 1 "10u" H 7000 6750 50  0000 R CNN
F 2 "Capacitor_Tantalum_SMD:CP_EIA-3216-10_Kemet-I" H 7138 6600 50  0001 C CNN
F 3 "~" H 7100 6750 50  0001 C CNN
F 4 "3216" H 7000 6650 50  0000 R CNN "Package"
F 5 "" H 7100 6750 50  0001 C CNN "MPN"
F 6 "" H 7100 6750 50  0001 C CNN "LCSC"
	1    7100 6750
	1    0    0    -1  
$EndComp
$Comp
L Device:CP C29
U 1 1 61FE2EB1
P 7700 6750
F 0 "C29" H 7600 6850 50  0000 R CNN
F 1 "10u" H 7600 6750 50  0000 R CNN
F 2 "Capacitor_Tantalum_SMD:CP_EIA-3216-10_Kemet-I" H 7738 6600 50  0001 C CNN
F 3 "~" H 7700 6750 50  0001 C CNN
F 4 "3216" H 7600 6650 50  0000 R CNN "Package"
F 5 "" H 7700 6750 50  0001 C CNN "MPN"
F 6 "" H 7700 6750 50  0001 C CNN "LCSC"
	1    7700 6750
	1    0    0    -1  
$EndComp
$Comp
L Sundial:CardEdge_02x20_Polarized_Odd_Even J2
U 1 1 62032228
P 6750 3200
F 0 "J2" H 6800 4250 50  0000 C CNN
F 1 "Samtec_MECF-20-02-L-DV-WT" H 6750 2050 50  0000 C CNN
F 2 "Connector_PCBEdge:Samtec_MECF-20-0_-L-DV_2x20_P1.27mm_Polarized_Edge" H 6750 3200 50  0001 C CNN
F 3 "~" H 6750 3200 50  0001 C CNN
	1    6750 3200
	1    0    0    -1  
$EndComp
$Comp
L power:GND #PWR0135
U 1 1 623AA248
P 6550 4000
F 0 "#PWR0135" H 6550 3750 50  0001 C CNN
F 1 "GND" V 6550 3800 50  0000 C CNN
F 2 "" H 6550 4000 50  0001 C CNN
F 3 "" H 6550 4000 50  0001 C CNN
	1    6550 4000
	0    1    1    0   
$EndComp
$Comp
L power:GND #PWR0136
U 1 1 623C01EB
P 6550 3800
F 0 "#PWR0136" H 6550 3550 50  0001 C CNN
F 1 "GND" V 6550 3600 50  0000 C CNN
F 2 "" H 6550 3800 50  0001 C CNN
F 3 "" H 6550 3800 50  0001 C CNN
	1    6550 3800
	0    1    1    0   
$EndComp
$Comp
L power:GND #PWR0137
U 1 1 623D60E1
P 6550 3600
F 0 "#PWR0137" H 6550 3350 50  0001 C CNN
F 1 "GND" V 6550 3400 50  0000 C CNN
F 2 "" H 6550 3600 50  0001 C CNN
F 3 "" H 6550 3600 50  0001 C CNN
	1    6550 3600
	0    1    1    0   
$EndComp
$Comp
L power:GND #PWR0138
U 1 1 62401E70
P 6550 3400
F 0 "#PWR0138" H 6550 3150 50  0001 C CNN
F 1 "GND" V 6550 3200 50  0000 C CNN
F 2 "" H 6550 3400 50  0001 C CNN
F 3 "" H 6550 3400 50  0001 C CNN
	1    6550 3400
	0    1    1    0   
$EndComp
$Comp
L power:GND #PWR0139
U 1 1 62417DF1
P 6550 3200
F 0 "#PWR0139" H 6550 2950 50  0001 C CNN
F 1 "GND" V 6550 3000 50  0000 C CNN
F 2 "" H 6550 3200 50  0001 C CNN
F 3 "" H 6550 3200 50  0001 C CNN
	1    6550 3200
	0    1    1    0   
$EndComp
$Comp
L power:GND #PWR0140
U 1 1 6242DCF3
P 6550 2900
F 0 "#PWR0140" H 6550 2650 50  0001 C CNN
F 1 "GND" V 6550 2700 50  0000 C CNN
F 2 "" H 6550 2900 50  0001 C CNN
F 3 "" H 6550 2900 50  0001 C CNN
	1    6550 2900
	0    1    1    0   
$EndComp
$Comp
L power:GND #PWR0141
U 1 1 62443CFC
P 6550 2700
F 0 "#PWR0141" H 6550 2450 50  0001 C CNN
F 1 "GND" V 6550 2500 50  0000 C CNN
F 2 "" H 6550 2700 50  0001 C CNN
F 3 "" H 6550 2700 50  0001 C CNN
	1    6550 2700
	0    1    1    0   
$EndComp
$Comp
L power:+5V #PWR0143
U 1 1 624DE4AE
P 7050 4100
F 0 "#PWR0143" H 7050 3950 50  0001 C CNN
F 1 "+5V" V 7050 4300 50  0000 C CNN
F 2 "" H 7050 4100 50  0001 C CNN
F 3 "" H 7050 4100 50  0001 C CNN
	1    7050 4100
	0    1    -1   0   
$EndComp
$Comp
L power:+5V #PWR0144
U 1 1 624F45C3
P 7050 2400
F 0 "#PWR0144" H 7050 2250 50  0001 C CNN
F 1 "+5V" V 7050 2600 50  0000 C CNN
F 2 "" H 7050 2400 50  0001 C CNN
F 3 "" H 7050 2400 50  0001 C CNN
	1    7050 2400
	0    1    -1   0   
$EndComp
$Comp
L power:+5V #PWR0145
U 1 1 6250A5C0
P 6550 2400
F 0 "#PWR0145" H 6550 2250 50  0001 C CNN
F 1 "+5V" V 6550 2600 50  0000 C CNN
F 2 "" H 6550 2400 50  0001 C CNN
F 3 "" H 6550 2400 50  0001 C CNN
	1    6550 2400
	0    -1   1    0   
$EndComp
$Comp
L power:+5V #PWR0146
U 1 1 62520560
P 6550 4100
F 0 "#PWR0146" H 6550 3950 50  0001 C CNN
F 1 "+5V" V 6550 4300 50  0000 C CNN
F 2 "" H 6550 4100 50  0001 C CNN
F 3 "" H 6550 4100 50  0001 C CNN
	1    6550 4100
	0    -1   1    0   
$EndComp
$Comp
L power:GND #PWR0150
U 1 1 6257945D
P 7050 4000
F 0 "#PWR0150" H 7050 3750 50  0001 C CNN
F 1 "GND" V 7050 3800 50  0000 C CNN
F 2 "" H 7050 4000 50  0001 C CNN
F 3 "" H 7050 4000 50  0001 C CNN
	1    7050 4000
	0    -1   -1   0   
$EndComp
$Comp
L power:GND #PWR0151
U 1 1 6258F425
P 7050 3800
F 0 "#PWR0151" H 7050 3550 50  0001 C CNN
F 1 "GND" V 7050 3600 50  0000 C CNN
F 2 "" H 7050 3800 50  0001 C CNN
F 3 "" H 7050 3800 50  0001 C CNN
	1    7050 3800
	0    -1   -1   0   
$EndComp
$Comp
L power:GND #PWR0152
U 1 1 625A540F
P 7050 3600
F 0 "#PWR0152" H 7050 3350 50  0001 C CNN
F 1 "GND" V 7050 3400 50  0000 C CNN
F 2 "" H 7050 3600 50  0001 C CNN
F 3 "" H 7050 3600 50  0001 C CNN
	1    7050 3600
	0    -1   -1   0   
$EndComp
$Comp
L power:GND #PWR0153
U 1 1 625BB43E
P 7050 3400
F 0 "#PWR0153" H 7050 3150 50  0001 C CNN
F 1 "GND" V 7050 3200 50  0000 C CNN
F 2 "" H 7050 3400 50  0001 C CNN
F 3 "" H 7050 3400 50  0001 C CNN
	1    7050 3400
	0    -1   -1   0   
$EndComp
$Comp
L power:GND #PWR0154
U 1 1 625D135B
P 7050 3200
F 0 "#PWR0154" H 7050 2950 50  0001 C CNN
F 1 "GND" V 7050 3000 50  0000 C CNN
F 2 "" H 7050 3200 50  0001 C CNN
F 3 "" H 7050 3200 50  0001 C CNN
	1    7050 3200
	0    -1   -1   0   
$EndComp
$Comp
L power:GND #PWR0155
U 1 1 625E72F2
P 7050 2900
F 0 "#PWR0155" H 7050 2650 50  0001 C CNN
F 1 "GND" V 7050 2700 50  0000 C CNN
F 2 "" H 7050 2900 50  0001 C CNN
F 3 "" H 7050 2900 50  0001 C CNN
	1    7050 2900
	0    -1   -1   0   
$EndComp
$Comp
L power:GND #PWR0156
U 1 1 625FD21B
P 6550 2500
F 0 "#PWR0156" H 6550 2250 50  0001 C CNN
F 1 "GND" V 6550 2300 50  0000 C CNN
F 2 "" H 6550 2500 50  0001 C CNN
F 3 "" H 6550 2500 50  0001 C CNN
	1    6550 2500
	0    1    1    0   
$EndComp
$Comp
L power:GND #PWR0157
U 1 1 62613122
P 7050 2500
F 0 "#PWR0157" H 7050 2250 50  0001 C CNN
F 1 "GND" V 7050 2300 50  0000 C CNN
F 2 "" H 7050 2500 50  0001 C CNN
F 3 "" H 7050 2500 50  0001 C CNN
	1    7050 2500
	0    -1   -1   0   
$EndComp
Wire Notes Line
	8500 6000 5000 6000
Wire Notes Line
	5000 7500 8500 7500
Wire Notes Line
	5000 6000 5000 7500
Wire Notes Line
	8500 6000 8500 7500
Text Notes 5000 5800 0    250  ~ 0
Bypass Capacitors
Text Label 11600 15000 0    50   ~ 0
OCXO_CLK+_DIV100
$Comp
L Device:R R1
U 1 1 62E30184
P 5800 12200
F 0 "R1" V 5700 12200 50  0000 C CNN
F 1 "10" V 5800 12200 50  0000 C CNN
F 2 "Resistor_SMD:R_0402_1005Metric_Pad0.72x0.64mm_HandSolder" V 5730 12200 50  0001 C CNN
F 3 "~" H 5800 12200 50  0001 C CNN
F 4 "0402" V 5900 12200 50  0000 C CNN "Package"
F 5 "0402WGF100JTCE" V 5800 12200 50  0001 C CNN "MPN"
F 6 "C25077" V 5800 12200 50  0001 C CNN "LCSC"
	1    5800 12200
	0    1    1    0   
$EndComp
Wire Wire Line
	5950 12200 6200 12200
Wire Wire Line
	5650 12200 3850 12200
Wire Wire Line
	12950 15200 12350 15200
Wire Wire Line
	15250 12300 15550 12300
$Comp
L Device:R R19
U 1 1 6304B6D5
P 15700 12300
F 0 "R19" V 15600 12300 50  0000 C CNN
F 1 "10" V 15700 12300 50  0000 C CNN
F 2 "Resistor_SMD:R_0402_1005Metric_Pad0.72x0.64mm_HandSolder" V 15630 12300 50  0001 C CNN
F 3 "~" H 15700 12300 50  0001 C CNN
F 4 "0402" V 15800 12300 50  0000 C CNN "Package"
F 5 "0402WGF100JTCE" V 15700 12300 50  0001 C CNN "MPN"
F 6 "C25077" V 15700 12300 50  0001 C CNN "LCSC"
	1    15700 12300
	0    1    1    0   
$EndComp
Wire Wire Line
	15850 12300 16150 12300
Text Label 15050 4900 2    50   ~ 0
OCXO_VOUT2
Text Label 15050 4800 2    50   ~ 0
OCXO_VOUT1
NoConn ~ 15050 4700
Text Label 7050 2600 0    50   ~ 0
PSOC_SPIS_MISO
Text Label 7050 2800 0    50   ~ 0
~PSOC_SPIS_SS
$Comp
L Sundial:CY8C5866LTI-LP022 U10
U 1 1 5F458528
P 17850 2900
F 0 "U10" H 19250 3288 60  0000 C CNN
F 1 "CY8C5888LTQ-LP097" H 19250 3182 60  0000 C CNN
F 2 "Package_DFN_QFN:QFN-68-1EP_8x8mm_P0.4mm_EP5.2x5.2mm" H 19250 3140 60  0001 C CNN
F 3 "" H 17850 2900 60  0000 C CNN
F 4 "CY8C5888LTQ-LP097" H 17850 2900 50  0001 C CNN "MPN"
	1    17850 2900
	-1   0    0    -1  
$EndComp
Text Label 15050 3700 2    50   ~ 0
~OCXO_SPI_CS
Text Label 15050 7200 2    50   ~ 0
OCXO_HSENSE2
NoConn ~ 15050 3000
$Comp
L power:GND #PWR0162
U 1 1 63205EDE
P 7050 2700
F 0 "#PWR0162" H 7050 2450 50  0001 C CNN
F 1 "GND" V 7050 2500 50  0000 C CNN
F 2 "" H 7050 2700 50  0001 C CNN
F 3 "" H 7050 2700 50  0001 C CNN
	1    7050 2700
	0    -1   -1   0   
$EndComp
Connection ~ 11000 8000
Wire Wire Line
	11000 8000 11000 8150
Wire Wire Line
	11000 8000 11450 8000
Text Label 15050 8600 2    50   ~ 0
EXT_INTR
Text Label 15050 8700 2    50   ~ 0
PSOC_STATUS_INTR
$Comp
L Device:R R7
U 1 1 633268A3
P 5200 12000
F 0 "R7" V 5100 12000 50  0000 C CNN
F 1 "10" V 5200 12000 50  0000 C CNN
F 2 "Resistor_SMD:R_0402_1005Metric_Pad0.72x0.64mm_HandSolder" V 5130 12000 50  0001 C CNN
F 3 "~" H 5200 12000 50  0001 C CNN
F 4 "0402" V 5300 12000 50  0000 C CNN "Package"
F 5 "0402WGF100JTCE" V 5200 12000 50  0001 C CNN "MPN"
F 6 "C25077" V 5200 12000 50  0001 C CNN "LCSC"
	1    5200 12000
	0    1    1    0   
$EndComp
$Comp
L power:+3.3V #PWR0147
U 1 1 6333E270
P 5050 12000
F 0 "#PWR0147" H 5050 11850 50  0001 C CNN
F 1 "+3.3V" H 5065 12173 50  0000 C CNN
F 2 "" H 5050 12000 50  0001 C CNN
F 3 "" H 5050 12000 50  0001 C CNN
	1    5050 12000
	0    -1   -1   0   
$EndComp
Wire Wire Line
	5350 12000 6200 12000
$Comp
L power:+5V #PWR0161
U 1 1 633D2782
P 4450 6400
F 0 "#PWR0161" H 4450 6250 50  0001 C CNN
F 1 "+5V" H 4450 6550 50  0000 C CNN
F 2 "" H 4450 6400 50  0001 C CNN
F 3 "" H 4450 6400 50  0001 C CNN
	1    4450 6400
	-1   0    0    -1  
$EndComp
$Comp
L power:PWR_FLAG #FLG0101
U 1 1 633EA075
P 4450 6400
F 0 "#FLG0101" H 4450 6475 50  0001 C CNN
F 1 "PWR_FLAG" H 4450 6573 50  0000 C CNN
F 2 "" H 4450 6400 50  0001 C CNN
F 3 "~" H 4450 6400 50  0001 C CNN
	1    4450 6400
	-1   0    0    1   
$EndComp
$Comp
L power:GND #PWR0163
U 1 1 6341BE71
P 4450 7100
F 0 "#PWR0163" H 4450 6850 50  0001 C CNN
F 1 "GND" H 4455 6927 50  0000 C CNN
F 2 "" H 4450 7100 50  0001 C CNN
F 3 "" H 4450 7100 50  0001 C CNN
	1    4450 7100
	-1   0    0    1   
$EndComp
$Comp
L power:PWR_FLAG #FLG0102
U 1 1 6343379B
P 4450 7100
F 0 "#FLG0102" H 4450 7175 50  0001 C CNN
F 1 "PWR_FLAG" H 4450 7273 50  0000 C CNN
F 2 "" H 4450 7100 50  0001 C CNN
F 3 "~" H 4450 7100 50  0001 C CNN
	1    4450 7100
	-1   0    0    1   
$EndComp
$Comp
L Connector_Generic:Conn_02x07_Counter_Clockwise J1
U 1 1 61844856
P 3550 11900
F 0 "J1" H 3600 12350 50  0000 C CNN
F 1 "DIP14" H 3600 11450 50  0000 C CNN
F 2 "" H 3550 11900 50  0001 C CNN
F 3 "~" H 3550 11900 50  0001 C CNN
	1    3550 11900
	1    0    0    -1  
$EndComp
Wire Wire Line
	14250 13450 14250 12500
Text Label 12500 13650 2    50   ~ 0
OCXO_CLK+
Text Label 12500 13450 2    50   ~ 0
OCXO_CLK+_DIV10
Wire Wire Line
	12950 13650 12500 13650
$Comp
L power:+3.3V #PWR?
U 1 1 617112FA
P 13050 13150
F 0 "#PWR?" H 13050 13000 50  0001 C CNN
F 1 "+3.3V" H 13065 13323 50  0000 C CNN
F 2 "" H 13050 13150 50  0001 C CNN
F 3 "" H 13050 13150 50  0001 C CNN
	1    13050 13150
	0    -1   -1   0   
$EndComp
Wire Wire Line
	12500 13450 12650 13450
Wire Wire Line
	14250 13450 13950 13450
$Comp
L Device:R R?
U 1 1 617112F2
P 13800 13450
F 0 "R?" V 13700 13450 50  0000 C CNN
F 1 "DNI" V 13800 13450 50  0000 C CNN
F 2 "Resistor_SMD:R_0402_1005Metric_Pad0.72x0.64mm_HandSolder" V 13730 13450 50  0001 C CNN
F 3 "~" H 13800 13450 50  0001 C CNN
F 4 "0402" V 13900 13450 50  0000 C CNN "Package"
F 5 "0402WGF100JTCE" V 13800 13450 50  0001 C CNN "MPN"
F 6 "C25077" V 13800 13450 50  0001 C CNN "LCSC"
	1    13800 13450
	0    1    1    0   
$EndComp
$Comp
L Device:R R?
U 1 1 617112E9
P 12800 13450
F 0 "R?" V 12700 13450 50  0000 C CNN
F 1 "10" V 12800 13450 50  0000 C CNN
F 2 "Resistor_SMD:R_0402_1005Metric_Pad0.72x0.64mm_HandSolder" V 12730 13450 50  0001 C CNN
F 3 "~" H 12800 13450 50  0001 C CNN
F 4 "0402" V 12900 13450 50  0000 C CNN "Package"
F 5 "0402WGF100JTCE" V 12800 13450 50  0001 C CNN "MPN"
F 6 "C25077" V 12800 13450 50  0001 C CNN "LCSC"
	1    12800 13450
	0    1    1    0   
$EndComp
$Comp
L Sundial:74x1G79 U?
U 1 1 617112E0
P 13200 13550
F 0 "U?" H 13450 13400 50  0000 L CNN
F 1 "74x1G79" H 13450 13300 50  0000 L CNN
F 2 "Package_TO_SOT_SMD:SOT-353_SC-70-5" H 13200 13550 50  0001 C CNN
F 3 "" H 13200 13550 50  0001 C CNN
F 4 "SC70-5" H 13450 13200 50  0000 L CNN "Package"
F 5 "74LVC1G79GV,125" H 13200 13550 50  0001 C CNN "MPN"
F 6 "" H 13200 13550 50  0001 C CNN "LCSC"
	1    13200 13550
	1    0    0    -1  
$EndComp
$Comp
L Device:C C?
U 1 1 617112D7
P 13550 13150
F 0 "C?" V 13650 13250 50  0000 L CNN
F 1 "0.1u" V 13650 13050 50  0000 R CNN
F 2 "Capacitor_SMD:C_0402_1005Metric_Pad0.74x0.62mm_HandSolder" H 13588 13000 50  0001 C CNN
F 3 "~" H 13550 13150 50  0001 C CNN
F 4 "0402" V 13400 13150 50  0000 C CNN "Package"
F 5 "CL05B104KO5NNNC" H 13550 13150 50  0001 C CNN "MPN"
F 6 "C1525" V 13550 13150 50  0001 C CNN "LCSC"
	1    13550 13150
	0    -1   -1   0   
$EndComp
Wire Wire Line
	13400 13150 13200 13150
Wire Wire Line
	13050 13150 13200 13150
Connection ~ 13200 13150
Wire Wire Line
	13200 13150 13200 13300
$Comp
L power:GND #PWR?
U 1 1 617112CA
P 13700 13150
F 0 "#PWR?" H 13700 12900 50  0001 C CNN
F 1 "GND" V 13700 12950 50  0000 C CNN
F 2 "" H 13700 13150 50  0001 C CNN
F 3 "" H 13700 13150 50  0001 C CNN
	1    13700 13150
	0    -1   -1   0   
$EndComp
$Comp
L power:GND #PWR?
U 1 1 617112C4
P 13200 13800
F 0 "#PWR?" H 13200 13550 50  0001 C CNN
F 1 "GND" H 13200 13650 50  0000 C CNN
F 2 "" H 13200 13800 50  0001 C CNN
F 3 "" H 13200 13800 50  0001 C CNN
	1    13200 13800
	1    0    0    -1  
$EndComp
Wire Wire Line
	13650 13450 13450 13450
Wire Wire Line
	14450 12300 14250 12300
Wire Wire Line
	14250 12300 14250 12200
$Comp
L power:+5V #PWR?
U 1 1 61A4EA31
P 6550 2300
F 0 "#PWR?" H 6550 2150 50  0001 C CNN
F 1 "+5V" V 6550 2500 50  0000 C CNN
F 2 "" H 6550 2300 50  0001 C CNN
F 3 "" H 6550 2300 50  0001 C CNN
	1    6550 2300
	0    -1   1    0   
$EndComp
$Comp
L power:+5V #PWR?
U 1 1 61A6709D
P 7050 2300
F 0 "#PWR?" H 7050 2150 50  0001 C CNN
F 1 "+5V" V 7050 2500 50  0000 C CNN
F 2 "" H 7050 2300 50  0001 C CNN
F 3 "" H 7050 2300 50  0001 C CNN
	1    7050 2300
	0    1    -1   0   
$EndComp
$Comp
L power:+5V #PWR?
U 1 1 61A7F7F8
P 7050 4200
F 0 "#PWR?" H 7050 4050 50  0001 C CNN
F 1 "+5V" V 7050 4400 50  0000 C CNN
F 2 "" H 7050 4200 50  0001 C CNN
F 3 "" H 7050 4200 50  0001 C CNN
	1    7050 4200
	0    1    -1   0   
$EndComp
$Comp
L power:+5V #PWR?
U 1 1 61A97E90
P 6550 4200
F 0 "#PWR?" H 6550 4050 50  0001 C CNN
F 1 "+5V" V 6550 4400 50  0000 C CNN
F 2 "" H 6550 4200 50  0001 C CNN
F 3 "" H 6550 4200 50  0001 C CNN
	1    6550 4200
	0    -1   1    0   
$EndComp
Wire Wire Line
	15250 11900 15550 11900
$Comp
L Device:R R?
U 1 1 61CB066A
P 15700 11900
F 0 "R?" V 15600 11900 50  0000 C CNN
F 1 "10" V 15700 11900 50  0000 C CNN
F 2 "Resistor_SMD:R_0402_1005Metric_Pad0.72x0.64mm_HandSolder" V 15630 11900 50  0001 C CNN
F 3 "~" H 15700 11900 50  0001 C CNN
F 4 "0402" V 15800 11900 50  0000 C CNN "Package"
F 5 "0402WGF100JTCE" V 15700 11900 50  0001 C CNN "MPN"
F 6 "C25077" V 15700 11900 50  0001 C CNN "LCSC"
	1    15700 11900
	0    1    1    0   
$EndComp
Wire Wire Line
	15850 11900 16150 11900
Wire Wire Line
	16150 11900 16150 12300
Connection ~ 16150 12300
Text Label 13350 12500 2    50   ~ 0
OCXO_CLK+
$Comp
L Device:R R?
U 1 1 61D1505B
P 13800 12500
F 0 "R?" V 13700 12500 50  0000 C CNN
F 1 "10" V 13800 12500 50  0000 C CNN
F 2 "Resistor_SMD:R_0402_1005Metric_Pad0.72x0.64mm_HandSolder" V 13730 12500 50  0001 C CNN
F 3 "~" H 13800 12500 50  0001 C CNN
F 4 "0402" V 13900 12500 50  0000 C CNN "Package"
F 5 "0402WGF100JTCE" V 13800 12500 50  0001 C CNN "MPN"
F 6 "C25077" V 13800 12500 50  0001 C CNN "LCSC"
	1    13800 12500
	0    1    1    0   
$EndComp
Wire Wire Line
	13350 12500 13650 12500
Wire Wire Line
	13950 12500 14250 12500
Connection ~ 14250 12500
Wire Wire Line
	14250 12500 14450 12500
Text Label 7050 3500 0    50   ~ 0
PSOC_10MHz_OUT
Text Label 15050 7100 2    50   ~ 0
OCXO_CLK+_DIV100
Text Label 15050 8000 2    50   ~ 0
OCXO_CLK+_DIV10
$Comp
L power:+5V #PWR?
U 1 1 61C0F6C3
P 3350 11600
F 0 "#PWR?" H 3350 11450 50  0001 C CNN
F 1 "+5V" V 3350 11800 50  0000 C CNN
F 2 "" H 3350 11600 50  0001 C CNN
F 3 "" H 3350 11600 50  0001 C CNN
	1    3350 11600
	0    -1   1    0   
$EndComp
Text Label 15050 6000 2    50   ~ 0
PSOC_I2CS_SCL
Wire Wire Line
	5650 10500 5650 10650
Wire Wire Line
	5500 10500 5650 10500
$Comp
L power:GND #PWR?
U 1 1 61CA1D0B
P 5650 10950
F 0 "#PWR?" H 5650 10700 50  0001 C CNN
F 1 "GND" H 5650 10800 50  0000 C CNN
F 2 "" H 5650 10950 50  0001 C CNN
F 3 "" H 5650 10950 50  0001 C CNN
	1    5650 10950
	1    0    0    -1  
$EndComp
$Comp
L Device:C C?
U 1 1 61CA1D14
P 5650 10800
F 0 "C?" H 5765 10891 50  0000 L CNN
F 1 "10n" H 5765 10800 50  0000 L CNN
F 2 "Capacitor_SMD:C_0402_1005Metric_Pad0.74x0.62mm_HandSolder" H 5688 10650 50  0001 C CNN
F 3 "~" H 5650 10800 50  0001 C CNN
F 4 "0402" H 5765 10709 50  0000 L CNN "Package"
F 5 "CL05B103KB5NNNC" H 5650 10800 50  0001 C CNN "MPN"
F 6 "C15195" H 5650 10800 50  0001 C CNN "LCSC"
	1    5650 10800
	-1   0    0    -1  
$EndComp
Wire Wire Line
	4250 10200 4700 10200
$Comp
L Sundial:MIC5219YM5 U?
U 1 1 61CA1D1E
P 5100 10350
F 0 "U?" H 5100 10787 60  0000 C CNN
F 1 "MIC5219YM5" H 5100 10681 60  0000 C CNN
F 2 "Package_TO_SOT_SMD:SOT-23-5" H 5100 10200 60  0001 C CNN
F 3 "" H 5100 10200 60  0001 C CNN
F 4 "SOT-23-5" H 5100 10000 50  0000 C CNN "Package"
F 5 "MIC5219-3.3YM5" H 5100 10350 50  0001 C CNN "MPN"
F 6 "C29613" H 5100 10350 50  0001 C CNN "LCSC"
	1    5100 10350
	1    0    0    -1  
$EndComp
$Comp
L power:+5V #PWR?
U 1 1 61CA1D24
P 4250 10100
F 0 "#PWR?" H 4250 9950 50  0001 C CNN
F 1 "+5V" H 4250 10250 50  0000 C CNN
F 2 "" H 4250 10100 50  0001 C CNN
F 3 "" H 4250 10100 50  0001 C CNN
	1    4250 10100
	-1   0    0    -1  
$EndComp
Connection ~ 4250 10200
Wire Wire Line
	4250 10200 4250 10500
$Comp
L power:GND #PWR?
U 1 1 61CA1D32
P 4250 10950
F 0 "#PWR?" H 4250 10700 50  0001 C CNN
F 1 "GND" H 4250 10800 50  0000 C CNN
F 2 "" H 4250 10950 50  0001 C CNN
F 3 "" H 4250 10950 50  0001 C CNN
	1    4250 10950
	1    0    0    -1  
$EndComp
$Comp
L Device:C C?
U 1 1 61CA1D3B
P 4250 10800
F 0 "C?" H 4365 10891 50  0000 L CNN
F 1 "1u" H 4365 10800 50  0000 L CNN
F 2 "Capacitor_SMD:C_0603_1608Metric_Pad1.05x0.95mm_HandSolder" H 4288 10650 50  0001 C CNN
F 3 "~" H 4250 10800 50  0001 C CNN
F 4 "0603" H 4365 10709 50  0000 L CNN "Package"
F 5 "CL10A105KB8NNNC" H 4250 10800 50  0001 C CNN "MPN"
F 6 "C15849" H 4250 10800 50  0001 C CNN "LCSC"
	1    4250 10800
	-1   0    0    -1  
$EndComp
Wire Wire Line
	6000 10200 6000 10350
Wire Wire Line
	5500 10200 6000 10200
$Comp
L power:GND #PWR?
U 1 1 61CA1D45
P 6000 10650
F 0 "#PWR?" H 6000 10400 50  0001 C CNN
F 1 "GND" H 6000 10500 50  0000 C CNN
F 2 "" H 6000 10650 50  0001 C CNN
F 3 "" H 6000 10650 50  0001 C CNN
	1    6000 10650
	1    0    0    -1  
$EndComp
Wire Wire Line
	4250 10200 4250 10100
$Comp
L power:GND #PWR?
U 1 1 61CA1D4C
P 4700 10350
F 0 "#PWR?" H 4700 10100 50  0001 C CNN
F 1 "GND" V 4700 10150 50  0000 C CNN
F 2 "" H 4700 10350 50  0001 C CNN
F 3 "" H 4700 10350 50  0001 C CNN
	1    4700 10350
	0    1    -1   0   
$EndComp
$Comp
L Device:CP C?
U 1 1 61CA1D55
P 6000 10500
F 0 "C?" H 6115 10591 50  0000 L CNN
F 1 "2.2u" H 6115 10500 50  0000 L CNN
F 2 "Capacitor_Tantalum_SMD:CP_EIA-3216-12_Kemet-S" H 6038 10350 50  0001 C CNN
F 3 "~" H 6000 10500 50  0001 C CNN
F 4 "3216" H 6115 10409 50  0000 L CNN "Package"
F 5 "293D225X9016A2TE3" H 6000 10500 50  0001 C CNN "MPN"
F 6 "C146174" H 6000 10500 50  0001 C CNN "LCSC"
	1    6000 10500
	1    0    0    -1  
$EndComp
Connection ~ 4250 10500
Wire Wire Line
	4250 10500 4250 10650
Wire Wire Line
	4250 10500 4700 10500
Connection ~ 6000 10200
Wire Wire Line
	6000 10100 6000 10200
$Comp
L power:VDD #PWR?
U 1 1 61D0F8D0
P 6000 10100
F 0 "#PWR?" H 6000 9950 50  0001 C CNN
F 1 "VDD" H 6015 10273 50  0000 C CNN
F 2 "" H 6000 10100 50  0001 C CNN
F 3 "" H 6000 10100 50  0001 C CNN
	1    6000 10100
	1    0    0    -1  
$EndComp
$Comp
L power:VDD #PWR?
U 1 1 61D10439
P 3850 11600
F 0 "#PWR?" H 3850 11450 50  0001 C CNN
F 1 "VDD" V 3850 11800 50  0000 C CNN
F 2 "" H 3850 11600 50  0001 C CNN
F 3 "" H 3850 11600 50  0001 C CNN
	1    3850 11600
	0    1    1    0   
$EndComp
$Comp
L Connector_Generic:Conn_01x05 J?
U 1 1 61D472F4
P 19450 5750
F 0 "J?" H 19530 5792 50  0000 L CNN
F 1 "Conn_01x05" H 19530 5701 50  0000 L CNN
F 2 "" H 19450 5750 50  0001 C CNN
F 3 "~" H 19450 5750 50  0001 C CNN
	1    19450 5750
	1    0    0    -1  
$EndComp
Text Label 19250 5750 2    50   ~ 0
~PSOC_XRES
$Comp
L power:GND #PWR?
U 1 1 61D62FE4
P 19250 5650
F 0 "#PWR?" H 19250 5400 50  0001 C CNN
F 1 "GND" V 19250 5450 50  0000 C CNN
F 2 "" H 19250 5650 50  0001 C CNN
F 3 "" H 19250 5650 50  0001 C CNN
	1    19250 5650
	0    1    -1   0   
$EndComp
$Comp
L power:+3.3VP #PWR?
U 1 1 61D7C6F5
P 19300 5550
F 0 "#PWR?" H 19450 5500 50  0001 C CNN
F 1 "+3.3VP" V 19300 5800 50  0000 C CNN
F 2 "" H 19300 5550 50  0001 C CNN
F 3 "" H 19300 5550 50  0001 C CNN
	1    19300 5550
	0    -1   -1   0   
$EndComp
Text Label 19250 5950 2    50   ~ 0
PSOC_SWDIO
Text Label 19250 5850 2    50   ~ 0
PSOC_SWCLK
NoConn ~ 6550 3300
NoConn ~ 6550 3500
Wire Wire Line
	15200 20550 15000 20550
Wire Wire Line
	15700 20550 15500 20550
$Comp
L Device:R R?
U 1 1 61E3608E
P 15350 20550
F 0 "R?" V 15250 20550 50  0000 C CNN
F 1 "1M" V 15350 20550 50  0000 C CNN
F 2 "Resistor_SMD:R_0402_1005Metric_Pad0.72x0.64mm_HandSolder" V 15280 20550 50  0001 C CNN
F 3 "~" H 15350 20550 50  0001 C CNN
F 4 "0402" V 15450 20550 50  0000 C CNN "Package"
F 5 "0402WGF0000TCE" V 15350 20550 50  0001 C CNN "MPN"
F 6 "C17168" V 15350 20550 50  0001 C CNN "LCSC"
	1    15350 20550
	0    -1   1    0   
$EndComp
Wire Wire Line
	15200 20250 15000 20250
Wire Wire Line
	15700 20250 15500 20250
$Comp
L Device:R R?
U 1 1 61E3609B
P 15350 20250
F 0 "R?" V 15250 20250 50  0000 C CNN
F 1 "1M" V 15350 20250 50  0000 C CNN
F 2 "Resistor_SMD:R_0402_1005Metric_Pad0.72x0.64mm_HandSolder" V 15280 20250 50  0001 C CNN
F 3 "~" H 15350 20250 50  0001 C CNN
F 4 "0402" V 15450 20250 50  0000 C CNN "Package"
F 5 "0402WGF0000TCE" V 15350 20250 50  0001 C CNN "MPN"
F 6 "C17168" V 15350 20250 50  0001 C CNN "LCSC"
	1    15350 20250
	0    -1   1    0   
$EndComp
Text Label 15000 20250 2    50   ~ 0
TDC_START_PULSE
Text Label 15000 20550 2    50   ~ 0
TDC_STOP_PULSE
$Comp
L power:GND #PWR?
U 1 1 61F31F0E
P 15700 20250
F 0 "#PWR?" H 15700 20000 50  0001 C CNN
F 1 "GND" H 15705 20077 50  0000 C CNN
F 2 "" H 15700 20250 50  0001 C CNN
F 3 "" H 15700 20250 50  0001 C CNN
	1    15700 20250
	0    -1   -1   0   
$EndComp
$Comp
L power:GND #PWR?
U 1 1 61F4B22F
P 15700 20550
F 0 "#PWR?" H 15700 20300 50  0001 C CNN
F 1 "GND" H 15705 20377 50  0000 C CNN
F 2 "" H 15700 20550 50  0001 C CNN
F 3 "" H 15700 20550 50  0001 C CNN
	1    15700 20550
	0    -1   -1   0   
$EndComp
$EndSCHEMATC
