EESchema Schematic File Version 4
EELAYER 30 0
EELAYER END
$Descr D 34000 22000
encoding utf-8
Sheet 1 1
Title ""
Date ""
Rev ""
Comp ""
Comment1 ""
Comment2 ""
Comment3 ""
Comment4 ""
$EndDescr
Wire Notes Line
	23500 2850 23500 8550
Wire Notes Line
	23300 3500 31500 3500
Wire Notes Line
	23300 4500 31500 4500
Wire Notes Line
	23300 5500 31500 5500
Wire Notes Line
	23550 4450 23650 4450
Wire Notes Line
	23750 3950 23750 4450
Wire Notes Line
	23650 3950 23750 3950
Wire Notes Line
	23650 3950 23650 4450
Wire Notes Line
	23750 4450 23850 4450
Wire Notes Line
	23950 3950 23950 4450
Wire Notes Line
	23850 3950 23950 3950
Wire Notes Line
	23850 3950 23850 4450
Wire Notes Line
	23950 4450 24050 4450
Wire Notes Line
	24150 3950 24150 4450
Wire Notes Line
	24050 3950 24150 3950
Wire Notes Line
	24050 3950 24050 4450
Wire Notes Line
	24150 4450 24250 4450
Wire Notes Line
	24350 3950 24350 4450
Wire Notes Line
	24250 3950 24350 3950
Wire Notes Line
	24250 3950 24250 4450
Wire Notes Line
	24350 4450 24450 4450
Wire Notes Line
	24550 3950 24550 4450
Wire Notes Line
	24450 3950 24550 3950
Wire Notes Line
	24450 3950 24450 4450
Wire Notes Line
	24550 4450 24650 4450
Wire Notes Line
	24750 3950 24750 4450
Wire Notes Line
	24650 3950 24750 3950
Wire Notes Line
	24650 3950 24650 4450
Wire Notes Line
	24750 4450 24850 4450
Wire Notes Line
	24950 3950 24950 4450
Wire Notes Line
	24850 3950 24950 3950
Wire Notes Line
	24850 3950 24850 4450
Wire Notes Line
	24950 4450 25050 4450
Wire Notes Line
	25150 3950 25150 4450
Wire Notes Line
	25050 3950 25150 3950
Wire Notes Line
	25050 3950 25050 4450
Wire Notes Line
	25150 4450 25250 4450
Wire Notes Line
	25350 3950 25350 4450
Wire Notes Line
	25250 3950 25350 3950
Wire Notes Line
	25250 3950 25250 4450
Wire Notes Line
	25350 4450 25450 4450
Wire Notes Line
	25550 3950 25550 4450
Wire Notes Line
	25450 3950 25550 3950
Wire Notes Line
	25450 3950 25450 4450
Wire Notes Line
	25550 4450 25650 4450
Wire Notes Line
	25750 3950 25750 4450
Wire Notes Line
	25650 3950 25750 3950
Wire Notes Line
	25650 3950 25650 4450
Wire Notes Line
	25750 4450 25850 4450
Wire Notes Line
	25950 3950 25950 4450
Wire Notes Line
	25850 3950 25950 3950
Wire Notes Line
	25850 3950 25850 4450
Wire Notes Line
	25950 4450 26050 4450
Wire Notes Line
	26150 3950 26150 4450
Wire Notes Line
	26050 3950 26150 3950
Wire Notes Line
	26050 3950 26050 4450
Wire Notes Line
	26150 4450 26250 4450
Wire Notes Line
	26350 3950 26350 4450
Wire Notes Line
	26250 3950 26350 3950
Wire Notes Line
	26250 3950 26250 4450
Wire Notes Line
	26350 4450 26450 4450
Wire Notes Line
	26550 3950 26550 4450
Wire Notes Line
	26450 3950 26550 3950
Wire Notes Line
	26450 3950 26450 4450
Wire Notes Line
	26550 4450 26650 4450
Wire Notes Line
	26750 3950 26750 4450
Wire Notes Line
	26650 3950 26750 3950
Wire Notes Line
	26650 3950 26650 4450
Wire Notes Line
	26750 4450 26850 4450
Wire Notes Line
	26950 3950 26950 4450
Wire Notes Line
	26850 3950 26950 3950
Wire Notes Line
	26850 3950 26850 4450
Wire Notes Line
	26950 4450 27050 4450
Wire Notes Line
	27150 3950 27150 4450
Wire Notes Line
	27050 3950 27150 3950
Wire Notes Line
	27050 3950 27050 4450
Wire Notes Line
	27150 4450 27250 4450
Wire Notes Line
	27350 3950 27350 4450
Wire Notes Line
	27250 3950 27350 3950
Wire Notes Line
	27250 3950 27250 4450
Wire Notes Line
	27350 4450 27450 4450
Wire Notes Line
	27550 3950 27550 4450
Wire Notes Line
	27450 3950 27550 3950
Wire Notes Line
	27450 3950 27450 4450
Wire Notes Line
	27550 4450 27650 4450
Wire Notes Line
	27750 3950 27750 4450
Wire Notes Line
	27650 3950 27750 3950
Wire Notes Line
	27650 3950 27650 4450
Wire Notes Line
	27750 4450 27850 4450
Wire Notes Line
	27950 3950 27950 4450
Wire Notes Line
	27850 3950 27950 3950
Wire Notes Line
	27850 3950 27850 4450
Wire Notes Line
	27950 4450 28050 4450
Wire Notes Line
	28150 3950 28150 4450
Wire Notes Line
	28050 3950 28150 3950
Wire Notes Line
	28050 3950 28050 4450
Wire Notes Line
	28150 4450 28250 4450
Wire Notes Line
	28350 3950 28350 4450
Wire Notes Line
	28250 3950 28350 3950
Wire Notes Line
	28250 3950 28250 4450
Wire Notes Line
	28350 4450 28450 4450
Wire Notes Line
	28550 3950 28550 4450
Wire Notes Line
	28450 3950 28550 3950
Wire Notes Line
	28450 3950 28450 4450
Wire Notes Line
	28550 4450 28650 4450
Wire Notes Line
	28750 3950 28750 4450
Wire Notes Line
	28650 3950 28750 3950
Wire Notes Line
	28650 3950 28650 4450
Wire Notes Line
	28750 4450 28850 4450
Wire Notes Line
	28950 3950 28950 4450
Wire Notes Line
	28850 3950 28950 3950
Wire Notes Line
	28850 3950 28850 4450
Wire Notes Line
	28950 4450 29050 4450
Wire Notes Line
	29150 3950 29150 4450
Wire Notes Line
	29050 3950 29150 3950
Wire Notes Line
	29050 3950 29050 4450
Wire Notes Line
	29150 4450 29250 4450
Wire Notes Line
	29350 3950 29350 4450
Wire Notes Line
	29250 3950 29350 3950
Wire Notes Line
	29250 3950 29250 4450
Wire Notes Line
	29350 4450 29450 4450
Wire Notes Line
	29550 3950 29550 4450
Wire Notes Line
	29450 3950 29550 3950
Wire Notes Line
	29450 3950 29450 4450
Wire Notes Line
	29550 4450 29650 4450
Wire Notes Line
	29750 3950 29750 4450
Wire Notes Line
	29650 3950 29750 3950
Wire Notes Line
	29650 3950 29650 4450
Wire Notes Line
	29750 4450 29850 4450
Wire Notes Line
	29950 3950 29950 4450
Wire Notes Line
	29850 3950 29950 3950
Wire Notes Line
	29850 3950 29850 4450
Wire Notes Line
	29950 4450 30050 4450
Wire Notes Line
	30150 3950 30150 4450
Wire Notes Line
	30050 3950 30150 3950
Wire Notes Line
	30050 3950 30050 4450
Wire Notes Line
	30150 4450 30250 4450
Wire Notes Line
	30350 3950 30350 4450
Wire Notes Line
	30250 3950 30350 3950
Wire Notes Line
	30250 3950 30250 4450
Wire Notes Line
	30350 4450 30450 4450
Wire Notes Line
	23550 5450 23650 5450
Wire Notes Line
	23650 4950 23650 5450
Wire Notes Line
	24050 4950 24050 5450
Wire Notes Line
	23650 4950 24050 4950
Wire Notes Line
	24050 5450 24450 5450
Wire Notes Line
	24450 4950 24450 5450
Wire Notes Line
	24850 4950 24850 5450
Wire Notes Line
	24450 4950 24850 4950
Wire Notes Line
	24850 5450 25250 5450
Wire Notes Line
	25250 4950 25250 5450
Wire Notes Line
	25650 4950 25650 5450
Wire Notes Line
	25250 4950 25650 4950
Wire Notes Line
	25650 5450 26050 5450
Wire Notes Line
	26050 4950 26050 5450
Wire Notes Line
	26450 4950 26450 5450
Wire Notes Line
	26050 4950 26450 4950
Wire Notes Line
	26450 5450 26850 5450
Wire Notes Line
	26850 4950 26850 5450
Wire Notes Line
	27250 4950 27250 5450
Wire Notes Line
	26850 4950 27250 4950
Wire Notes Line
	27250 5450 27650 5450
Wire Notes Line
	27650 4950 27650 5450
Wire Notes Line
	28050 4950 28050 5450
Wire Notes Line
	27650 4950 28050 4950
Wire Notes Line
	28050 5450 28450 5450
Wire Notes Line
	28450 4950 28450 5450
Wire Notes Line
	28850 4950 28850 5450
Wire Notes Line
	28450 4950 28850 4950
Wire Notes Line
	28850 5450 29250 5450
Wire Notes Line
	29250 4950 29250 5450
Wire Notes Line
	29650 4950 29650 5450
Wire Notes Line
	29250 4950 29650 4950
Wire Notes Line
	29650 5450 30050 5450
Wire Notes Line
	30050 4950 30050 5450
Wire Notes Line
	30450 4950 30450 5450
Wire Notes Line
	30050 4950 30450 4950
Wire Notes Line
	30550 3950 30550 4450
Wire Notes Line
	30450 3950 30550 3950
Wire Notes Line
	30550 4450 30650 4450
Wire Notes Line
	30450 3950 30450 4450
Wire Notes Line
	30450 5450 30850 5450
Wire Notes Line
	23300 6500 31500 6500
Wire Notes Line
	23800 3500 23800 3000
Wire Notes Line
	30200 3500 30200 3000
Wire Notes Line
	27000 3000 27000 3500
Wire Notes Line
	25400 3500 25400 3000
Wire Notes Line
	28600 3000 28600 3500
Wire Notes Line
	23800 6450 23800 6000
Wire Notes Line
	30200 6450 30200 6000
Wire Notes Line
	27000 6000 27000 6450
Wire Notes Line
	25400 6450 25400 6000
Wire Notes Line
	28600 6000 28600 6450
Wire Notes Line
	24450 6450 24450 6000
Wire Notes Line
	30850 6450 30850 6000
Wire Notes Line
	27650 6000 27650 6450
Wire Notes Line
	26050 6450 26050 6000
Wire Notes Line
	29250 6000 29250 6450
Wire Notes Line
	23800 6000 24450 6000
Wire Notes Line
	25400 6000 26050 6000
Wire Notes Line
	27000 6000 27650 6000
Wire Notes Line
	28600 6000 29250 6000
Wire Notes Line
	30200 6000 30850 6000
Wire Notes Line
	30850 4950 30850 5450
Wire Notes Line
	30850 4950 31250 4950
Wire Notes Line
	31250 4950 31250 5450
Wire Notes Line
	31250 5450 31650 5450
Wire Notes Line
	30750 3950 30750 4450
Wire Notes Line
	30650 3950 30750 3950
Wire Notes Line
	30750 4450 30850 4450
Wire Notes Line
	30950 3950 30950 4450
Wire Notes Line
	30850 3950 30950 3950
Wire Notes Line
	30850 3950 30850 4450
Wire Notes Line
	30950 4450 31050 4450
Wire Notes Line
	31150 3950 31150 4450
Wire Notes Line
	31050 3950 31150 3950
Wire Notes Line
	31050 3950 31050 4450
Wire Notes Line
	31150 4450 31250 4450
Wire Notes Line
	31350 3950 31350 4450
Wire Notes Line
	31250 3950 31350 3950
Wire Notes Line
	31350 4450 31450 4450
Wire Notes Line
	31250 3950 31250 4450
Wire Notes Line
	30650 3950 30650 4450
Text Notes 23450 2950 2    100  ~ 20
1PPS
Text Notes 23450 3950 2    100  ~ 20
CLK
Wire Notes Line
	24450 6450 25400 6450
Wire Notes Line
	26050 6450 27000 6450
Wire Notes Line
	27650 6450 28600 6450
Wire Notes Line
	29250 6450 30200 6450
Wire Notes Line
	30850 6450 31800 6450
Wire Notes Line
	23550 6450 23800 6450
Text Notes 23450 4950 2    100  ~ 20
DIV_CLK
Text Notes 23450 6000 2    100  ~ 20
Phase Diff
Wire Notes Line
	23300 7500 31500 7500
Wire Notes Line
	23800 7500 23800 7000
Text Notes 23450 7000 2    100  ~ 20
Start Pulse
Wire Notes Line
	25400 7500 25400 7000
Wire Notes Line
	27000 7500 27000 7000
Wire Notes Line
	28600 7500 28600 7000
Wire Notes Line
	30200 7500 30200 7000
Wire Notes Line
	23300 8500 31500 8500
Wire Notes Line
	24450 8500 24450 8000
Wire Notes Line
	26050 8500 26050 8000
Wire Notes Line
	27650 8500 27650 8000
Wire Notes Line
	29250 8500 29250 8000
Wire Notes Line
	30850 8500 30850 8000
Text Notes 23450 8000 2    100  ~ 20
Stop Pulse
$Comp
L Mechanical:MountingHole H1
U 1 1 5FD74EBF
P 5250 7250
F 0 "H1" H 5350 7296 50  0000 L CNN
F 1 "MountingHole" H 5350 7205 50  0000 L CNN
F 2 "MountingHole:MountingHole_4mm_Pad" H 5250 7250 50  0001 C CNN
F 3 "~" H 5250 7250 50  0001 C CNN
	1    5250 7250
	1    0    0    -1  
$EndComp
Text Label 18500 7150 0    50   ~ 0
PSOC_EXT_REF_STATUS
$Comp
L Device:Q_NMOS_GSD Q2
U 1 1 60045ADF
P 18300 7150
F 0 "Q2" H 18505 7196 50  0000 L CNN
F 1 "Q_NMOS_GSD" H 18505 7105 50  0000 L CNN
F 2 "Package_TO_SOT_SMD:SOT-323_SC-70" H 18500 7250 50  0001 C CNN
F 3 "~" H 18300 7150 50  0001 C CNN
F 4 "DMN3150LW-7" H 18300 7150 50  0001 C CNN "MPN"
F 5 "C397976" H 18300 7150 50  0001 C CNN "LCSC"
	1    18300 7150
	-1   0    0    -1  
$EndComp
$Comp
L Device:LED D2
U 1 1 60045AE5
P 18200 6800
F 0 "D2" V 18300 6900 50  0000 L CNN
F 1 "LED" V 18100 6900 50  0000 L CNN
F 2 "LED_SMD:LED_0603_1608Metric_Pad1.05x0.95mm_HandSolder" H 18200 6800 50  0001 C CNN
F 3 "~" H 18200 6800 50  0001 C CNN
F 4 "0603" V 18200 6900 50  0000 L CNN "Package"
F 5 "19-217/GHC-YR1S2/3T" V 18200 6800 50  0001 C CNN "MPN"
F 6 "C72043" V 18200 6800 50  0001 C CNN "LCSC"
	1    18200 6800
	0    1    -1   0   
$EndComp
$Comp
L power:GND #PWR019
U 1 1 60045AEB
P 18200 7350
F 0 "#PWR019" H 18200 7100 50  0001 C CNN
F 1 "GND" H 18200 7200 50  0000 C CNN
F 2 "" H 18200 7350 50  0001 C CNN
F 3 "" H 18200 7350 50  0001 C CNN
	1    18200 7350
	1    0    0    -1  
$EndComp
$Comp
L Device:R R3
U 1 1 60045AF3
P 18200 6500
F 0 "R3" V 18100 6500 50  0000 C CNN
F 1 "1k" V 18200 6500 50  0000 C CNN
F 2 "Resistor_SMD:R_0402_1005Metric_Pad0.72x0.64mm_HandSolder" V 18130 6500 50  0001 C CNN
F 3 "~" H 18200 6500 50  0001 C CNN
F 4 "0402" V 18300 6500 50  0000 C CNN "Package"
F 5 "0402WGF1001TCE" V 18200 6500 50  0001 C CNN "MPN"
F 6 "C11702" V 18200 6500 50  0001 C CNN "LCSC"
	1    18200 6500
	1    0    0    -1  
$EndComp
Text Label 12250 12450 2    50   ~ 0
EXT_REF_CLK
$Comp
L Sundial:MECF-08-01-L-DV_02x08 J2
U 1 1 61CB2A5B
P 9600 14800
F 0 "J2" H 9650 15250 50  0000 C CNN
F 1 "MECF-08-01-L-DV_02x08" H 9600 14250 50  0000 C CNN
F 2 "Connector_PCBEdge:Samtec_MECF-08-01-L-DV-WT_2x08_P1.27mm_Polarized_Socket_Horizontal" H 9600 14800 50  0001 C CNN
F 3 "" H 9600 14800 50  0001 C CNN
	1    9600 14800
	1    0    0    -1  
$EndComp
Text Label 9400 15200 2    50   ~ 0
OCXO_CLK+_OUT
$Comp
L Connector:Conn_Coaxial J1
U 1 1 620CFBD1
P 10750 12450
F 0 "J1" H 10850 12425 50  0000 L CNN
F 1 "Conn_Coaxial" H 10850 12334 50  0000 L CNN
F 2 "Connector_Coaxial:SMA_Amphenol_132134-16_Vertical" H 10750 12450 50  0001 C CNN
F 3 " ~" H 10750 12450 50  0001 C CNN
	1    10750 12450
	-1   0    0    -1  
$EndComp
$Comp
L power:GND #PWR01
U 1 1 620D12B4
P 10750 12650
F 0 "#PWR01" H 10750 12400 50  0001 C CNN
F 1 "GND" H 10750 12500 50  0000 C CNN
F 2 "" H 10750 12650 50  0001 C CNN
F 3 "" H 10750 12650 50  0001 C CNN
	1    10750 12650
	-1   0    0    -1  
$EndComp
Text Label 9400 14800 2    50   ~ 0
OCXO_HSENSE2
Text Label 9900 14800 0    50   ~ 0
OCXO_HSENSE1
Text Label 9900 14600 0    50   ~ 0
OCXO_HSET1
Text Label 9400 14600 2    50   ~ 0
OCXO_HSET2
Text Label 9900 15000 0    50   ~ 0
OCXO_SPI_MISO
Text Label 9400 14900 2    50   ~ 0
I2CM_SDA
Text Label 9400 15000 2    50   ~ 0
I2CM_SCL
Text Label 9900 14900 0    50   ~ 0
~OCXO_SPI_SS
$Comp
L power:+5V #PWR08
U 1 1 632AB0E9
P 9900 14500
F 0 "#PWR08" H 9900 14350 50  0001 C CNN
F 1 "+5V" V 9900 14700 50  0000 C CNN
F 2 "" H 9900 14500 50  0001 C CNN
F 3 "" H 9900 14500 50  0001 C CNN
	1    9900 14500
	0    1    -1   0   
$EndComp
$Comp
L power:+5V #PWR02
U 1 1 6332D430
P 9400 14500
F 0 "#PWR02" H 9400 14350 50  0001 C CNN
F 1 "+5V" V 9400 14700 50  0000 C CNN
F 2 "" H 9400 14500 50  0001 C CNN
F 3 "" H 9400 14500 50  0001 C CNN
	1    9400 14500
	0    -1   1    0   
$EndComp
$Comp
L power:GND #PWR03
U 1 1 63343248
P 9400 15100
F 0 "#PWR03" H 9400 14850 50  0001 C CNN
F 1 "GND" V 9400 14900 50  0000 C CNN
F 2 "" H 9400 15100 50  0001 C CNN
F 3 "" H 9400 15100 50  0001 C CNN
	1    9400 15100
	0    1    1    0   
$EndComp
$Comp
L power:GND #PWR09
U 1 1 63358F5B
P 9900 15100
F 0 "#PWR09" H 9900 14850 50  0001 C CNN
F 1 "GND" V 9900 14900 50  0000 C CNN
F 2 "" H 9900 15100 50  0001 C CNN
F 3 "" H 9900 15100 50  0001 C CNN
	1    9900 15100
	0    -1   -1   0   
$EndComp
Wire Wire Line
	12400 12450 11250 12450
Wire Notes Line
	4500 16000 20000 16000
Text Label 14550 6800 2    50   ~ 0
TDC_CLK_REF
Wire Wire Line
	11650 5700 14550 5700
Text Label 14550 7600 2    50   ~ 0
~PSOC_PHASE_CMP_RESET
Text Notes 10900 7550 0    100  ~ 0
REGULATOR
Text Notes 11150 4950 0    100  ~ 0
32 kHz
Text Label 14550 7000 2    50   ~ 0
OCXO_CLK+_OUT
Text Label 14550 3600 2    50   ~ 0
EXT_REF_CLK_EN
Text Label 14550 7900 2    50   ~ 0
EXT_REF_CLK
$Comp
L power:+5V #PWR035
U 1 1 61BEFF69
P 10800 8750
F 0 "#PWR035" H 10800 8600 50  0001 C CNN
F 1 "+5V" H 10800 8900 50  0000 C CNN
F 2 "" H 10800 8750 50  0001 C CNN
F 3 "" H 10800 8750 50  0001 C CNN
	1    10800 8750
	1    0    0    1   
$EndComp
Wire Wire Line
	10950 8300 10800 8300
$Comp
L Device:R R7
U 1 1 61BEFF62
P 10800 8600
F 0 "R7" V 10700 8600 50  0000 C CNN
F 1 "10k" V 10800 8600 50  0000 C CNN
F 2 "Resistor_SMD:R_0402_1005Metric_Pad0.72x0.64mm_HandSolder" V 10730 8600 50  0001 C CNN
F 3 "~" H 10800 8600 50  0001 C CNN
F 4 "0402" V 10900 8600 50  0000 C CNN "Package"
F 5 "0402WGF1002TCE" V 10800 8600 50  0001 C CNN "MPN"
F 6 "C25744" V 10800 8600 50  0001 C CNN "LCSC"
	1    10800 8600
	1    0    0    -1  
$EndComp
Wire Wire Line
	10800 8450 10800 8300
Wire Wire Line
	11900 8300 11900 8450
Wire Wire Line
	11750 8300 11900 8300
$Comp
L power:GND #PWR046
U 1 1 61AB0FFB
P 11900 8750
F 0 "#PWR046" H 11900 8500 50  0001 C CNN
F 1 "GND" H 11900 8600 50  0000 C CNN
F 2 "" H 11900 8750 50  0001 C CNN
F 3 "" H 11900 8750 50  0001 C CNN
	1    11900 8750
	1    0    0    -1  
$EndComp
$Comp
L Device:C C10
U 1 1 61AB0FF5
P 11900 8600
F 0 "C10" H 12015 8691 50  0000 L CNN
F 1 "10n" H 12015 8600 50  0000 L CNN
F 2 "Capacitor_SMD:C_0402_1005Metric_Pad0.74x0.62mm_HandSolder" H 11938 8450 50  0001 C CNN
F 3 "~" H 11900 8600 50  0001 C CNN
F 4 "0402" H 12015 8509 50  0000 L CNN "Package"
F 5 "CL05B103KB5NNNC" H 11900 8600 50  0001 C CNN "MPN"
F 6 "C15195" H 11900 8600 50  0001 C CNN "LCSC"
	1    11900 8600
	-1   0    0    -1  
$EndComp
Wire Wire Line
	10500 8000 10950 8000
$Comp
L Sundial:MIC5219YM5 U7
U 1 1 6199C7BD
P 11350 8150
F 0 "U7" H 11350 8587 60  0000 C CNN
F 1 "MIC5219YM5" H 11350 8481 60  0000 C CNN
F 2 "Package_TO_SOT_SMD:SOT-23-5" H 11350 8000 60  0001 C CNN
F 3 "" H 11350 8000 60  0001 C CNN
F 4 "SOT-23-5" H 11350 7800 50  0000 C CNN "Package"
F 5 "MIC5219-3.3YM5" H 11350 8150 50  0001 C CNN "MPN"
F 6 "C29613" H 11350 8150 50  0001 C CNN "LCSC"
	1    11350 8150
	1    0    0    -1  
$EndComp
$Comp
L power:+5V #PWR030
U 1 1 60212BD3
P 10500 7900
F 0 "#PWR030" H 10500 7750 50  0001 C CNN
F 1 "+5V" H 10500 8050 50  0000 C CNN
F 2 "" H 10500 7900 50  0001 C CNN
F 3 "" H 10500 7900 50  0001 C CNN
	1    10500 7900
	-1   0    0    -1  
$EndComp
Text Label 14550 6400 2    50   ~ 0
PSOC_EXT_REF_STATUS
Wire Wire Line
	13250 6300 13100 6300
Connection ~ 13250 6300
Wire Wire Line
	13250 6400 13250 6300
Wire Wire Line
	14550 6300 13250 6300
$Comp
L power:+3.3VP #PWR054
U 1 1 60751D4D
P 13100 6300
F 0 "#PWR054" H 13250 6250 50  0001 C CNN
F 1 "+3.3VP" V 13100 6550 50  0000 C CNN
F 2 "" H 13100 6300 50  0001 C CNN
F 3 "" H 13100 6300 50  0001 C CNN
	1    13100 6300
	0    -1   1    0   
$EndComp
$Comp
L power:+3.3VP #PWR053
U 1 1 6072F834
P 13100 5400
F 0 "#PWR053" H 13250 5350 50  0001 C CNN
F 1 "+3.3VP" V 13100 5650 50  0000 C CNN
F 2 "" H 13100 5400 50  0001 C CNN
F 3 "" H 13100 5400 50  0001 C CNN
	1    13100 5400
	0    -1   1    0   
$EndComp
$Comp
L power:+3.3VP #PWR052
U 1 1 6070D375
P 13100 4600
F 0 "#PWR052" H 13250 4550 50  0001 C CNN
F 1 "+3.3VP" V 13100 4850 50  0000 C CNN
F 2 "" H 13100 4600 50  0001 C CNN
F 3 "" H 13100 4600 50  0001 C CNN
	1    13100 4600
	0    -1   1    0   
$EndComp
$Comp
L power:+3.3VP #PWR051
U 1 1 606EB03B
P 13100 3900
F 0 "#PWR051" H 13250 3850 50  0001 C CNN
F 1 "+3.3VP" V 13100 4150 50  0000 C CNN
F 2 "" H 13100 3900 50  0001 C CNN
F 3 "" H 13100 3900 50  0001 C CNN
	1    13100 3900
	0    -1   1    0   
$EndComp
$Comp
L power:+3.3VP #PWR050
U 1 1 606C8BFE
P 13100 3100
F 0 "#PWR050" H 13250 3050 50  0001 C CNN
F 1 "+3.3VP" V 13100 3350 50  0000 C CNN
F 2 "" H 13100 3100 50  0001 C CNN
F 3 "" H 13100 3100 50  0001 C CNN
	1    13100 3100
	0    -1   1    0   
$EndComp
$Comp
L power:+3.3VP #PWR088
U 1 1 606845A8
P 18500 3600
F 0 "#PWR088" H 18650 3550 50  0001 C CNN
F 1 "+3.3VP" V 18500 3850 50  0000 C CNN
F 2 "" H 18500 3600 50  0001 C CNN
F 3 "" H 18500 3600 50  0001 C CNN
	1    18500 3600
	0    1    -1   0   
$EndComp
$Comp
L power:+3.3VP #PWR087
U 1 1 6063FEA2
P 18500 3500
F 0 "#PWR087" H 18650 3450 50  0001 C CNN
F 1 "+3.3VP" V 18500 3750 50  0000 C CNN
F 2 "" H 18500 3500 50  0001 C CNN
F 3 "" H 18500 3500 50  0001 C CNN
	1    18500 3500
	0    1    -1   0   
$EndComp
$Comp
L power:+3.3VP #PWR048
U 1 1 6061BF65
P 12250 7900
F 0 "#PWR048" H 12400 7850 50  0001 C CNN
F 1 "+3.3VP" H 12265 8073 50  0000 C CNN
F 2 "" H 12250 7900 50  0001 C CNN
F 3 "" H 12250 7900 50  0001 C CNN
	1    12250 7900
	1    0    0    -1  
$EndComp
Connection ~ 10500 8000
Wire Wire Line
	10500 8000 10500 8150
$Comp
L power:GND #PWR031
U 1 1 6052352A
P 10500 8450
F 0 "#PWR031" H 10500 8200 50  0001 C CNN
F 1 "GND" H 10500 8300 50  0000 C CNN
F 2 "" H 10500 8450 50  0001 C CNN
F 3 "" H 10500 8450 50  0001 C CNN
	1    10500 8450
	1    0    0    -1  
$EndComp
$Comp
L Device:C C4
U 1 1 60523524
P 10500 8300
F 0 "C4" H 10615 8391 50  0000 L CNN
F 1 "1u" H 10615 8300 50  0000 L CNN
F 2 "Capacitor_SMD:C_0603_1608Metric_Pad1.05x0.95mm_HandSolder" H 10538 8150 50  0001 C CNN
F 3 "~" H 10500 8300 50  0001 C CNN
F 4 "0603" H 10615 8209 50  0000 L CNN "Package"
F 5 "CL10A105KB8NNNC" H 10500 8300 50  0001 C CNN "MPN"
F 6 "C15849" H 10500 8300 50  0001 C CNN "LCSC"
	1    10500 8300
	-1   0    0    -1  
$EndComp
Wire Wire Line
	12250 8000 12250 8150
Connection ~ 12250 8000
Wire Wire Line
	12250 7900 12250 8000
Wire Wire Line
	11750 8000 12250 8000
$Comp
L power:GND #PWR049
U 1 1 60523513
P 12250 8450
F 0 "#PWR049" H 12250 8200 50  0001 C CNN
F 1 "GND" H 12250 8300 50  0000 C CNN
F 2 "" H 12250 8450 50  0001 C CNN
F 3 "" H 12250 8450 50  0001 C CNN
	1    12250 8450
	1    0    0    -1  
$EndComp
Wire Wire Line
	10500 8000 10500 7900
$Comp
L power:GND #PWR036
U 1 1 605234FF
P 10950 8150
F 0 "#PWR036" H 10950 7900 50  0001 C CNN
F 1 "GND" V 10950 7950 50  0000 C CNN
F 2 "" H 10950 8150 50  0001 C CNN
F 3 "" H 10950 8150 50  0001 C CNN
	1    10950 8150
	0    1    -1   0   
$EndComp
$Comp
L power:GND #PWR021
U 1 1 605234E4
P 6650 7950
F 0 "#PWR021" H 6650 7700 50  0001 C CNN
F 1 "GND" H 6650 7800 50  0000 C CNN
F 2 "" H 6650 7950 50  0001 C CNN
F 3 "" H 6650 7950 50  0001 C CNN
	1    6650 7950
	-1   0    0    -1  
$EndComp
$Comp
L power:GND #PWR065
U 1 1 62728540
P 14550 2900
F 0 "#PWR065" H 14550 2650 50  0001 C CNN
F 1 "GND" V 14550 2700 50  0000 C CNN
F 2 "" H 14550 2900 50  0001 C CNN
F 3 "" H 14550 2900 50  0001 C CNN
	1    14550 2900
	0    1    -1   0   
$EndComp
Wire Wire Line
	14550 4100 13900 4100
Wire Wire Line
	14550 5600 13900 5600
NoConn ~ 14550 3200
NoConn ~ 17350 3000
Text Notes 17300 1800 2    250  ~ 0
PSoC 5LP Microcontroller
Wire Notes Line
	9500 2000 20000 2000
Wire Notes Line
	9500 9500 9500 2000
Wire Notes Line
	20000 9500 9500 9500
Wire Notes Line
	20000 2000 20000 9500
Wire Wire Line
	17700 3400 17350 3400
Text Label 11800 5700 0    50   ~ 0
PSOC_32KHZ_RTC
$Comp
L power:GND #PWR047
U 1 1 60745E00
P 11850 5250
F 0 "#PWR047" H 11850 5000 50  0001 C CNN
F 1 "GND" V 11850 5050 50  0000 C CNN
F 2 "" H 11850 5250 50  0001 C CNN
F 3 "" H 11850 5250 50  0001 C CNN
	1    11850 5250
	0    -1   -1   0   
$EndComp
$Comp
L power:GND #PWR042
U 1 1 6073A395
P 11350 6000
F 0 "#PWR042" H 11350 5750 50  0001 C CNN
F 1 "GND" H 11350 5850 50  0000 C CNN
F 2 "" H 11350 6000 50  0001 C CNN
F 3 "" H 11350 6000 50  0001 C CNN
	1    11350 6000
	1    0    0    -1  
$EndComp
Wire Wire Line
	11350 5250 11350 5400
Connection ~ 11350 5250
Wire Wire Line
	11200 5250 11350 5250
Wire Wire Line
	11550 5250 11350 5250
$Comp
L Device:C C9
U 1 1 6070DA01
P 11700 5250
F 0 "C9" V 11800 5350 50  0000 L CNN
F 1 "0.1u" V 11800 5150 50  0000 R CNN
F 2 "Capacitor_SMD:C_0402_1005Metric_Pad0.74x0.62mm_HandSolder" H 11738 5100 50  0001 C CNN
F 3 "~" H 11700 5250 50  0001 C CNN
F 4 "0402" V 11550 5250 50  0000 C CNN "Package"
F 5 "CL05B104KO5NNNC" H 11700 5250 50  0001 C CNN "MPN"
F 6 "C1525" V 11700 5250 50  0001 C CNN "LCSC"
	1    11700 5250
	0    -1   -1   0   
$EndComp
$Comp
L Sundial:SIT1630 X1
U 1 1 6070BCC3
P 11350 5700
F 0 "X1" H 11120 5746 50  0000 R CNN
F 1 "SIT1630" H 11120 5655 50  0000 R CNN
F 2 "Package_TO_SOT_SMD:SOT-23-5" H 11350 5350 50  0001 C CNN
F 3 "https://support.epson.biz/td/api/doc_check.php?mode=dl&lang=en&Parts=SG-3030CM" H 11250 5700 50  0001 C CNN
	1    11350 5700
	1    0    0    -1  
$EndComp
Text Label 14550 6500 2    50   ~ 0
OCXO_HSENSE2
Text Label 14550 6200 2    50   ~ 0
OCXO_HSET2
Text Label 14550 5000 2    50   ~ 0
OCXO_HSET1
Text Label 14550 4400 2    50   ~ 0
OCXO_HSENSE1
Text Label 14550 3500 2    50   ~ 0
~OCXO_SPI_SS
Text Label 14550 3400 2    50   ~ 0
OCXO_SPI_MISO
Text Label 14550 5900 2    50   ~ 0
I2CM_SDA
Text Label 14550 6000 2    50   ~ 0
I2CM_SCL
Text Label 17700 3400 0    50   ~ 0
~PSOC_XRES
Text Label 14550 8300 2    50   ~ 0
PSOC_SWDIO
Text Label 14550 8500 2    50   ~ 0
PSOC_I2CS_SCL
Text Label 14550 8400 2    50   ~ 0
PSOC_I2CS_SDA
Text Label 14550 7700 2    50   ~ 0
TDC_TRIGGER
Text Label 14550 7800 2    50   ~ 0
TDC_ENABLE
Text Label 14550 7400 2    50   ~ 0
TDC_SPI_CLK
Text Label 14550 8700 2    50   ~ 0
~TDC_SPI_CS
Text Label 14550 7500 2    50   ~ 0
TDC_SPI_MOSI
Text Label 14550 8600 2    50   ~ 0
TDC_SPI_MISO
Text Label 14550 6700 2    50   ~ 0
~TDC_INTB
$Comp
L Device:C C18
U 1 1 5F4BB5C6
P 13750 5600
F 0 "C18" V 13650 5700 50  0000 L CNN
F 1 "1u" V 13650 5500 50  0000 R CNN
F 2 "Capacitor_SMD:C_0603_1608Metric_Pad1.05x0.95mm_HandSolder" H 13788 5450 50  0001 C CNN
F 3 "~" H 13750 5600 50  0001 C CNN
F 4 "0603" V 13600 5600 50  0000 C CNN "Package"
F 5 "CL10A105KB8NNNC" H 13750 5600 50  0001 C CNN "MPN"
F 6 "C15849" V 13750 5600 50  0001 C CNN "LCSC"
	1    13750 5600
	0    1    1    0   
$EndComp
$Comp
L power:GND #PWR062
U 1 1 5F4BB5BE
P 13600 5600
F 0 "#PWR062" H 13600 5350 50  0001 C CNN
F 1 "GND" H 13600 5450 50  0000 C CNN
F 2 "" H 13600 5600 50  0001 C CNN
F 3 "" H 13600 5600 50  0001 C CNN
	1    13600 5600
	0    1    -1   0   
$EndComp
$Comp
L Device:C C17
U 1 1 5F4B6B6E
P 13750 4100
F 0 "C17" V 13650 4200 50  0000 L CNN
F 1 "1u" V 13650 4000 50  0000 R CNN
F 2 "Capacitor_SMD:C_0603_1608Metric_Pad1.05x0.95mm_HandSolder" H 13788 3950 50  0001 C CNN
F 3 "~" H 13750 4100 50  0001 C CNN
F 4 "0603" V 13600 4100 50  0000 C CNN "Package"
F 5 "CL10A105KB8NNNC" H 13750 4100 50  0001 C CNN "MPN"
F 6 "C15849" V 13750 4100 50  0001 C CNN "LCSC"
	1    13750 4100
	0    1    1    0   
$EndComp
$Comp
L power:GND #PWR061
U 1 1 5F4B6B66
P 13600 4100
F 0 "#PWR061" H 13600 3850 50  0001 C CNN
F 1 "GND" H 13600 3950 50  0000 C CNN
F 2 "" H 13600 4100 50  0001 C CNN
F 3 "" H 13600 4100 50  0001 C CNN
	1    13600 4100
	0    1    -1   0   
$EndComp
$Comp
L power:GND #PWR068
U 1 1 5F4AB577
P 14550 5500
F 0 "#PWR068" H 14550 5250 50  0001 C CNN
F 1 "GND" V 14550 5300 50  0000 C CNN
F 2 "" H 14550 5500 50  0001 C CNN
F 3 "" H 14550 5500 50  0001 C CNN
	1    14550 5500
	0    1    -1   0   
$EndComp
$Comp
L power:GND #PWR067
U 1 1 5F4AA30A
P 14550 5300
F 0 "#PWR067" H 14550 5050 50  0001 C CNN
F 1 "GND" V 14550 5100 50  0000 C CNN
F 2 "" H 14550 5300 50  0001 C CNN
F 3 "" H 14550 5300 50  0001 C CNN
	1    14550 5300
	0    1    -1   0   
$EndComp
$Comp
L power:GND #PWR066
U 1 1 5F4A9058
P 14550 4000
F 0 "#PWR066" H 14550 3750 50  0001 C CNN
F 1 "GND" V 14550 3800 50  0000 C CNN
F 2 "" H 14550 4000 50  0001 C CNN
F 3 "" H 14550 4000 50  0001 C CNN
	1    14550 4000
	0    1    -1   0   
$EndComp
Wire Wire Line
	17350 3800 17500 3800
Wire Wire Line
	17500 3950 17500 3800
$Comp
L power:GND #PWR079
U 1 1 5F4A2A11
P 17500 4250
F 0 "#PWR079" H 17500 4000 50  0001 C CNN
F 1 "GND" H 17505 4077 50  0000 C CNN
F 2 "" H 17500 4250 50  0001 C CNN
F 3 "" H 17500 4250 50  0001 C CNN
	1    17500 4250
	-1   0    0    -1  
$EndComp
$Comp
L Device:C C21
U 1 1 5F4A2A0B
P 17500 4100
F 0 "C21" H 17615 4191 50  0000 L CNN
F 1 "1u" H 17615 4100 50  0000 L CNN
F 2 "Capacitor_SMD:C_0603_1608Metric_Pad1.05x0.95mm_HandSolder" H 17538 3950 50  0001 C CNN
F 3 "~" H 17500 4100 50  0001 C CNN
F 4 "0603" H 17615 4009 50  0000 L CNN "Package"
F 5 "CL10A105KB8NNNC" H 17500 4100 50  0001 C CNN "MPN"
F 6 "C15849" H 17500 4100 50  0001 C CNN "LCSC"
	1    17500 4100
	-1   0    0    -1  
$EndComp
$Comp
L power:GND #PWR077
U 1 1 5F4A03C7
P 17350 3700
F 0 "#PWR077" H 17350 3450 50  0001 C CNN
F 1 "GND" V 17350 3500 50  0000 C CNN
F 2 "" H 17350 3700 50  0001 C CNN
F 3 "" H 17350 3700 50  0001 C CNN
	1    17350 3700
	0    -1   1    0   
$EndComp
$Comp
L power:GND #PWR074
U 1 1 5F49EAB6
P 17350 3100
F 0 "#PWR074" H 17350 2850 50  0001 C CNN
F 1 "GND" V 17350 2900 50  0000 C CNN
F 2 "" H 17350 3100 50  0001 C CNN
F 3 "" H 17350 3100 50  0001 C CNN
	1    17350 3100
	0    -1   1    0   
$EndComp
$Comp
L power:GND #PWR075
U 1 1 5F49D7DA
P 17350 3200
F 0 "#PWR075" H 17350 2950 50  0001 C CNN
F 1 "GND" V 17350 3000 50  0000 C CNN
F 2 "" H 17350 3200 50  0001 C CNN
F 3 "" H 17350 3200 50  0001 C CNN
	1    17350 3200
	0    -1   1    0   
$EndComp
$Comp
L power:GND #PWR076
U 1 1 5F49C24E
P 17350 3300
F 0 "#PWR076" H 17350 3050 50  0001 C CNN
F 1 "GND" V 17350 3100 50  0000 C CNN
F 2 "" H 17350 3300 50  0001 C CNN
F 3 "" H 17350 3300 50  0001 C CNN
	1    17350 3300
	0    -1   1    0   
$EndComp
$Comp
L power:GND #PWR073
U 1 1 5F49B126
P 17350 2900
F 0 "#PWR073" H 17350 2650 50  0001 C CNN
F 1 "GND" V 17350 2700 50  0000 C CNN
F 2 "" H 17350 2900 50  0001 C CNN
F 3 "" H 17350 2900 50  0001 C CNN
	1    17350 2900
	0    -1   1    0   
$EndComp
Wire Wire Line
	18350 3600 18500 3600
Connection ~ 18350 3600
Wire Wire Line
	17350 3600 18350 3600
Wire Wire Line
	18350 3750 18350 3600
$Comp
L power:GND #PWR086
U 1 1 5F499D6B
P 18350 4050
F 0 "#PWR086" H 18350 3800 50  0001 C CNN
F 1 "GND" H 18355 3877 50  0000 C CNN
F 2 "" H 18350 4050 50  0001 C CNN
F 3 "" H 18350 4050 50  0001 C CNN
	1    18350 4050
	-1   0    0    -1  
$EndComp
$Comp
L Device:C C24
U 1 1 5F499D65
P 18350 3900
F 0 "C24" H 18465 3991 50  0000 L CNN
F 1 "0.1u" H 18465 3900 50  0000 L CNN
F 2 "Capacitor_SMD:C_0402_1005Metric_Pad0.74x0.62mm_HandSolder" H 18388 3750 50  0001 C CNN
F 3 "~" H 18350 3900 50  0001 C CNN
F 4 "0402" H 18465 3809 50  0000 L CNN "Package"
F 5 "CL05B104KO5NNNC" H 18350 3900 50  0001 C CNN "MPN"
F 6 "C1525" H 18350 3900 50  0001 C CNN "LCSC"
	1    18350 3900
	1    0    0    -1  
$EndComp
Wire Wire Line
	18350 3500 18500 3500
Connection ~ 18350 3500
Wire Wire Line
	17350 3500 18350 3500
Wire Wire Line
	18350 3350 18350 3500
$Comp
L power:GND #PWR085
U 1 1 5F49847B
P 18350 3050
F 0 "#PWR085" H 18350 2800 50  0001 C CNN
F 1 "GND" H 18355 2877 50  0000 C CNN
F 2 "" H 18350 3050 50  0001 C CNN
F 3 "" H 18350 3050 50  0001 C CNN
	1    18350 3050
	-1   0    0    1   
$EndComp
$Comp
L Device:C C23
U 1 1 5F498475
P 18350 3200
F 0 "C23" H 18465 3291 50  0000 L CNN
F 1 "0.1u" H 18465 3200 50  0000 L CNN
F 2 "Capacitor_SMD:C_0402_1005Metric_Pad0.74x0.62mm_HandSolder" H 18388 3050 50  0001 C CNN
F 3 "~" H 18350 3200 50  0001 C CNN
F 4 "0402" H 18465 3109 50  0000 L CNN "Package"
F 5 "CL05B104KO5NNNC" H 18350 3200 50  0001 C CNN "MPN"
F 6 "C1525" H 18350 3200 50  0001 C CNN "LCSC"
	1    18350 3200
	1    0    0    -1  
$EndComp
$Comp
L power:GND #PWR059
U 1 1 5F4955A7
P 13250 6700
F 0 "#PWR059" H 13250 6450 50  0001 C CNN
F 1 "GND" H 13255 6527 50  0000 C CNN
F 2 "" H 13250 6700 50  0001 C CNN
F 3 "" H 13250 6700 50  0001 C CNN
	1    13250 6700
	-1   0    0    -1  
$EndComp
$Comp
L Device:C C16
U 1 1 5F4955A1
P 13250 6550
F 0 "C16" H 13365 6641 50  0000 L CNN
F 1 "0.1u" H 13365 6550 50  0000 L CNN
F 2 "Capacitor_SMD:C_0402_1005Metric_Pad0.74x0.62mm_HandSolder" H 13288 6400 50  0001 C CNN
F 3 "~" H 13250 6550 50  0001 C CNN
F 4 "0402" H 13365 6459 50  0000 L CNN "Package"
F 5 "CL05B104KO5NNNC" H 13250 6550 50  0001 C CNN "MPN"
F 6 "C1525" H 13250 6550 50  0001 C CNN "LCSC"
	1    13250 6550
	-1   0    0    -1  
$EndComp
Wire Wire Line
	13250 5400 13100 5400
Connection ~ 13250 5400
Wire Wire Line
	14550 5400 13250 5400
Wire Wire Line
	13250 5250 13250 5400
$Comp
L power:GND #PWR058
U 1 1 5F493F80
P 13250 4950
F 0 "#PWR058" H 13250 4700 50  0001 C CNN
F 1 "GND" H 13255 4777 50  0000 C CNN
F 2 "" H 13250 4950 50  0001 C CNN
F 3 "" H 13250 4950 50  0001 C CNN
	1    13250 4950
	1    0    0    1   
$EndComp
$Comp
L Device:C C15
U 1 1 5F493F7A
P 13250 5100
F 0 "C15" H 13365 5191 50  0000 L CNN
F 1 "0.1u" H 13365 5100 50  0000 L CNN
F 2 "Capacitor_SMD:C_0402_1005Metric_Pad0.74x0.62mm_HandSolder" H 13288 4950 50  0001 C CNN
F 3 "~" H 13250 5100 50  0001 C CNN
F 4 "0402" H 13365 5009 50  0000 L CNN "Package"
F 5 "CL05B104KO5NNNC" H 13250 5100 50  0001 C CNN "MPN"
F 6 "C1525" H 13250 5100 50  0001 C CNN "LCSC"
	1    13250 5100
	-1   0    0    -1  
$EndComp
Wire Wire Line
	13250 4600 13100 4600
Connection ~ 13250 4600
Wire Wire Line
	14550 4600 13250 4600
Wire Wire Line
	13250 4450 13250 4600
$Comp
L power:GND #PWR057
U 1 1 5F4926DA
P 13250 4150
F 0 "#PWR057" H 13250 3900 50  0001 C CNN
F 1 "GND" H 13255 3977 50  0000 C CNN
F 2 "" H 13250 4150 50  0001 C CNN
F 3 "" H 13250 4150 50  0001 C CNN
	1    13250 4150
	1    0    0    1   
$EndComp
$Comp
L Device:C C14
U 1 1 5F4926D4
P 13250 4300
F 0 "C14" H 13365 4391 50  0000 L CNN
F 1 "0.1u" H 13365 4300 50  0000 L CNN
F 2 "Capacitor_SMD:C_0402_1005Metric_Pad0.74x0.62mm_HandSolder" H 13288 4150 50  0001 C CNN
F 3 "~" H 13250 4300 50  0001 C CNN
F 4 "0402" H 13365 4209 50  0000 L CNN "Package"
F 5 "CL05B104KO5NNNC" H 13250 4300 50  0001 C CNN "MPN"
F 6 "C1525" H 13250 4300 50  0001 C CNN "LCSC"
	1    13250 4300
	-1   0    0    -1  
$EndComp
Wire Wire Line
	13250 3900 13100 3900
Connection ~ 13250 3900
Wire Wire Line
	14550 3900 13250 3900
Wire Wire Line
	13250 3750 13250 3900
$Comp
L power:GND #PWR056
U 1 1 5F491662
P 13250 3450
F 0 "#PWR056" H 13250 3200 50  0001 C CNN
F 1 "GND" H 13255 3277 50  0000 C CNN
F 2 "" H 13250 3450 50  0001 C CNN
F 3 "" H 13250 3450 50  0001 C CNN
	1    13250 3450
	1    0    0    1   
$EndComp
$Comp
L Device:C C13
U 1 1 5F49165C
P 13250 3600
F 0 "C13" H 13365 3691 50  0000 L CNN
F 1 "0.1u" H 13365 3600 50  0000 L CNN
F 2 "Capacitor_SMD:C_0402_1005Metric_Pad0.74x0.62mm_HandSolder" H 13288 3450 50  0001 C CNN
F 3 "~" H 13250 3600 50  0001 C CNN
F 4 "0402" H 13365 3509 50  0000 L CNN "Package"
F 5 "CL05B104KO5NNNC" H 13250 3600 50  0001 C CNN "MPN"
F 6 "C1525" H 13250 3600 50  0001 C CNN "LCSC"
	1    13250 3600
	-1   0    0    -1  
$EndComp
Wire Wire Line
	13250 3100 13100 3100
Connection ~ 13250 3100
Wire Wire Line
	14550 3100 13250 3100
Wire Wire Line
	13250 2950 13250 3100
$Comp
L power:GND #PWR055
U 1 1 5F48E89D
P 13250 2650
F 0 "#PWR055" H 13250 2400 50  0001 C CNN
F 1 "GND" H 13255 2477 50  0000 C CNN
F 2 "" H 13250 2650 50  0001 C CNN
F 3 "" H 13250 2650 50  0001 C CNN
	1    13250 2650
	1    0    0    1   
$EndComp
$Comp
L Device:C C12
U 1 1 5F48E897
P 13250 2800
F 0 "C12" H 13365 2891 50  0000 L CNN
F 1 "0.1u" H 13365 2800 50  0000 L CNN
F 2 "Capacitor_SMD:C_0402_1005Metric_Pad0.74x0.62mm_HandSolder" H 13288 2650 50  0001 C CNN
F 3 "~" H 13250 2800 50  0001 C CNN
F 4 "0402" H 13365 2709 50  0000 L CNN "Package"
F 5 "CL05B104KO5NNNC" H 13250 2800 50  0001 C CNN "MPN"
F 6 "C1525" H 13250 2800 50  0001 C CNN "LCSC"
	1    13250 2800
	-1   0    0    -1  
$EndComp
$Comp
L power:+5V #PWR020
U 1 1 64DF738B
P 6650 7650
F 0 "#PWR020" H 6650 7500 50  0001 C CNN
F 1 "+5V" H 6650 7800 50  0000 C CNN
F 2 "" H 6650 7650 50  0001 C CNN
F 3 "" H 6650 7650 50  0001 C CNN
	1    6650 7650
	-1   0    0    -1  
$EndComp
Text Label 17450 15150 2    50   ~ 0
OCXO_CLK+_RETIMER_OUT
Wire Wire Line
	15850 15150 15550 15150
$Comp
L power:GND #PWR041
U 1 1 64A5A5BB
P 15300 15500
F 0 "#PWR041" H 15300 15250 50  0001 C CNN
F 1 "GND" H 15300 15350 50  0000 C CNN
F 2 "" H 15300 15500 50  0001 C CNN
F 3 "" H 15300 15500 50  0001 C CNN
	1    15300 15500
	1    0    0    -1  
$EndComp
$Comp
L power:GND #PWR043
U 1 1 64A7310A
P 15800 14850
F 0 "#PWR043" H 15800 14600 50  0001 C CNN
F 1 "GND" V 15800 14650 50  0000 C CNN
F 2 "" H 15800 14850 50  0001 C CNN
F 3 "" H 15800 14850 50  0001 C CNN
	1    15800 14850
	0    -1   -1   0   
$EndComp
Wire Wire Line
	15300 14850 15300 15000
Connection ~ 15300 14850
Wire Wire Line
	15300 14700 15300 14850
Wire Wire Line
	15500 14850 15300 14850
$Comp
L Device:C C8
U 1 1 64A73116
P 15650 14850
F 0 "C8" V 15750 14950 50  0000 L CNN
F 1 "0.1u" V 15750 14750 50  0000 R CNN
F 2 "Capacitor_SMD:C_0402_1005Metric_Pad0.74x0.62mm_HandSolder" H 15688 14700 50  0001 C CNN
F 3 "~" H 15650 14850 50  0001 C CNN
F 4 "0402" V 15500 14850 50  0000 C CNN "Package"
F 5 "CL05B104KO5NNNC" H 15650 14850 50  0001 C CNN "MPN"
F 6 "C1525" V 15650 14850 50  0001 C CNN "LCSC"
	1    15650 14850
	0    -1   -1   0   
$EndComp
$Comp
L Sundial:74x1G79 U6
U 1 1 60670B7C
P 15300 15250
F 0 "U6" H 15550 15100 50  0000 L CNN
F 1 "74x1G79" H 15550 15000 50  0000 L CNN
F 2 "Package_TO_SOT_SMD:SOT-353_SC-70-5" H 15300 15250 50  0001 C CNN
F 3 "" H 15300 15250 50  0001 C CNN
F 4 "SC70-5" H 15550 14900 50  0000 L CNN "Package"
F 5 "74LVC1G79GV,125" H 15300 15250 50  0001 C CNN "MPN"
F 6 "" H 15300 15250 50  0001 C CNN "LCSC"
	1    15300 15250
	1    0    0    -1  
$EndComp
Text Label 15050 15350 2    50   ~ 0
OCXO_CLK+_OUT
NoConn ~ 13150 14950
$Comp
L 4xxx:4017 U3
U 1 1 644FFDAE
P 12650 14550
F 0 "U3" H 12250 14150 50  0000 R CNN
F 1 "4017" H 12250 14050 50  0000 R CNN
F 2 "Package_SO:TSSOP-16_4.4x5mm_P0.65mm" H 12650 14550 50  0001 C CNN
F 3 "http://www.intersil.com/content/dam/Intersil/documents/cd40/cd4017bms-22bms.pdf" H 12650 14550 50  0001 C CNN
F 4 "TSSOP-16" H 12250 13950 50  0000 R CNN "Package"
F 5 "74HC4017PW,118" H 12650 14550 50  0001 C CNN "MPN"
F 6 "" H 12650 14550 50  0001 C CNN "LCSC"
	1    12650 14550
	1    0    0    -1  
$EndComp
Text Label 12150 14050 2    50   ~ 0
OCXO_CLK+_OUT
$Comp
L power:GND #PWR023
U 1 1 645F5C93
P 12150 14150
F 0 "#PWR023" H 12150 13900 50  0001 C CNN
F 1 "GND" V 12150 13950 50  0000 C CNN
F 2 "" H 12150 14150 50  0001 C CNN
F 3 "" H 12150 14150 50  0001 C CNN
	1    12150 14150
	0    1    1    0   
$EndComp
$Comp
L power:GND #PWR026
U 1 1 6460CB51
P 12650 15450
F 0 "#PWR026" H 12650 15200 50  0001 C CNN
F 1 "GND" H 12650 15300 50  0000 C CNN
F 2 "" H 12650 15450 50  0001 C CNN
F 3 "" H 12650 15450 50  0001 C CNN
	1    12650 15450
	1    0    0    -1  
$EndComp
$Comp
L Device:C C5
U 1 1 64624837
P 13000 13550
F 0 "C5" V 13100 13650 50  0000 L CNN
F 1 "0.1u" V 13100 13450 50  0000 R CNN
F 2 "Capacitor_SMD:C_0402_1005Metric_Pad0.74x0.62mm_HandSolder" H 13038 13400 50  0001 C CNN
F 3 "~" H 13000 13550 50  0001 C CNN
F 4 "0402" V 12850 13550 50  0000 C CNN "Package"
F 5 "CL05B104KO5NNNC" H 13000 13550 50  0001 C CNN "MPN"
F 6 "C1525" V 13000 13550 50  0001 C CNN "LCSC"
	1    13000 13550
	0    -1   -1   0   
$EndComp
Wire Wire Line
	12850 13550 12650 13550
Wire Wire Line
	12500 13550 12650 13550
Connection ~ 12650 13550
Wire Wire Line
	12650 13550 12650 13750
$Comp
L power:GND #PWR034
U 1 1 64624841
P 13150 13550
F 0 "#PWR034" H 13150 13300 50  0001 C CNN
F 1 "GND" V 13150 13350 50  0000 C CNN
F 2 "" H 13150 13550 50  0001 C CNN
F 3 "" H 13150 13550 50  0001 C CNN
	1    13150 13550
	0    -1   -1   0   
$EndComp
NoConn ~ 13150 14050
NoConn ~ 13150 14150
NoConn ~ 13150 14250
NoConn ~ 13150 14350
NoConn ~ 13150 14650
NoConn ~ 13150 14750
NoConn ~ 13150 14850
NoConn ~ 13150 14450
Wire Wire Line
	18650 15050 18500 15050
Text Label 18650 15050 0    50   ~ 0
TDC_STOP_PULSE
$Comp
L power:GND #PWR032
U 1 1 63B3E5E3
P 17750 15250
F 0 "#PWR032" H 17750 15000 50  0001 C CNN
F 1 "GND" H 17750 15100 50  0000 C CNN
F 2 "" H 17750 15250 50  0001 C CNN
F 3 "" H 17750 15250 50  0001 C CNN
	1    17750 15250
	1    0    0    -1  
$EndComp
$Comp
L power:GND #PWR037
U 1 1 63B3E5D7
P 18250 14650
F 0 "#PWR037" H 18250 14400 50  0001 C CNN
F 1 "GND" V 18250 14450 50  0000 C CNN
F 2 "" H 18250 14650 50  0001 C CNN
F 3 "" H 18250 14650 50  0001 C CNN
	1    18250 14650
	0    -1   -1   0   
$EndComp
Wire Wire Line
	17750 14650 17750 14850
Connection ~ 17750 14650
Wire Wire Line
	17600 14650 17750 14650
Wire Wire Line
	17950 14650 17750 14650
$Comp
L Device:C C6
U 1 1 63B3E5CD
P 18100 14650
F 0 "C6" V 18200 14750 50  0000 L CNN
F 1 "0.1u" V 18200 14550 50  0000 R CNN
F 2 "Capacitor_SMD:C_0402_1005Metric_Pad0.74x0.62mm_HandSolder" H 18138 14500 50  0001 C CNN
F 3 "~" H 18100 14650 50  0001 C CNN
F 4 "0402" V 17950 14650 50  0000 C CNN "Package"
F 5 "CL05B104KO5NNNC" H 18100 14650 50  0001 C CNN "MPN"
F 6 "C1525" V 18100 14650 50  0001 C CNN "LCSC"
	1    18100 14650
	0    -1   -1   0   
$EndComp
$Comp
L Sundial:74x1G126 U4
U 1 1 63B3E5C4
P 17750 15050
F 0 "U4" H 17900 14850 50  0000 L CNN
F 1 "74LVC1G126" H 17900 14750 50  0000 L CNN
F 2 "Package_TO_SOT_SMD:SOT-353_SC-70-5" H 17750 15050 50  0001 C CNN
F 3 "" H 17750 15050 50  0001 C CNN
F 4 "SC-70-5" H 17900 14650 50  0000 L CNN "Package"
F 5 "SN74LVC1G126DCKR" H 17750 15050 50  0001 C CNN "MPN"
F 6 "C88039" H 17750 15050 50  0001 C CNN "LCSC"
	1    17750 15050
	1    0    0    -1  
$EndComp
Wire Wire Line
	18200 15050 18050 15050
Text Label 17900 11800 2    50   ~ 0
~CLK_PULSE_RESET
Wire Wire Line
	18100 11800 17900 11800
Wire Wire Line
	18600 11800 18400 11800
$Comp
L Device:R R6
U 1 1 62E88B2C
P 18250 11800
F 0 "R6" V 18150 11800 50  0000 C CNN
F 1 "0" V 18250 11800 50  0000 C CNN
F 2 "Resistor_SMD:R_0402_1005Metric_Pad0.72x0.64mm_HandSolder" V 18180 11800 50  0001 C CNN
F 3 "~" H 18250 11800 50  0001 C CNN
F 4 "0402" V 18350 11800 50  0000 C CNN "Package"
F 5 "0402WGF0000TCE" V 18250 11800 50  0001 C CNN "MPN"
F 6 "C17168" V 18250 11800 50  0001 C CNN "LCSC"
	1    18250 11800
	0    -1   1    0   
$EndComp
Text Label 18600 11800 0    50   ~ 0
~PSOC_PHASE_CMP_RESET
Text Label 17900 11500 2    50   ~ 0
~CLK_PULSE_RESET
Wire Wire Line
	18100 11500 17900 11500
Wire Wire Line
	18600 11500 18400 11500
$Comp
L Device:R R5
U 1 1 62E5A13E
P 18250 11500
F 0 "R5" V 18150 11500 50  0000 C CNN
F 1 "DNI" V 18250 11500 50  0000 C CNN
F 2 "Resistor_SMD:R_0402_1005Metric_Pad0.72x0.64mm_HandSolder" V 18180 11500 50  0001 C CNN
F 3 "~" H 18250 11500 50  0001 C CNN
F 4 "0402" V 18350 11500 50  0000 C CNN "Package"
F 5 "0402WGF0000TCE" V 18250 11500 50  0001 C CNN "MPN"
F 6 "C17168" V 18250 11500 50  0001 C CNN "LCSC"
	1    18250 11500
	0    -1   1    0   
$EndComp
Text Label 12250 12800 2    50   ~ 0
~CLK_PULSE_RESET
Wire Notes Line
	4500 16000 4500 11000
Wire Notes Line
	20000 11000 20000 16000
$Comp
L power:GND #PWR027
U 1 1 6186F159
P 13150 11900
F 0 "#PWR027" H 13150 11650 50  0001 C CNN
F 1 "GND" V 13150 11700 50  0000 C CNN
F 2 "" H 13150 11900 50  0001 C CNN
F 3 "" H 13150 11900 50  0001 C CNN
	1    13150 11900
	0    -1   -1   0   
$EndComp
Connection ~ 12650 11900
Wire Wire Line
	12650 11750 12650 11900
Wire Wire Line
	12850 11900 12650 11900
$Comp
L Device:C C3
U 1 1 6186F14F
P 13000 11900
F 0 "C3" V 13100 12000 50  0000 L CNN
F 1 "0.1u" V 13100 11800 50  0000 R CNN
F 2 "Capacitor_SMD:C_0402_1005Metric_Pad0.74x0.62mm_HandSolder" H 13038 11750 50  0001 C CNN
F 3 "~" H 13000 11900 50  0001 C CNN
F 4 "0402" V 12850 11900 50  0000 C CNN "Package"
F 5 "CL05B104KO5NNNC" H 13000 11900 50  0001 C CNN "MPN"
F 6 "C1525" V 13000 11900 50  0001 C CNN "LCSC"
	1    13000 11900
	0    -1   -1   0   
$EndComp
$Comp
L power:GND #PWR022
U 1 1 6167388A
P 12500 12500
F 0 "#PWR022" H 12500 12250 50  0001 C CNN
F 1 "GND" H 12500 12350 50  0000 C CNN
F 2 "" H 12500 12500 50  0001 C CNN
F 3 "" H 12500 12500 50  0001 C CNN
	1    12500 12500
	1    0    0    -1  
$EndComp
NoConn ~ 12900 12450
Wire Wire Line
	12250 12250 12400 12250
Wire Wire Line
	12650 11900 12650 12100
Wire Wire Line
	12500 11900 12650 11900
Wire Wire Line
	12500 12200 12500 11900
Wire Wire Line
	12900 12250 13200 12250
$Comp
L Device:R R4
U 1 1 609B6291
P 13350 12250
F 0 "R4" V 13250 12250 50  0000 C CNN
F 1 "10" V 13350 12250 50  0000 C CNN
F 2 "Resistor_SMD:R_0402_1005Metric_Pad0.72x0.64mm_HandSolder" V 13280 12250 50  0001 C CNN
F 3 "~" H 13350 12250 50  0001 C CNN
F 4 "0402" V 13450 12250 50  0000 C CNN "Package"
F 5 "0402WGF100JTCE" V 13350 12250 50  0001 C CNN "MPN"
F 6 "C25077" V 13350 12250 50  0001 C CNN "LCSC"
	1    13350 12250
	0    1    1    0   
$EndComp
Wire Wire Line
	12650 12800 12250 12800
Wire Wire Line
	12650 12600 12650 12800
$Comp
L 74xGxx:74AUP1G74 U2
U 1 1 60969320
P 12650 12350
F 0 "U2" H 12800 12100 50  0000 L CNN
F 1 "74AUP1G74" H 12800 12000 50  0000 L CNN
F 2 "Package_SO:VSSOP-8_2.3x2mm_P0.5mm" H 12650 12350 50  0001 C CNN
F 3 "http://www.ti.com/lit/sg/scyt129e/scyt129e.pdf" H 12650 12350 50  0001 C CNN
F 4 "VSSOP-8" H 12800 11900 50  0000 L CNN "Package"
F 5 "SN74LVC1G74DCUR" H 12650 12350 50  0001 C CNN "MPN"
F 6 "C70285" H 12650 12350 50  0001 C CNN "LCSC"
	1    12650 12350
	1    0    0    -1  
$EndComp
$Comp
L Device:R R8
U 1 1 607E1EAA
P 18350 15050
F 0 "R8" V 18250 15050 50  0000 C CNN
F 1 "10" V 18350 15050 50  0000 C CNN
F 2 "Resistor_SMD:R_0402_1005Metric_Pad0.72x0.64mm_HandSolder" V 18280 15050 50  0001 C CNN
F 3 "~" H 18350 15050 50  0001 C CNN
F 4 "0402" V 18450 15050 50  0000 C CNN "Package"
F 5 "0402WGF100JTCE" V 18350 15050 50  0001 C CNN "MPN"
F 6 "C25077" V 18350 15050 50  0001 C CNN "LCSC"
	1    18350 15050
	0    1    1    0   
$EndComp
Text Label 18600 11500 0    50   ~ 0
~TDC_INTB
Text Notes 14550 16800 0    250  ~ 0
Phase Measurement
Wire Notes Line
	20000 17000 12500 17000
Wire Notes Line
	20000 20000 20000 17000
Wire Notes Line
	12500 20000 20000 20000
Wire Notes Line
	12500 17000 12500 20000
$Comp
L power:GND #PWR015
U 1 1 6218AB45
P 7350 4800
F 0 "#PWR015" H 7350 4550 50  0001 C CNN
F 1 "GND" V 7350 4600 50  0000 C CNN
F 2 "" H 7350 4800 50  0001 C CNN
F 3 "" H 7350 4800 50  0001 C CNN
	1    7350 4800
	0    1    1    0   
$EndComp
$Comp
L power:+5V #PWR014
U 1 1 6218AB3F
P 7350 4700
F 0 "#PWR014" H 7350 4550 50  0001 C CNN
F 1 "+5V" V 7350 4900 50  0000 C CNN
F 2 "" H 7350 4700 50  0001 C CNN
F 3 "" H 7350 4700 50  0001 C CNN
	1    7350 4700
	0    -1   1    0   
$EndComp
$Comp
L Connector_Generic:Conn_01x02 J6
U 1 1 6218AB39
P 7550 4700
F 0 "J6" H 7630 4692 50  0000 L CNN
F 1 "Conn_01x02" H 7630 4601 50  0000 L CNN
F 2 "Connector_Molex:Molex_KK-254_AE-6410-02A_1x02_P2.54mm_Vertical" H 7550 4700 50  0001 C CNN
F 3 "~" H 7550 4700 50  0001 C CNN
F 4 "0022112026" H 7550 4700 50  0001 C CNN "MPN"
	1    7550 4700
	1    0    0    -1  
$EndComp
$Comp
L power:GND #PWR07
U 1 1 62176361
P 5850 4800
F 0 "#PWR07" H 5850 4550 50  0001 C CNN
F 1 "GND" V 5850 4600 50  0000 C CNN
F 2 "" H 5850 4800 50  0001 C CNN
F 3 "" H 5850 4800 50  0001 C CNN
	1    5850 4800
	0    1    1    0   
$EndComp
$Comp
L power:+5V #PWR06
U 1 1 6214D7B5
P 5850 4700
F 0 "#PWR06" H 5850 4550 50  0001 C CNN
F 1 "+5V" V 5850 4900 50  0000 C CNN
F 2 "" H 5850 4700 50  0001 C CNN
F 3 "" H 5850 4700 50  0001 C CNN
	1    5850 4700
	0    -1   1    0   
$EndComp
$Comp
L Connector_Generic:Conn_01x02 J3
U 1 1 6214C5EF
P 6050 4700
F 0 "J3" H 6130 4692 50  0000 L CNN
F 1 "Conn_01x02" H 6130 4601 50  0000 L CNN
F 2 "Connector_Molex:Molex_KK-254_AE-6410-02A_1x02_P2.54mm_Vertical" H 6050 4700 50  0001 C CNN
F 3 "~" H 6050 4700 50  0001 C CNN
F 4 "0022112026" H 6050 4700 50  0001 C CNN "MPN"
	1    6050 4700
	1    0    0    -1  
$EndComp
$Comp
L power:GND #PWR011
U 1 1 620923FB
P 5850 3750
F 0 "#PWR011" H 5850 3500 50  0001 C CNN
F 1 "GND" V 5850 3550 50  0000 C CNN
F 2 "" H 5850 3750 50  0001 C CNN
F 3 "" H 5850 3750 50  0001 C CNN
	1    5850 3750
	0    1    1    0   
$EndComp
$Comp
L Connector_Generic:Conn_01x05 J5
U 1 1 62063E2C
P 6050 3850
F 0 "J5" H 6130 3892 50  0000 L CNN
F 1 "Conn_01x05" H 6130 3801 50  0000 L CNN
F 2 "Connector_Molex:Molex_KK-254_AE-6410-05A_1x05_P2.54mm_Vertical" H 6050 3850 50  0001 C CNN
F 3 "~" H 6050 3850 50  0001 C CNN
F 4 "0022292051" H 6050 3850 50  0001 C CNN "MPN"
	1    6050 3850
	1    0    0    -1  
$EndComp
NoConn ~ 7050 2750
$Comp
L power:GND #PWR013
U 1 1 61FD6AA7
P 7050 2950
F 0 "#PWR013" H 7050 2700 50  0001 C CNN
F 1 "GND" V 7050 2750 50  0000 C CNN
F 2 "" H 7050 2950 50  0001 C CNN
F 3 "" H 7050 2950 50  0001 C CNN
	1    7050 2950
	0    -1   -1   0   
$EndComp
NoConn ~ 7050 2650
$Comp
L Connector_Generic:Conn_02x05_Odd_Even J4
U 1 1 61F5AE38
P 6750 2750
F 0 "J4" H 6800 3050 50  0000 C CNN
F 1 "Conn_02x05_Odd_Even" H 6750 2400 50  0000 C CNN
F 2 "Connector_PinHeader_2.54mm:PinHeader_2x05_P2.54mm_Vertical" H 6750 2750 50  0001 C CNN
F 3 "~" H 6750 2750 50  0001 C CNN
F 4 "TSW-105-14-L-D" H 6750 2750 50  0001 C CNN "MPN"
	1    6750 2750
	1    0    0    -1  
$EndComp
Text Notes 5750 1750 0    250  ~ 0
Connectors
Text Label 5600 2550 2    50   ~ 0
PSOC_I2CS_SCL
Text Label 5600 2650 2    50   ~ 0
PSOC_I2CS_SDA
Text Label 5850 4050 2    50   ~ 0
PSOC_SWDIO
Text Label 5850 3850 2    50   ~ 0
~PSOC_XRES
Text Label 5850 3950 2    50   ~ 0
PSOC_SWCLK
Wire Notes Line
	9000 5500 9000 2000
Wire Notes Line
	9000 2000 4500 2000
Wire Notes Line
	4500 5500 9000 5500
Wire Notes Line
	4500 2000 4500 5500
$Comp
L power:GND #PWR012
U 1 1 61E2E0B5
P 7050 2550
F 0 "#PWR012" H 7050 2300 50  0001 C CNN
F 1 "GND" V 7050 2350 50  0000 C CNN
F 2 "" H 7050 2550 50  0001 C CNN
F 3 "" H 7050 2550 50  0001 C CNN
	1    7050 2550
	0    -1   -1   0   
$EndComp
Wire Wire Line
	6350 15100 6500 15100
$Comp
L power:GND #PWR0107
U 1 1 60631C7E
P 7250 15300
F 0 "#PWR0107" H 7250 15050 50  0001 C CNN
F 1 "GND" H 7250 15150 50  0000 C CNN
F 2 "" H 7250 15300 50  0001 C CNN
F 3 "" H 7250 15300 50  0001 C CNN
	1    7250 15300
	-1   0    0    -1  
$EndComp
$Comp
L power:GND #PWR0109
U 1 1 60631C8A
P 6750 14700
F 0 "#PWR0109" H 6750 14450 50  0001 C CNN
F 1 "GND" V 6750 14500 50  0000 C CNN
F 2 "" H 6750 14700 50  0001 C CNN
F 3 "" H 6750 14700 50  0001 C CNN
	1    6750 14700
	0    1    -1   0   
$EndComp
Wire Wire Line
	7250 14700 7250 14900
Connection ~ 7250 14700
Wire Wire Line
	7050 14700 7250 14700
$Comp
L Device:C C26
U 1 1 60631C96
P 6900 14700
F 0 "C26" V 7000 14800 50  0000 L CNN
F 1 "0.1u" V 7000 14600 50  0000 R CNN
F 2 "Capacitor_SMD:C_0402_1005Metric_Pad0.74x0.62mm_HandSolder" H 6938 14550 50  0001 C CNN
F 3 "~" H 6900 14700 50  0001 C CNN
F 4 "0402" V 6750 14700 50  0000 C CNN "Package"
F 5 "CL05B104KO5NNNC" H 6900 14700 50  0001 C CNN "MPN"
F 6 "C1525" V 6900 14700 50  0001 C CNN "LCSC"
	1    6900 14700
	0    1    -1   0   
$EndComp
$Comp
L Sundial:74x1G126 U12
U 1 1 60631C9D
P 7250 15100
F 0 "U12" H 7400 14900 50  0000 L CNN
F 1 "74LVC1G126" H 7400 14800 50  0000 L CNN
F 2 "Package_TO_SOT_SMD:SOT-353_SC-70-5" H 7250 15100 50  0001 C CNN
F 3 "" H 7250 15100 50  0001 C CNN
F 4 "SC-70-5" H 7400 14700 50  0000 L CNN "Package"
F 5 "SN74LVC1G126DCKR" H 7250 15100 50  0001 C CNN "MPN"
F 6 "C88039" H 7250 15100 50  0001 C CNN "LCSC"
	1    7250 15100
	-1   0    0    -1  
$EndComp
Wire Wire Line
	6800 15100 6950 15100
$Comp
L Device:R R15
U 1 1 60631CA6
P 6650 15100
F 0 "R15" V 6550 15100 50  0000 C CNN
F 1 "10" V 6650 15100 50  0000 C CNN
F 2 "Resistor_SMD:R_0402_1005Metric_Pad0.72x0.64mm_HandSolder" V 6580 15100 50  0001 C CNN
F 3 "~" H 6650 15100 50  0001 C CNN
F 4 "0402" V 6750 15100 50  0000 C CNN "Package"
F 5 "0402WGF100JTCE" V 6650 15100 50  0001 C CNN "MPN"
F 6 "C25077" V 6650 15100 50  0001 C CNN "LCSC"
	1    6650 15100
	0    -1   1    0   
$EndComp
$Comp
L Connector:Conn_Coaxial J7
U 1 1 60663245
P 6150 15100
F 0 "J7" H 6250 15075 50  0000 L CNN
F 1 "Conn_Coaxial" H 6250 14984 50  0000 L CNN
F 2 "Connector_Coaxial:SMA_Amphenol_132134-16_Vertical" H 6150 15100 50  0001 C CNN
F 3 " ~" H 6150 15100 50  0001 C CNN
F 4 "" H 6150 15100 50  0001 C CNN "MPN"
	1    6150 15100
	-1   0    0    -1  
$EndComp
$Comp
L power:GND #PWR0110
U 1 1 6066324B
P 6150 15300
F 0 "#PWR0110" H 6150 15050 50  0001 C CNN
F 1 "GND" H 6150 15150 50  0000 C CNN
F 2 "" H 6150 15300 50  0001 C CNN
F 3 "" H 6150 15300 50  0001 C CNN
	1    6150 15300
	-1   0    0    -1  
$EndComp
$Comp
L Device:CP C27
U 1 1 606DF7FB
P 7150 7800
F 0 "C27" H 7050 7900 50  0000 R CNN
F 1 "22u" H 7050 7800 50  0000 R CNN
F 2 "Capacitor_Tantalum_SMD:CP_EIA-3528-15_AVX-H" H 7188 7650 50  0001 C CNN
F 3 "~" H 7150 7800 50  0001 C CNN
F 4 "3528" H 7050 7700 50  0000 R CNN "Package"
F 5 "TAJB226K016RNJ" H 7150 7800 50  0001 C CNN "MPN"
F 6 "C8020" H 7150 7800 50  0001 C CNN "LCSC"
	1    7150 7800
	1    0    0    -1  
$EndComp
$Comp
L power:GND #PWR0111
U 1 1 606DF801
P 7150 7950
F 0 "#PWR0111" H 7150 7700 50  0001 C CNN
F 1 "GND" H 7150 7800 50  0000 C CNN
F 2 "" H 7150 7950 50  0001 C CNN
F 3 "" H 7150 7950 50  0001 C CNN
	1    7150 7950
	-1   0    0    -1  
$EndComp
$Comp
L power:+5V #PWR0112
U 1 1 606DF807
P 7150 7650
F 0 "#PWR0112" H 7150 7500 50  0001 C CNN
F 1 "+5V" H 7150 7800 50  0000 C CNN
F 2 "" H 7150 7650 50  0001 C CNN
F 3 "" H 7150 7650 50  0001 C CNN
	1    7150 7650
	-1   0    0    -1  
$EndComp
$Comp
L Mechanical:MountingHole H2
U 1 1 6081120F
P 5250 7600
F 0 "H2" H 5350 7646 50  0000 L CNN
F 1 "MountingHole" H 5350 7555 50  0000 L CNN
F 2 "MountingHole:MountingHole_4mm_Pad" H 5250 7600 50  0001 C CNN
F 3 "~" H 5250 7600 50  0001 C CNN
	1    5250 7600
	1    0    0    -1  
$EndComp
$Comp
L Mechanical:MountingHole H3
U 1 1 608299A6
P 5250 7950
F 0 "H3" H 5350 7996 50  0000 L CNN
F 1 "MountingHole" H 5350 7905 50  0000 L CNN
F 2 "MountingHole:MountingHole_4mm_Pad" H 5250 7950 50  0001 C CNN
F 3 "~" H 5250 7950 50  0001 C CNN
	1    5250 7950
	1    0    0    -1  
$EndComp
$Comp
L Mechanical:MountingHole H4
U 1 1 608420C6
P 5250 8300
F 0 "H4" H 5350 8346 50  0000 L CNN
F 1 "MountingHole" H 5350 8255 50  0000 L CNN
F 2 "MountingHole:MountingHole_4mm_Pad" H 5250 8300 50  0001 C CNN
F 3 "~" H 5250 8300 50  0001 C CNN
	1    5250 8300
	1    0    0    -1  
$EndComp
$Comp
L Device:R R16
U 1 1 60991C00
P 13450 15150
F 0 "R16" V 13350 15150 50  0000 C CNN
F 1 "10" V 13450 15150 50  0000 C CNN
F 2 "Resistor_SMD:R_0402_1005Metric_Pad0.72x0.64mm_HandSolder" V 13380 15150 50  0001 C CNN
F 3 "~" H 13450 15150 50  0001 C CNN
F 4 "0402" V 13550 15150 50  0000 C CNN "Package"
F 5 "0402WGF100JTCE" V 13450 15150 50  0001 C CNN "MPN"
F 6 "C25077" V 13450 15150 50  0001 C CNN "LCSC"
	1    13450 15150
	0    1    1    0   
$EndComp
$Comp
L Device:R R17
U 1 1 60A55351
P 10150 18750
F 0 "R17" V 10050 18750 50  0000 C CNN
F 1 "DNI" V 10150 18750 50  0000 C CNN
F 2 "Resistor_SMD:R_0402_1005Metric_Pad0.72x0.64mm_HandSolder" V 10080 18750 50  0001 C CNN
F 3 "~" H 10150 18750 50  0001 C CNN
F 4 "0402" V 10250 18750 50  0000 C CNN "Package"
F 5 "CRCW04023R92FKEDHP" V 10150 18750 50  0001 C CNN "MPN"
	1    10150 18750
	0    1    1    0   
$EndComp
Wire Wire Line
	10000 18750 9450 18750
Text Label 10750 18750 0    50   ~ 0
PSOC_OCXO_CLK_DIV
Wire Wire Line
	10300 18750 10750 18750
Text Label 14550 4300 2    50   ~ 0
PSOC_OCXO_CLK_DIV
Text Label 9900 15200 0    50   ~ 0
OCXO_VOUT
Text Label 14550 4200 2    50   ~ 0
OCXO_VOUT
NoConn ~ 14550 3700
NoConn ~ 14550 3800
NoConn ~ 14550 5800
NoConn ~ 14550 6100
NoConn ~ 14550 6600
NoConn ~ 14550 6900
NoConn ~ 14550 7100
NoConn ~ 14550 7300
Wire Wire Line
	6550 2550 6050 2550
Wire Wire Line
	5750 2550 5600 2550
Wire Wire Line
	6550 2650 6400 2650
Wire Wire Line
	6100 2650 5600 2650
$Comp
L Device:R R19
U 1 1 601E8DA6
P 6250 2650
F 0 "R19" V 6150 2650 50  0000 C CNN
F 1 "0" V 6250 2650 50  0000 C CNN
F 2 "Resistor_SMD:R_0402_1005Metric_Pad0.72x0.64mm_HandSolder" V 6180 2650 50  0001 C CNN
F 3 "~" H 6250 2650 50  0001 C CNN
F 4 "0402WGF0000TCE" V 6250 2650 50  0001 C CNN "MPN"
F 5 "0402" V 6350 2650 50  0001 C CNN "Package"
F 6 "C17168" V 6250 2650 50  0001 C CNN "LCSC"
	1    6250 2650
	0    1    1    0   
$EndComp
Wire Wire Line
	6550 2850 6050 2850
Wire Wire Line
	5750 2850 5600 2850
Text Label 5600 2850 2    50   ~ 0
PSOC_I2CS_SCL
Text Label 7800 2850 0    50   ~ 0
PSOC_I2CS_SDA
Wire Wire Line
	7650 2850 7800 2850
$Comp
L Device:R R21
U 1 1 602686FA
P 7500 2850
F 0 "R21" V 7400 2850 50  0000 C CNN
F 1 "DNI" V 7500 2850 50  0000 C CNN
F 2 "Resistor_SMD:R_0402_1005Metric_Pad0.72x0.64mm_HandSolder" V 7430 2850 50  0001 C CNN
F 3 "~" H 7500 2850 50  0001 C CNN
F 4 "0402" V 7600 2850 50  0000 C CNN "Package"
F 5 "0402WGF0000TCE" V 7500 2850 50  0001 C CNN "MPN"
F 6 "C17168" V 7500 2850 50  0001 C CNN "LCSC"
	1    7500 2850
	0    -1   1    0   
$EndComp
Wire Wire Line
	7350 2850 7050 2850
Wire Wire Line
	6550 2750 5600 2750
Text Label 5600 2750 2    50   ~ 0
PSOC_SPIS_MISO
Wire Wire Line
	6550 2950 5600 2950
Text Label 5600 2950 2    50   ~ 0
PSOC_SPIS_SS
Text Label 14550 5200 2    50   ~ 0
PSOC_SPIS_MISO
Text Label 14550 5100 2    50   ~ 0
PSOC_SPIS_SS
Wire Wire Line
	13750 8100 14550 8100
$Comp
L Connector:Conn_Coaxial J8
U 1 1 60757E83
P 13550 8100
F 0 "J8" H 13650 8075 50  0000 L CNN
F 1 "Conn_Coaxial" H 13650 7984 50  0000 L CNN
F 2 "Connector_Coaxial:SMA_Amphenol_132134-16_Vertical" H 13550 8100 50  0001 C CNN
F 3 " ~" H 13550 8100 50  0001 C CNN
	1    13550 8100
	-1   0    0    -1  
$EndComp
$Comp
L power:GND #PWR0114
U 1 1 60757E89
P 13550 8300
F 0 "#PWR0114" H 13550 8050 50  0001 C CNN
F 1 "GND" H 13550 8150 50  0000 C CNN
F 2 "" H 13550 8300 50  0001 C CNN
F 3 "" H 13550 8300 50  0001 C CNN
	1    13550 8300
	-1   0    0    -1  
$EndComp
Text Label 14550 8100 2    50   ~ 0
PSOC_TST_OUT
Text Label 14550 8200 2    50   ~ 0
PSOC_SWCLK
NoConn ~ 14550 8000
$Comp
L Device:R R23
U 1 1 613A4FF4
P 16000 15150
F 0 "R23" V 15900 15150 50  0000 C CNN
F 1 "10" V 16000 15150 50  0000 C CNN
F 2 "Resistor_SMD:R_0402_1005Metric_Pad0.72x0.64mm_HandSolder" V 15930 15150 50  0001 C CNN
F 3 "~" H 16000 15150 50  0001 C CNN
F 4 "0402" V 16100 15150 50  0000 C CNN "Package"
F 5 "0402WGF100JTCE" V 16000 15150 50  0001 C CNN "MPN"
F 6 "C25077" V 16000 15150 50  0001 C CNN "LCSC"
	1    16000 15150
	0    1    1    0   
$EndComp
Wire Wire Line
	17450 15150 16150 15150
$Comp
L power:+5V #PWR0103
U 1 1 6144378B
P 18200 6350
F 0 "#PWR0103" H 18200 6200 50  0001 C CNN
F 1 "+5V" H 18200 6500 50  0000 C CNN
F 2 "" H 18200 6350 50  0001 C CNN
F 3 "" H 18200 6350 50  0001 C CNN
	1    18200 6350
	-1   0    0    -1  
$EndComp
$Comp
L Device:CP C11
U 1 1 6052350D
P 12250 8300
F 0 "C11" H 12365 8391 50  0000 L CNN
F 1 "2.2u" H 12365 8300 50  0000 L CNN
F 2 "Capacitor_Tantalum_SMD:CP_EIA-3216-12_Kemet-S" H 12288 8150 50  0001 C CNN
F 3 "~" H 12250 8300 50  0001 C CNN
F 4 "3216" H 12365 8209 50  0000 L CNN "Package"
F 5 "293D225X9016A2TE3" H 12250 8300 50  0001 C CNN "MPN"
F 6 "C146174" H 12250 8300 50  0001 C CNN "LCSC"
	1    12250 8300
	1    0    0    -1  
$EndComp
$Comp
L power:+5V #PWR0102
U 1 1 6193057E
P 6650 12800
F 0 "#PWR0102" H 6650 12650 50  0001 C CNN
F 1 "+5V" H 6650 12950 50  0000 C CNN
F 2 "" H 6650 12800 50  0001 C CNN
F 3 "" H 6650 12800 50  0001 C CNN
	1    6650 12800
	1    0    0    1   
$EndComp
Wire Wire Line
	6800 12350 6650 12350
Wire Wire Line
	6650 12500 6650 12350
Wire Wire Line
	7750 12350 7750 12500
Wire Wire Line
	7600 12350 7750 12350
$Comp
L power:GND #PWR0104
U 1 1 61930591
P 7750 12800
F 0 "#PWR0104" H 7750 12550 50  0001 C CNN
F 1 "GND" H 7750 12650 50  0000 C CNN
F 2 "" H 7750 12800 50  0001 C CNN
F 3 "" H 7750 12800 50  0001 C CNN
	1    7750 12800
	1    0    0    -1  
$EndComp
$Comp
L Device:C C28
U 1 1 6193059A
P 7750 12650
F 0 "C28" H 7865 12741 50  0000 L CNN
F 1 "10n" H 7865 12650 50  0000 L CNN
F 2 "Capacitor_SMD:C_0402_1005Metric_Pad0.74x0.62mm_HandSolder" H 7788 12500 50  0001 C CNN
F 3 "~" H 7750 12650 50  0001 C CNN
F 4 "0402" H 7865 12559 50  0000 L CNN "Package"
F 5 "CL05B103KB5NNNC" H 7750 12650 50  0001 C CNN "MPN"
F 6 "C15195" H 7750 12650 50  0001 C CNN "LCSC"
	1    7750 12650
	-1   0    0    -1  
$EndComp
Wire Wire Line
	6350 12050 6800 12050
$Comp
L Sundial:MIC5219YM5 U11
U 1 1 619305A4
P 7200 12200
F 0 "U11" H 7200 12637 60  0000 C CNN
F 1 "MIC5219-3.3YM5" H 7200 12531 60  0000 C CNN
F 2 "Package_TO_SOT_SMD:SOT-23-5" H 7200 12050 60  0001 C CNN
F 3 "" H 7200 12050 60  0001 C CNN
F 4 "SOT-23-5" H 7200 11850 50  0000 C CNN "Package"
F 5 "MIC5219-3.3YM5" H 7200 12200 50  0001 C CNN "MPN"
F 6 "C29613" H 7200 12200 50  0001 C CNN "LCSC"
	1    7200 12200
	1    0    0    -1  
$EndComp
$Comp
L power:+5V #PWR0105
U 1 1 619305AA
P 6350 11950
F 0 "#PWR0105" H 6350 11800 50  0001 C CNN
F 1 "+5V" H 6350 12100 50  0000 C CNN
F 2 "" H 6350 11950 50  0001 C CNN
F 3 "" H 6350 11950 50  0001 C CNN
	1    6350 11950
	-1   0    0    -1  
$EndComp
Connection ~ 6350 12050
Wire Wire Line
	6350 12050 6350 12200
$Comp
L power:GND #PWR0106
U 1 1 619305B2
P 6350 12500
F 0 "#PWR0106" H 6350 12250 50  0001 C CNN
F 1 "GND" H 6350 12350 50  0000 C CNN
F 2 "" H 6350 12500 50  0001 C CNN
F 3 "" H 6350 12500 50  0001 C CNN
	1    6350 12500
	1    0    0    -1  
$EndComp
$Comp
L Device:C C25
U 1 1 619305BB
P 6350 12350
F 0 "C25" H 6465 12441 50  0000 L CNN
F 1 "1u" H 6465 12350 50  0000 L CNN
F 2 "Capacitor_SMD:C_0603_1608Metric_Pad1.05x0.95mm_HandSolder" H 6388 12200 50  0001 C CNN
F 3 "~" H 6350 12350 50  0001 C CNN
F 4 "0603" H 6465 12259 50  0000 L CNN "Package"
F 5 "CL10A105KB8NNNC" H 6350 12350 50  0001 C CNN "MPN"
F 6 "C15849" H 6350 12350 50  0001 C CNN "LCSC"
	1    6350 12350
	-1   0    0    -1  
$EndComp
Wire Wire Line
	8100 12050 8100 12200
Connection ~ 8100 12050
Wire Wire Line
	8100 11950 8100 12050
Wire Wire Line
	7600 12050 8100 12050
$Comp
L power:GND #PWR0108
U 1 1 619305C5
P 8100 12500
F 0 "#PWR0108" H 8100 12250 50  0001 C CNN
F 1 "GND" H 8100 12350 50  0000 C CNN
F 2 "" H 8100 12500 50  0001 C CNN
F 3 "" H 8100 12500 50  0001 C CNN
	1    8100 12500
	1    0    0    -1  
$EndComp
Wire Wire Line
	6350 12050 6350 11950
$Comp
L power:GND #PWR0113
U 1 1 619305CC
P 6800 12200
F 0 "#PWR0113" H 6800 11950 50  0001 C CNN
F 1 "GND" V 6800 12000 50  0000 C CNN
F 2 "" H 6800 12200 50  0001 C CNN
F 3 "" H 6800 12200 50  0001 C CNN
	1    6800 12200
	0    1    -1   0   
$EndComp
$Comp
L Device:CP C30
U 1 1 619305D5
P 8100 12350
F 0 "C30" H 8215 12441 50  0000 L CNN
F 1 "2.2u" H 8215 12350 50  0000 L CNN
F 2 "Capacitor_Tantalum_SMD:CP_EIA-3216-12_Kemet-S" H 8138 12200 50  0001 C CNN
F 3 "~" H 8100 12350 50  0001 C CNN
F 4 "3216" H 8215 12259 50  0000 L CNN "Package"
F 5 "293D225X9016A2TE3" H 8100 12350 50  0001 C CNN "MPN"
F 6 "C146174" H 8100 12350 50  0001 C CNN "LCSC"
	1    8100 12350
	1    0    0    -1  
$EndComp
$Comp
L power:+3.3VP #PWR0116
U 1 1 6199B5AC
P 11200 5250
F 0 "#PWR0116" H 11350 5200 50  0001 C CNN
F 1 "+3.3VP" H 11215 5423 50  0000 C CNN
F 2 "" H 11200 5250 50  0001 C CNN
F 3 "" H 11200 5250 50  0001 C CNN
	1    11200 5250
	0    -1   -1   0   
$EndComp
$Comp
L Sundial:TDC7200PW U9
U 1 1 5F457643
P 17750 18600
F 0 "U9" H 17750 19405 50  0000 C CNN
F 1 "TDC7200PW" H 17750 19314 50  0000 C CNN
F 2 "Package_SO:TSSOP-14_4.4x5mm_P0.65mm" H 17800 18800 50  0001 C CNN
F 3 "http://www.ti.com/lit/ds/symlink/tdc7200.pdf" H 17800 18800 50  0001 C CNN
F 4 "TSSOP-14" H 17750 19223 50  0000 C CNN "Package"
F 5 "TDC7200PW" H 17750 18600 50  0001 C CNN "MPN"
F 6 "C1523567" H 17750 18600 50  0001 C CNN "LCSC"
	1    17750 18600
	1    0    0    -1  
$EndComp
Wire Wire Line
	17300 18150 17200 18150
Text Label 17300 18300 2    50   ~ 0
TDC_TRIGGER
Text Label 17300 18450 2    50   ~ 0
TDC_START_PULSE
Text Label 17300 18600 2    50   ~ 0
TDC_STOP_PULSE
Text Label 17300 18750 2    50   ~ 0
TDC_CLK_REF
NoConn ~ 17300 18900
$Comp
L power:GND #PWR070
U 1 1 5F4806BF
P 17300 19050
F 0 "#PWR070" H 17300 18800 50  0001 C CNN
F 1 "GND" V 17300 18850 50  0000 C CNN
F 2 "" H 17300 19050 50  0001 C CNN
F 3 "" H 17300 19050 50  0001 C CNN
	1    17300 19050
	0    1    1    0   
$EndComp
Text Label 18550 19050 0    50   ~ 0
~TDC_INTB
Text Label 18200 18900 0    50   ~ 0
TDC_SPI_MISO
Text Label 18200 18750 0    50   ~ 0
TDC_SPI_MOSI
Text Label 18200 18600 0    50   ~ 0
~TDC_SPI_CS
Text Label 18200 18450 0    50   ~ 0
TDC_SPI_CLK
$Comp
L power:GND #PWR084
U 1 1 5F4829ED
P 19150 18300
F 0 "#PWR084" H 19150 18050 50  0001 C CNN
F 1 "GND" H 19150 18150 50  0000 C CNN
F 2 "" H 19150 18300 50  0001 C CNN
F 3 "" H 19150 18300 50  0001 C CNN
	1    19150 18300
	0    -1   -1   0   
$EndComp
$Comp
L Device:C C22
U 1 1 5F483C36
P 19000 18300
F 0 "C22" V 18900 18400 50  0000 L CNN
F 1 "1u" V 18900 18200 50  0000 R CNN
F 2 "Capacitor_SMD:C_0603_1608Metric_Pad1.05x0.95mm_HandSolder" H 19038 18150 50  0001 C CNN
F 3 "~" H 19000 18300 50  0001 C CNN
F 4 "0603" V 18800 18300 50  0000 C CNN "Package"
F 5 "CL10A105KB8NNNC" H 19000 18300 50  0001 C CNN "MPN"
F 6 "C15849" V 19000 18300 50  0001 C CNN "LCSC"
	1    19000 18300
	0    -1   -1   0   
$EndComp
Wire Wire Line
	18850 18300 18200 18300
$Comp
L Device:R R10
U 1 1 5F485F6C
P 17200 17850
F 0 "R10" V 17100 17850 50  0000 C CNN
F 1 "10k" V 17200 17850 50  0000 C CNN
F 2 "Resistor_SMD:R_0402_1005Metric_Pad0.72x0.64mm_HandSolder" V 17130 17850 50  0001 C CNN
F 3 "~" H 17200 17850 50  0001 C CNN
F 4 "0402" V 17300 17850 50  0000 C CNN "Package"
F 5 "0402WGF1002TCE" V 17200 17850 50  0001 C CNN "MPN"
F 6 "C25744" V 17200 17850 50  0001 C CNN "LCSC"
	1    17200 17850
	1    0    0    -1  
$EndComp
$Comp
L power:GND #PWR069
U 1 1 5F486881
P 17200 17700
F 0 "#PWR069" H 17200 17450 50  0001 C CNN
F 1 "GND" H 17205 17527 50  0000 C CNN
F 2 "" H 17200 17700 50  0001 C CNN
F 3 "" H 17200 17700 50  0001 C CNN
	1    17200 17700
	-1   0    0    1   
$EndComp
Wire Wire Line
	17200 18000 17200 18150
Connection ~ 17200 18150
$Comp
L Device:R R11
U 1 1 5FD0CFA3
P 18350 19300
F 0 "R11" V 18250 19300 50  0000 C CNN
F 1 "10k" V 18350 19300 50  0000 C CNN
F 2 "Resistor_SMD:R_0402_1005Metric_Pad0.72x0.64mm_HandSolder" V 18280 19300 50  0001 C CNN
F 3 "~" H 18350 19300 50  0001 C CNN
F 4 "0402" V 18450 19300 50  0000 C CNN "Package"
F 5 "0402WGF1002TCE" V 18350 19300 50  0001 C CNN "MPN"
F 6 "C25744" V 18350 19300 50  0001 C CNN "LCSC"
	1    18350 19300
	1    0    0    -1  
$EndComp
Wire Wire Line
	18200 19050 18350 19050
Wire Wire Line
	18350 19150 18350 19050
Connection ~ 18350 19050
Wire Wire Line
	18350 19050 18550 19050
Wire Wire Line
	17200 18150 17000 18150
Text Label 17000 18150 2    50   ~ 0
TDC_ENABLE
Wire Wire Line
	18350 18150 18500 18150
Wire Wire Line
	18200 18150 18350 18150
Connection ~ 18350 18150
Wire Wire Line
	18350 18000 18350 18150
$Comp
L power:GND #PWR071
U 1 1 5F48BB57
P 18350 17700
F 0 "#PWR071" H 18350 17450 50  0001 C CNN
F 1 "GND" H 18355 17527 50  0000 C CNN
F 2 "" H 18350 17700 50  0001 C CNN
F 3 "" H 18350 17700 50  0001 C CNN
	1    18350 17700
	-1   0    0    1   
$EndComp
$Comp
L Device:C C20
U 1 1 5F48B355
P 18350 17850
F 0 "C20" H 18465 17941 50  0000 L CNN
F 1 "0.1u" H 18465 17850 50  0000 L CNN
F 2 "Capacitor_SMD:C_0402_1005Metric_Pad0.74x0.62mm_HandSolder" H 18388 17700 50  0001 C CNN
F 3 "~" H 18350 17850 50  0001 C CNN
F 4 "0402" H 18465 17759 50  0000 L CNN "Package"
F 5 "CL05B104KO5NNNC" H 18350 17850 50  0001 C CNN "MPN"
F 6 "C1525" H 18350 17850 50  0001 C CNN "LCSC"
	1    18350 17850
	1    0    0    -1  
$EndComp
Wire Wire Line
	15200 18300 15700 18300
Connection ~ 15200 18300
Wire Wire Line
	15200 18150 15200 18300
$Comp
L power:GND #PWR063
U 1 1 6189B12A
P 15200 17850
F 0 "#PWR063" H 15200 17600 50  0001 C CNN
F 1 "GND" H 15200 17700 50  0000 C CNN
F 2 "" H 15200 17850 50  0001 C CNN
F 3 "" H 15200 17850 50  0001 C CNN
	1    15200 17850
	-1   0    0    1   
$EndComp
$Comp
L Device:C C19
U 1 1 6189B124
P 15200 18000
F 0 "C19" H 15315 18091 50  0000 L CNN
F 1 "0.1u" H 15315 18000 50  0000 L CNN
F 2 "Capacitor_SMD:C_0402_1005Metric_Pad0.74x0.62mm_HandSolder" H 15238 17850 50  0001 C CNN
F 3 "~" H 15200 18000 50  0001 C CNN
F 4 "0402" H 15315 17909 50  0000 L CNN "Package"
F 5 "CL05B104KO5NNNC" H 15200 18000 50  0001 C CNN "MPN"
F 6 "C1525" H 15200 18000 50  0001 C CNN "LCSC"
	1    15200 18000
	1    0    0    -1  
$EndComp
Wire Wire Line
	14600 18300 15200 18300
$Comp
L power:GND #PWR060
U 1 1 6065AFBC
P 13700 18600
F 0 "#PWR060" H 13700 18350 50  0001 C CNN
F 1 "GND" H 13700 18450 50  0000 C CNN
F 2 "" H 13700 18600 50  0001 C CNN
F 3 "" H 13700 18600 50  0001 C CNN
	1    13700 18600
	0    1    1    0   
$EndComp
$Comp
L Sundial:Elite_5032_10L_SPI U8
U 1 1 60507004
P 14150 18450
F 0 "U8" H 14150 19037 60  0000 C CNN
F 1 "Elite_5032_10L_SPI" H 14150 18931 60  0000 C CNN
F 2 "Sundial:Elite_TCXO_Ceramic_5032" H 14050 18500 60  0001 C CNN
F 3 "" H 14050 18500 60  0001 C CNN
F 4 "" H 14150 18450 50  0001 C CNN "MPN"
	1    14150 18450
	1    0    0    -1  
$EndComp
NoConn ~ 14600 18450
NoConn ~ 14600 18600
NoConn ~ 13700 18150
NoConn ~ 13700 18450
NoConn ~ 13700 18750
Wire Wire Line
	14600 18750 17300 18750
Wire Wire Line
	13150 15150 13300 15150
NoConn ~ 13150 14550
Wire Notes Line
	4500 11000 20000 11000
Text Notes 7050 10750 0    250  ~ 0
CLOCK INPUTS
Wire Wire Line
	16850 12350 16850 14950
Wire Wire Line
	16850 14950 17450 14950
$Comp
L power:+3.3V #PWR0127
U 1 1 6259375E
P 8100 11950
F 0 "#PWR0127" H 8100 11800 50  0001 C CNN
F 1 "+3.3V" H 8115 12123 50  0000 C CNN
F 2 "" H 8100 11950 50  0001 C CNN
F 3 "" H 8100 11950 50  0001 C CNN
	1    8100 11950
	1    0    0    -1  
$EndComp
$Comp
L power:+3.3V #PWR0129
U 1 1 625CA546
P 12650 11750
F 0 "#PWR0129" H 12650 11600 50  0001 C CNN
F 1 "+3.3V" H 12665 11923 50  0000 C CNN
F 2 "" H 12650 11750 50  0001 C CNN
F 3 "" H 12650 11750 50  0001 C CNN
	1    12650 11750
	1    0    0    -1  
$EndComp
$Comp
L power:+3.3V #PWR0130
U 1 1 625E47C1
P 12500 13550
F 0 "#PWR0130" H 12500 13400 50  0001 C CNN
F 1 "+3.3V" H 12515 13723 50  0000 C CNN
F 2 "" H 12500 13550 50  0001 C CNN
F 3 "" H 12500 13550 50  0001 C CNN
	1    12500 13550
	0    -1   -1   0   
$EndComp
$Comp
L power:+3.3V #PWR0131
U 1 1 625FE9A0
P 15300 14700
F 0 "#PWR0131" H 15300 14550 50  0001 C CNN
F 1 "+3.3V" H 15315 14873 50  0000 C CNN
F 2 "" H 15300 14700 50  0001 C CNN
F 3 "" H 15300 14700 50  0001 C CNN
	1    15300 14700
	1    0    0    -1  
$EndComp
$Comp
L power:+3.3V #PWR0132
U 1 1 62632B5E
P 17600 14650
F 0 "#PWR0132" H 17600 14500 50  0001 C CNN
F 1 "+3.3V" H 17615 14823 50  0000 C CNN
F 2 "" H 17600 14650 50  0001 C CNN
F 3 "" H 17600 14650 50  0001 C CNN
	1    17600 14650
	0    -1   -1   0   
$EndComp
$Comp
L power:+3.3V #PWR0134
U 1 1 62666E5B
P 7400 14700
F 0 "#PWR0134" H 7400 14550 50  0001 C CNN
F 1 "+3.3V" H 7415 14873 50  0000 C CNN
F 2 "" H 7400 14700 50  0001 C CNN
F 3 "" H 7400 14700 50  0001 C CNN
	1    7400 14700
	0    1    -1   0   
$EndComp
Wire Wire Line
	9400 15200 7550 15200
Text Notes 13350 10750 0    250  ~ 0
START/STOP PULSE
$Comp
L Device:CP C29
U 1 1 62E008F0
P 7650 7800
F 0 "C29" H 7550 7900 50  0000 R CNN
F 1 "22u" H 7550 7800 50  0000 R CNN
F 2 "Capacitor_Tantalum_SMD:CP_EIA-3528-15_AVX-H" H 7688 7650 50  0001 C CNN
F 3 "~" H 7650 7800 50  0001 C CNN
F 4 "3528" H 7550 7700 50  0000 R CNN "Package"
F 5 "TAJB226K016RNJ" H 7650 7800 50  0001 C CNN "MPN"
F 6 "C8020" H 7650 7800 50  0001 C CNN "LCSC"
	1    7650 7800
	1    0    0    -1  
$EndComp
$Comp
L power:GND #PWR0135
U 1 1 62E008F6
P 7650 7950
F 0 "#PWR0135" H 7650 7700 50  0001 C CNN
F 1 "GND" H 7650 7800 50  0000 C CNN
F 2 "" H 7650 7950 50  0001 C CNN
F 3 "" H 7650 7950 50  0001 C CNN
	1    7650 7950
	-1   0    0    -1  
$EndComp
$Comp
L power:+5V #PWR0136
U 1 1 62E008FC
P 7650 7650
F 0 "#PWR0136" H 7650 7500 50  0001 C CNN
F 1 "+5V" H 7650 7800 50  0000 C CNN
F 2 "" H 7650 7650 50  0001 C CNN
F 3 "" H 7650 7650 50  0001 C CNN
	1    7650 7650
	-1   0    0    -1  
$EndComp
$Comp
L Device:CP C31
U 1 1 62E00905
P 8150 7800
F 0 "C31" H 8050 7900 50  0000 R CNN
F 1 "22u" H 8050 7800 50  0000 R CNN
F 2 "Capacitor_Tantalum_SMD:CP_EIA-3528-15_AVX-H" H 8188 7650 50  0001 C CNN
F 3 "~" H 8150 7800 50  0001 C CNN
F 4 "3528" H 8050 7700 50  0000 R CNN "Package"
F 5 "TAJB226K016RNJ" H 8150 7800 50  0001 C CNN "MPN"
F 6 "C8020" H 8150 7800 50  0001 C CNN "LCSC"
	1    8150 7800
	1    0    0    -1  
$EndComp
$Comp
L power:GND #PWR0137
U 1 1 62E0090B
P 8150 7950
F 0 "#PWR0137" H 8150 7700 50  0001 C CNN
F 1 "GND" H 8150 7800 50  0000 C CNN
F 2 "" H 8150 7950 50  0001 C CNN
F 3 "" H 8150 7950 50  0001 C CNN
	1    8150 7950
	-1   0    0    -1  
$EndComp
$Comp
L power:+5V #PWR0138
U 1 1 62E00911
P 8150 7650
F 0 "#PWR0138" H 8150 7500 50  0001 C CNN
F 1 "+5V" H 8150 7800 50  0000 C CNN
F 2 "" H 8150 7650 50  0001 C CNN
F 3 "" H 8150 7650 50  0001 C CNN
	1    8150 7650
	-1   0    0    -1  
$EndComp
$Comp
L power:+3.3V #PWR0117
U 1 1 63384363
P 15850 18300
F 0 "#PWR0117" H 15850 18150 50  0001 C CNN
F 1 "+3.3V" V 15850 18550 50  0000 C CNN
F 2 "" H 15850 18300 50  0001 C CNN
F 3 "" H 15850 18300 50  0001 C CNN
	1    15850 18300
	0    1    1    0   
$EndComp
$Comp
L power:+3.3V #PWR0118
U 1 1 63399D51
P 18500 18150
F 0 "#PWR0118" H 18500 18000 50  0001 C CNN
F 1 "+3.3V" V 18500 18400 50  0000 C CNN
F 2 "" H 18500 18150 50  0001 C CNN
F 3 "" H 18500 18150 50  0001 C CNN
	1    18500 18150
	0    1    1    0   
$EndComp
Wire Wire Line
	15700 18150 15700 18300
$Comp
L power:GND #PWR0119
U 1 1 633C5E0B
P 15700 17850
F 0 "#PWR0119" H 15700 17600 50  0001 C CNN
F 1 "GND" H 15700 17700 50  0000 C CNN
F 2 "" H 15700 17850 50  0001 C CNN
F 3 "" H 15700 17850 50  0001 C CNN
	1    15700 17850
	-1   0    0    1   
$EndComp
$Comp
L Device:C C32
U 1 1 633C5E14
P 15700 18000
F 0 "C32" H 15815 18091 50  0000 L CNN
F 1 "1u" H 15815 18000 50  0000 L CNN
F 2 "Capacitor_SMD:C_0603_1608Metric" H 15738 17850 50  0001 C CNN
F 3 "~" H 15700 18000 50  0001 C CNN
F 4 "0603" H 15815 17909 50  0000 L CNN "Package"
F 5 "CL10A105KB8NNNC" H 15700 18000 50  0001 C CNN "MPN"
F 6 "C15849" H 15700 18000 50  0001 C CNN "LCSC"
	1    15700 18000
	1    0    0    -1  
$EndComp
$Comp
L power:+3.3V #PWR0120
U 1 1 633F6BD1
P 18350 19450
F 0 "#PWR0120" H 18350 19300 50  0001 C CNN
F 1 "+3.3V" H 18350 19600 50  0000 C CNN
F 2 "" H 18350 19450 50  0001 C CNN
F 3 "" H 18350 19450 50  0001 C CNN
	1    18350 19450
	-1   0    0    1   
$EndComp
Connection ~ 15700 18300
Wire Wire Line
	15700 18300 15850 18300
Text Label 10950 3900 2    50   ~ 0
PSOC_I2CS_SCL
Text Label 10950 4200 2    50   ~ 0
PSOC_I2CS_SDA
$Comp
L Device:R R13
U 1 1 6067E0F1
P 11250 3050
F 0 "R13" V 11150 3050 50  0000 C CNN
F 1 "1k" V 11250 3050 50  0000 C CNN
F 2 "Resistor_SMD:R_0402_1005Metric_Pad0.72x0.64mm_HandSolder" V 11180 3050 50  0001 C CNN
F 3 "~" H 11250 3050 50  0001 C CNN
F 4 "0402" V 11350 3050 50  0001 C CNN "Package"
F 5 "0402WGF1001TCE" V 11250 3050 50  0001 C CNN "MPN"
F 6 "C11702" V 11250 3050 50  0001 C CNN "LCSC"
	1    11250 3050
	0    1    1    0   
$EndComp
$Comp
L Device:R R14
U 1 1 60693D20
P 11250 3350
F 0 "R14" V 11150 3350 50  0000 C CNN
F 1 "1k" V 11250 3350 50  0000 C CNN
F 2 "Resistor_SMD:R_0402_1005Metric_Pad0.72x0.64mm_HandSolder" V 11180 3350 50  0001 C CNN
F 3 "~" H 11250 3350 50  0001 C CNN
F 4 "0402" V 11350 3350 50  0001 C CNN "Package"
F 5 "0402WGF1001TCE" V 11250 3350 50  0001 C CNN "MPN"
F 6 "C11702" V 11250 3350 50  0001 C CNN "LCSC"
	1    11250 3350
	0    1    1    0   
$EndComp
Wire Wire Line
	10950 3050 11100 3050
Wire Wire Line
	11100 3350 10950 3350
Wire Wire Line
	11400 3350 11550 3350
$Comp
L power:+3.3VP #PWR0121
U 1 1 606ED2C0
P 11550 3350
F 0 "#PWR0121" H 11700 3300 50  0001 C CNN
F 1 "+3.3VP" V 11550 3600 50  0000 C CNN
F 2 "" H 11550 3350 50  0001 C CNN
F 3 "" H 11550 3350 50  0001 C CNN
	1    11550 3350
	0    1    -1   0   
$EndComp
Wire Wire Line
	11400 3050 11550 3050
$Comp
L power:+3.3VP #PWR0122
U 1 1 6070354A
P 11550 3050
F 0 "#PWR0122" H 11700 3000 50  0001 C CNN
F 1 "+3.3VP" V 11550 3300 50  0000 C CNN
F 2 "" H 11550 3050 50  0001 C CNN
F 3 "" H 11550 3050 50  0001 C CNN
	1    11550 3050
	0    1    -1   0   
$EndComp
Text Notes 10750 2800 0    100  ~ 0
I2CM_PULLUP
$Comp
L Device:R R22
U 1 1 6078D9EF
P 11250 3900
F 0 "R22" V 11150 3900 50  0000 C CNN
F 1 "1k" V 11250 3900 50  0000 C CNN
F 2 "Resistor_SMD:R_0402_1005Metric_Pad0.72x0.64mm_HandSolder" V 11180 3900 50  0001 C CNN
F 3 "~" H 11250 3900 50  0001 C CNN
F 4 "0402" V 11350 3900 50  0001 C CNN "Package"
F 5 "0402WGF1001TCE" V 11250 3900 50  0001 C CNN "MPN"
F 6 "C11702" V 11250 3900 50  0001 C CNN "LCSC"
	1    11250 3900
	0    1    1    0   
$EndComp
$Comp
L Device:R R24
U 1 1 6078D9F8
P 11250 4200
F 0 "R24" V 11150 4200 50  0000 C CNN
F 1 "1k" V 11250 4200 50  0000 C CNN
F 2 "Resistor_SMD:R_0402_1005Metric_Pad0.72x0.64mm_HandSolder" V 11180 4200 50  0001 C CNN
F 3 "~" H 11250 4200 50  0001 C CNN
F 4 "0402" V 11350 4200 50  0001 C CNN "Package"
F 5 "0402WGF1001TCE" V 11250 4200 50  0001 C CNN "MPN"
F 6 "C11702" V 11250 4200 50  0001 C CNN "LCSC"
	1    11250 4200
	0    1    1    0   
$EndComp
Wire Wire Line
	10950 3900 11100 3900
Wire Wire Line
	11100 4200 10950 4200
Wire Wire Line
	11400 4200 11550 4200
Wire Wire Line
	11400 3900 11550 3900
Text Notes 10750 3700 0    100  ~ 0
I2CS_PULLUP
$Comp
L power:GND #PWR0101
U 1 1 606D17F5
P 12150 14350
F 0 "#PWR0101" H 12150 14100 50  0001 C CNN
F 1 "GND" V 12150 14150 50  0000 C CNN
F 2 "" H 12150 14350 50  0001 C CNN
F 3 "" H 12150 14350 50  0001 C CNN
	1    12150 14350
	0    1    1    0   
$EndComp
$Comp
L RF_GPS:ublox_SAM-M8Q U13
U 1 1 60711FE3
P 8950 18850
F 0 "U13" H 9300 18250 50  0000 C CNN
F 1 "ublox_SAM-M8Q" H 9400 18150 50  0000 C CNN
F 2 "RF_Module:ublox_SAM-M8Q" H 9500 18400 50  0001 C CNN
F 3 "https://www.u-blox.com/sites/default/files/SAM-M8Q_DataSheet_%28UBX-16012619%29.pdf" H 8950 18850 50  0001 C CNN
F 4 "SAM-M8Q-0-10" H 8950 18850 50  0001 C CNN "MPN"
	1    8950 18850
	-1   0    0    -1  
$EndComp
$Comp
L power:+5V #PWR0115
U 1 1 60747BC8
P 5800 18950
F 0 "#PWR0115" H 5800 18800 50  0001 C CNN
F 1 "+5V" H 5800 19100 50  0000 C CNN
F 2 "" H 5800 18950 50  0001 C CNN
F 3 "" H 5800 18950 50  0001 C CNN
	1    5800 18950
	1    0    0    1   
$EndComp
Wire Wire Line
	5950 18500 5800 18500
$Comp
L Device:R R1
U 1 1 60747BD2
P 5800 18800
F 0 "R1" V 5700 18800 50  0000 C CNN
F 1 "10k" V 5800 18800 50  0000 C CNN
F 2 "Resistor_SMD:R_0402_1005Metric_Pad0.72x0.64mm_HandSolder" V 5730 18800 50  0001 C CNN
F 3 "~" H 5800 18800 50  0001 C CNN
F 4 "0402" V 5900 18800 50  0000 C CNN "Package"
F 5 "0402WGF1002TCE" V 5800 18800 50  0001 C CNN "MPN"
F 6 "C25744" V 5800 18800 50  0001 C CNN "LCSC"
	1    5800 18800
	1    0    0    -1  
$EndComp
Wire Wire Line
	5800 18650 5800 18500
Wire Wire Line
	6900 18500 6900 18650
Wire Wire Line
	6750 18500 6900 18500
$Comp
L power:GND #PWR0125
U 1 1 60747BDB
P 6900 18950
F 0 "#PWR0125" H 6900 18700 50  0001 C CNN
F 1 "GND" H 6900 18800 50  0000 C CNN
F 2 "" H 6900 18950 50  0001 C CNN
F 3 "" H 6900 18950 50  0001 C CNN
	1    6900 18950
	1    0    0    -1  
$EndComp
$Comp
L Device:C C33
U 1 1 60747BE4
P 6900 18800
F 0 "C33" H 7015 18891 50  0000 L CNN
F 1 "10n" H 7015 18800 50  0000 L CNN
F 2 "Capacitor_SMD:C_0402_1005Metric_Pad0.74x0.62mm_HandSolder" H 6938 18650 50  0001 C CNN
F 3 "~" H 6900 18800 50  0001 C CNN
F 4 "0402" H 7015 18709 50  0000 L CNN "Package"
F 5 "CL05B103KB5NNNC" H 6900 18800 50  0001 C CNN "MPN"
F 6 "C15195" H 6900 18800 50  0001 C CNN "LCSC"
	1    6900 18800
	-1   0    0    -1  
$EndComp
Wire Wire Line
	5500 18200 5950 18200
$Comp
L Sundial:MIC5219YM5 U1
U 1 1 60747BEE
P 6350 18350
F 0 "U1" H 6350 18787 60  0000 C CNN
F 1 "MIC5219-3.3YM5" H 6350 18681 60  0000 C CNN
F 2 "Package_TO_SOT_SMD:SOT-23-5" H 6350 18200 60  0001 C CNN
F 3 "" H 6350 18200 60  0001 C CNN
F 4 "SOT-23-5" H 6350 18000 50  0000 C CNN "Package"
F 5 "MIC5219-3.3YM5" H 6350 18350 50  0001 C CNN "MPN"
F 6 "C29613" H 6350 18350 50  0001 C CNN "LCSC"
	1    6350 18350
	1    0    0    -1  
$EndComp
$Comp
L power:+5V #PWR0126
U 1 1 60747BF4
P 5500 18100
F 0 "#PWR0126" H 5500 17950 50  0001 C CNN
F 1 "+5V" H 5500 18250 50  0000 C CNN
F 2 "" H 5500 18100 50  0001 C CNN
F 3 "" H 5500 18100 50  0001 C CNN
	1    5500 18100
	-1   0    0    -1  
$EndComp
Connection ~ 5500 18200
Wire Wire Line
	5500 18200 5500 18350
$Comp
L power:GND #PWR0133
U 1 1 60747BFC
P 5500 18650
F 0 "#PWR0133" H 5500 18400 50  0001 C CNN
F 1 "GND" H 5500 18500 50  0000 C CNN
F 2 "" H 5500 18650 50  0001 C CNN
F 3 "" H 5500 18650 50  0001 C CNN
	1    5500 18650
	1    0    0    -1  
$EndComp
$Comp
L Device:C C1
U 1 1 60747C05
P 5500 18500
F 0 "C1" H 5615 18591 50  0000 L CNN
F 1 "1u" H 5615 18500 50  0000 L CNN
F 2 "Capacitor_SMD:C_0603_1608Metric_Pad1.05x0.95mm_HandSolder" H 5538 18350 50  0001 C CNN
F 3 "~" H 5500 18500 50  0001 C CNN
F 4 "0603" H 5615 18409 50  0000 L CNN "Package"
F 5 "CL10A105KB8NNNC" H 5500 18500 50  0001 C CNN "MPN"
F 6 "C15849" H 5500 18500 50  0001 C CNN "LCSC"
	1    5500 18500
	-1   0    0    -1  
$EndComp
$Comp
L power:GND #PWR0139
U 1 1 60747C0F
P 7250 18650
F 0 "#PWR0139" H 7250 18400 50  0001 C CNN
F 1 "GND" H 7250 18500 50  0000 C CNN
F 2 "" H 7250 18650 50  0001 C CNN
F 3 "" H 7250 18650 50  0001 C CNN
	1    7250 18650
	1    0    0    -1  
$EndComp
Wire Wire Line
	5500 18200 5500 18100
$Comp
L power:GND #PWR0140
U 1 1 60747C16
P 5950 18350
F 0 "#PWR0140" H 5950 18100 50  0001 C CNN
F 1 "GND" V 5950 18150 50  0000 C CNN
F 2 "" H 5950 18350 50  0001 C CNN
F 3 "" H 5950 18350 50  0001 C CNN
	1    5950 18350
	0    1    -1   0   
$EndComp
$Comp
L Device:CP C34
U 1 1 60747C1F
P 7250 18500
F 0 "C34" H 7365 18591 50  0000 L CNN
F 1 "2.2u" H 7365 18500 50  0000 L CNN
F 2 "Capacitor_Tantalum_SMD:CP_EIA-3216-12_Kemet-S" H 7288 18350 50  0001 C CNN
F 3 "~" H 7250 18500 50  0001 C CNN
F 4 "3216" H 7365 18409 50  0000 L CNN "Package"
F 5 "293D225X9016A2TE3" H 7250 18500 50  0001 C CNN "MPN"
F 6 "C146174" H 7250 18500 50  0001 C CNN "LCSC"
	1    7250 18500
	1    0    0    -1  
$EndComp
Wire Wire Line
	6750 18200 7250 18200
Wire Wire Line
	7250 18200 7250 18350
$Comp
L power:GND #PWR0141
U 1 1 6081ABC6
P 8950 19350
F 0 "#PWR0141" H 8950 19100 50  0001 C CNN
F 1 "GND" H 8950 19200 50  0000 C CNN
F 2 "" H 8950 19350 50  0001 C CNN
F 3 "" H 8950 19350 50  0001 C CNN
	1    8950 19350
	-1   0    0    -1  
$EndComp
Wire Wire Line
	7250 18200 8150 18200
Wire Wire Line
	8850 18200 8850 18350
Connection ~ 7250 18200
Wire Wire Line
	8850 18200 8950 18200
Wire Wire Line
	8950 18200 8950 18350
Connection ~ 8850 18200
Wire Wire Line
	8950 18200 9050 18200
Wire Wire Line
	9050 18200 9050 18350
Connection ~ 8950 18200
$Comp
L Device:R R12
U 1 1 6091558D
P 11100 12450
F 0 "R12" V 11000 12450 50  0000 C CNN
F 1 "10" V 11100 12450 50  0000 C CNN
F 2 "Resistor_SMD:R_0402_1005Metric_Pad0.72x0.64mm_HandSolder" V 11030 12450 50  0001 C CNN
F 3 "~" H 11100 12450 50  0001 C CNN
F 4 "0402" V 11200 12450 50  0000 C CNN "Package"
F 5 "0402WGF100JTCE" V 11100 12450 50  0001 C CNN "MPN"
F 6 "C25077" V 11100 12450 50  0001 C CNN "LCSC"
	1    11100 12450
	0    1    1    0   
$EndComp
Wire Wire Line
	10300 18850 9450 18850
Wire Wire Line
	10750 18850 10600 18850
$Comp
L power:GND #PWR0142
U 1 1 60B73435
P 8600 17750
F 0 "#PWR0142" H 8600 17500 50  0001 C CNN
F 1 "GND" H 8600 17600 50  0000 C CNN
F 2 "" H 8600 17750 50  0001 C CNN
F 3 "" H 8600 17750 50  0001 C CNN
	1    8600 17750
	-1   0    0    1   
$EndComp
$Comp
L Device:C C35
U 1 1 60B7343E
P 8600 17900
F 0 "C35" H 8715 17991 50  0000 L CNN
F 1 "1u" H 8715 17900 50  0000 L CNN
F 2 "Capacitor_SMD:C_0603_1608Metric_Pad1.05x0.95mm_HandSolder" H 8638 17750 50  0001 C CNN
F 3 "~" H 8600 17900 50  0001 C CNN
F 4 "0603" H 8715 17809 50  0000 L CNN "Package"
F 5 "CL10A105KB8NNNC" H 8600 17900 50  0001 C CNN "MPN"
F 6 "C15849" H 8600 17900 50  0001 C CNN "LCSC"
	1    8600 17900
	-1   0    0    -1  
$EndComp
Wire Wire Line
	8600 18050 8600 18200
$Comp
L power:GND #PWR0143
U 1 1 60C11953
P 9050 17750
F 0 "#PWR0143" H 9050 17500 50  0001 C CNN
F 1 "GND" H 9050 17600 50  0000 C CNN
F 2 "" H 9050 17750 50  0001 C CNN
F 3 "" H 9050 17750 50  0001 C CNN
	1    9050 17750
	-1   0    0    1   
$EndComp
$Comp
L Device:C C36
U 1 1 60C1195C
P 9050 17900
F 0 "C36" H 9165 17991 50  0000 L CNN
F 1 "1u" H 9165 17900 50  0000 L CNN
F 2 "Capacitor_SMD:C_0603_1608Metric" H 9088 17750 50  0001 C CNN
F 3 "~" H 9050 17900 50  0001 C CNN
F 4 "0603" H 9165 17809 50  0000 L CNN "Package"
F 5 "CL10A105KB8NNNC" H 9050 17900 50  0001 C CNN "MPN"
F 6 "C15849" H 9050 17900 50  0001 C CNN "LCSC"
	1    9050 17900
	-1   0    0    -1  
$EndComp
Wire Wire Line
	9050 18050 9050 18200
Connection ~ 9050 18200
Connection ~ 8600 18200
Wire Wire Line
	8600 18200 8850 18200
Text Label 10950 3350 2    50   ~ 0
I2CM_SDA
Text Label 10950 3050 2    50   ~ 0
I2CM_SCL
Text Label 8300 18950 2    50   ~ 0
I2CM_SDA
Text Label 8300 19050 2    50   ~ 0
I2CM_SCL
Wire Wire Line
	8450 18950 8300 18950
Wire Wire Line
	8450 19050 8300 19050
Text Label 8300 18650 2    50   ~ 0
UBLOX_UART_RXD
Text Label 8300 18750 2    50   ~ 0
UBLOX_UART_TXD
Wire Wire Line
	8450 18650 8300 18650
Wire Wire Line
	8450 18750 8300 18750
Text Label 14550 4700 2    50   ~ 0
UBLOX_UART_RXD
Text Label 14550 4800 2    50   ~ 0
UBLOX_UART_TXD
Text Label 9600 19050 0    50   ~ 0
~UBLOX_RESET
Wire Wire Line
	9600 19050 9450 19050
Text Label 9600 18950 0    50   ~ 0
~UBLOX_SAFEBOOT
Wire Wire Line
	9600 18950 9450 18950
Wire Wire Line
	13600 15150 15050 15150
$Comp
L power:GND #PWR0144
U 1 1 60F5EB71
P 7350 3950
F 0 "#PWR0144" H 7350 3700 50  0001 C CNN
F 1 "GND" V 7350 3750 50  0000 C CNN
F 2 "" H 7350 3950 50  0001 C CNN
F 3 "" H 7350 3950 50  0001 C CNN
	1    7350 3950
	0    1    1    0   
$EndComp
$Comp
L Connector_Generic:Conn_01x02 J9
U 1 1 60F5EB7D
P 7550 3850
F 0 "J9" H 7630 3842 50  0000 L CNN
F 1 "Conn_01x02" H 7630 3751 50  0000 L CNN
F 2 "Connector_Molex:Molex_KK-254_AE-6410-02A_1x02_P2.54mm_Vertical" H 7550 3850 50  0001 C CNN
F 3 "~" H 7550 3850 50  0001 C CNN
F 4 "0022112026" H 7550 3850 50  0001 C CNN "MPN"
	1    7550 3850
	1    0    0    -1  
$EndComp
Text Label 7350 3850 2    50   ~ 0
~UBLOX_SAFEBOOT
Text Label 14550 3300 2    50   ~ 0
~UBLOX_RESET
NoConn ~ 14550 7200
Text Label 12250 12250 2    50   ~ 0
EXT_REF_CLK_EN
Text Label 10750 18850 0    50   ~ 0
EXT_REF_CLK
Wire Wire Line
	14700 12250 14900 12250
Connection ~ 14700 12250
Wire Wire Line
	14700 12350 14700 12250
Wire Wire Line
	14900 12350 14700 12350
$Comp
L power:+3.3V #PWR0128
U 1 1 625B039F
P 15150 11550
F 0 "#PWR0128" H 15150 11400 50  0001 C CNN
F 1 "+3.3V" H 15165 11723 50  0000 C CNN
F 2 "" H 15150 11550 50  0001 C CNN
F 3 "" H 15150 11550 50  0001 C CNN
	1    15150 11550
	0    -1   -1   0   
$EndComp
Wire Wire Line
	13500 12250 14700 12250
$Comp
L Sundial:74x164 U5
U 1 1 6065F156
P 15300 12250
F 0 "U5" H 15450 11650 50  0000 L CNN
F 1 "74HC164" H 15450 11550 50  0000 L CNN
F 2 "Package_SO:TSSOP-14_4.4x5mm_P0.65mm" H 16200 11950 50  0001 C CNN
F 3 "https://assets.nexperia.com/documents/data-sheet/74HC_HCT164.pdf" H 16200 11950 50  0001 C CNN
F 4 "TSSOP-14" H 15450 11450 50  0000 L CNN "Package"
F 5 "C5612" H 15300 12250 50  0001 C CNN "LCSC"
F 6 "74HC164PW,118" H 15300 12250 50  0001 C CNN "MPN"
	1    15300 12250
	1    0    0    -1  
$EndComp
$Comp
L Device:C C7
U 1 1 606F6332
P 15650 11550
F 0 "C7" V 15750 11650 50  0000 L CNN
F 1 "0.1u" V 15750 11450 50  0000 R CNN
F 2 "Capacitor_SMD:C_0402_1005Metric_Pad0.74x0.62mm_HandSolder" H 15688 11400 50  0001 C CNN
F 3 "~" H 15650 11550 50  0001 C CNN
F 4 "0402" V 15500 11550 50  0000 C CNN "Package"
F 5 "CL05B104KO5NNNC" H 15650 11550 50  0001 C CNN "MPN"
F 6 "C1525" V 15650 11550 50  0001 C CNN "LCSC"
	1    15650 11550
	0    -1   -1   0   
$EndComp
Wire Wire Line
	15500 11550 15300 11550
Wire Wire Line
	15150 11550 15300 11550
Connection ~ 15300 11550
Wire Wire Line
	15300 11550 15300 11750
$Comp
L power:GND #PWR038
U 1 1 606F633C
P 15800 11550
F 0 "#PWR038" H 15800 11300 50  0001 C CNN
F 1 "GND" V 15800 11350 50  0000 C CNN
F 2 "" H 15800 11550 50  0001 C CNN
F 3 "" H 15800 11550 50  0001 C CNN
	1    15800 11550
	0    -1   -1   0   
$EndComp
$Comp
L power:GND #PWR033
U 1 1 607741E7
P 15300 12850
F 0 "#PWR033" H 15300 12600 50  0001 C CNN
F 1 "GND" H 15300 12700 50  0000 C CNN
F 2 "" H 15300 12850 50  0001 C CNN
F 3 "" H 15300 12850 50  0001 C CNN
	1    15300 12850
	1    0    0    -1  
$EndComp
Wire Wire Line
	15700 12350 16850 12350
NoConn ~ 15700 11950
NoConn ~ 15700 12050
NoConn ~ 15700 12150
NoConn ~ 15700 12250
NoConn ~ 15700 12450
NoConn ~ 15700 12550
NoConn ~ 15700 12650
Text Label 14900 12250 2    50   ~ 0
TDC_START_PULSE
Text Label 14900 12050 2    50   ~ 0
~CLK_PULSE_RESET
Text Label 14900 12550 2    50   ~ 0
OCXO_CLK+_OUT
$Comp
L power:+3.3VP #PWR0123
U 1 1 6168CDA0
P 11550 3900
F 0 "#PWR0123" H 11700 3850 50  0001 C CNN
F 1 "+3.3VP" V 11550 4150 50  0000 C CNN
F 2 "" H 11550 3900 50  0001 C CNN
F 3 "" H 11550 3900 50  0001 C CNN
	1    11550 3900
	0    1    -1   0   
$EndComp
$Comp
L power:+3.3VP #PWR0124
U 1 1 616A5FF7
P 11550 4200
F 0 "#PWR0124" H 11700 4150 50  0001 C CNN
F 1 "+3.3VP" V 11550 4450 50  0000 C CNN
F 2 "" H 11550 4200 50  0001 C CNN
F 3 "" H 11550 4200 50  0001 C CNN
	1    11550 4200
	0    1    -1   0   
$EndComp
$Comp
L power:+3.3VP #PWR0145
U 1 1 617E7F3E
P 5850 3650
F 0 "#PWR0145" H 6000 3600 50  0001 C CNN
F 1 "+3.3VP" V 5850 3900 50  0000 C CNN
F 2 "" H 5850 3650 50  0001 C CNN
F 3 "" H 5850 3650 50  0001 C CNN
	1    5850 3650
	0    -1   1    0   
$EndComp
$Comp
L power:GND #PWR0146
U 1 1 60726F75
P 8150 17750
F 0 "#PWR0146" H 8150 17500 50  0001 C CNN
F 1 "GND" H 8150 17600 50  0000 C CNN
F 2 "" H 8150 17750 50  0001 C CNN
F 3 "" H 8150 17750 50  0001 C CNN
	1    8150 17750
	-1   0    0    1   
$EndComp
$Comp
L Device:C C37
U 1 1 60726F7E
P 8150 17900
F 0 "C37" H 8265 17991 50  0000 L CNN
F 1 "1u" H 8265 17900 50  0000 L CNN
F 2 "Capacitor_SMD:C_0603_1608Metric_Pad1.05x0.95mm_HandSolder" H 8188 17750 50  0001 C CNN
F 3 "~" H 8150 17900 50  0001 C CNN
F 4 "0603" H 8265 17809 50  0000 L CNN "Package"
F 5 "CL10A105KB8NNNC" H 8150 17900 50  0001 C CNN "MPN"
F 6 "C15849" H 8150 17900 50  0001 C CNN "LCSC"
	1    8150 17900
	-1   0    0    -1  
$EndComp
Wire Wire Line
	8150 18050 8150 18200
Connection ~ 8150 18200
Wire Wire Line
	8150 18200 8600 18200
NoConn ~ 14550 4900
Text Notes 6400 16800 0    250  ~ 0
GPS 1PPS RECEIVER
Wire Notes Line
	4500 17000 4500 20000
Wire Notes Line
	12000 17000 12000 20000
Wire Notes Line
	4500 20000 12000 20000
Wire Notes Line
	4500 17000 12000 17000
Text Label 14600 18150 0    50   ~ 0
I2CM_SDA
Text Label 13700 18300 2    50   ~ 0
I2CM_SCL
Text Label 18500 8700 0    50   ~ 0
PSOC_OCXO_STATUS
$Comp
L Device:Q_NMOS_GSD Q1
U 1 1 609F12DE
P 18300 8700
F 0 "Q1" H 18505 8746 50  0000 L CNN
F 1 "Q_NMOS_GSD" H 18505 8655 50  0000 L CNN
F 2 "Package_TO_SOT_SMD:SOT-323_SC-70" H 18500 8800 50  0001 C CNN
F 3 "~" H 18300 8700 50  0001 C CNN
F 4 "DMN3150LW-7" H 18300 8700 50  0001 C CNN "MPN"
F 5 "C397976" H 18300 8700 50  0001 C CNN "LCSC"
	1    18300 8700
	-1   0    0    -1  
$EndComp
$Comp
L Device:LED D1
U 1 1 609F12E7
P 18200 8350
F 0 "D1" V 18300 8450 50  0000 L CNN
F 1 "LED" V 18100 8450 50  0000 L CNN
F 2 "LED_SMD:LED_0603_1608Metric_Pad1.05x0.95mm_HandSolder" H 18200 8350 50  0001 C CNN
F 3 "~" H 18200 8350 50  0001 C CNN
F 4 "0603" V 18200 8450 50  0000 L CNN "Package"
F 5 "19-217/GHC-YR1S2/3T" V 18200 8350 50  0001 C CNN "MPN"
F 6 "C72043" V 18200 8350 50  0001 C CNN "LCSC"
	1    18200 8350
	0    1    -1   0   
$EndComp
$Comp
L power:GND #PWR0147
U 1 1 609F12ED
P 18200 8900
F 0 "#PWR0147" H 18200 8650 50  0001 C CNN
F 1 "GND" H 18200 8750 50  0000 C CNN
F 2 "" H 18200 8900 50  0001 C CNN
F 3 "" H 18200 8900 50  0001 C CNN
	1    18200 8900
	1    0    0    -1  
$EndComp
$Comp
L Device:R R25
U 1 1 609F12F6
P 18200 8050
F 0 "R25" V 18100 8050 50  0000 C CNN
F 1 "1k" V 18200 8050 50  0000 C CNN
F 2 "Resistor_SMD:R_0402_1005Metric_Pad0.72x0.64mm_HandSolder" V 18130 8050 50  0001 C CNN
F 3 "~" H 18200 8050 50  0001 C CNN
F 4 "0402" V 18300 8050 50  0000 C CNN "Package"
F 5 "0402WGF1001TCE" V 18200 8050 50  0001 C CNN "MPN"
F 6 "C11702" V 18200 8050 50  0001 C CNN "LCSC"
	1    18200 8050
	1    0    0    -1  
$EndComp
$Comp
L power:+5V #PWR0148
U 1 1 609F12FC
P 18200 7900
F 0 "#PWR0148" H 18200 7750 50  0001 C CNN
F 1 "+5V" H 18200 8050 50  0000 C CNN
F 2 "" H 18200 7900 50  0001 C CNN
F 3 "" H 18200 7900 50  0001 C CNN
	1    18200 7900
	-1   0    0    -1  
$EndComp
Text Label 14550 4500 2    50   ~ 0
PSOC_OCXO_STATUS
Text Label 18500 5600 0    50   ~ 0
PSOC_PHASE_LOCK_STATUS
$Comp
L Device:Q_NMOS_GSD Q3
U 1 1 60AD6463
P 18300 5600
F 0 "Q3" H 18505 5646 50  0000 L CNN
F 1 "Q_NMOS_GSD" H 18505 5555 50  0000 L CNN
F 2 "Package_TO_SOT_SMD:SOT-323_SC-70" H 18500 5700 50  0001 C CNN
F 3 "~" H 18300 5600 50  0001 C CNN
F 4 "DMN3150LW-7" H 18300 5600 50  0001 C CNN "MPN"
F 5 "C397976" H 18300 5600 50  0001 C CNN "LCSC"
	1    18300 5600
	-1   0    0    -1  
$EndComp
$Comp
L Device:LED D3
U 1 1 60AD646C
P 18200 5250
F 0 "D3" V 18300 5350 50  0000 L CNN
F 1 "LED" V 18100 5350 50  0000 L CNN
F 2 "LED_SMD:LED_0603_1608Metric_Pad1.05x0.95mm_HandSolder" H 18200 5250 50  0001 C CNN
F 3 "~" H 18200 5250 50  0001 C CNN
F 4 "0603" V 18200 5350 50  0000 L CNN "Package"
F 5 "19-217/GHC-YR1S2/3T" V 18200 5250 50  0001 C CNN "MPN"
F 6 "C72043" V 18200 5250 50  0001 C CNN "LCSC"
	1    18200 5250
	0    1    -1   0   
$EndComp
$Comp
L power:GND #PWR0149
U 1 1 60AD6472
P 18200 5800
F 0 "#PWR0149" H 18200 5550 50  0001 C CNN
F 1 "GND" H 18200 5650 50  0000 C CNN
F 2 "" H 18200 5800 50  0001 C CNN
F 3 "" H 18200 5800 50  0001 C CNN
	1    18200 5800
	1    0    0    -1  
$EndComp
$Comp
L Device:R R26
U 1 1 60AD647B
P 18200 4950
F 0 "R26" V 18100 4950 50  0000 C CNN
F 1 "1k" V 18200 4950 50  0000 C CNN
F 2 "Resistor_SMD:R_0402_1005Metric_Pad0.72x0.64mm_HandSolder" V 18130 4950 50  0001 C CNN
F 3 "~" H 18200 4950 50  0001 C CNN
F 4 "0402" V 18300 4950 50  0000 C CNN "Package"
F 5 "0402WGF1001TCE" V 18200 4950 50  0001 C CNN "MPN"
F 6 "C11702" V 18200 4950 50  0001 C CNN "LCSC"
	1    18200 4950
	1    0    0    -1  
$EndComp
$Comp
L power:+5V #PWR0150
U 1 1 60AD6481
P 18200 4800
F 0 "#PWR0150" H 18200 4650 50  0001 C CNN
F 1 "+5V" H 18200 4950 50  0000 C CNN
F 2 "" H 18200 4800 50  0001 C CNN
F 3 "" H 18200 4800 50  0001 C CNN
	1    18200 4800
	-1   0    0    -1  
$EndComp
$Comp
L Sundial:CY8C5866LTI-LP022 U10
U 1 1 5F458528
P 17350 2900
F 0 "U10" H 18750 3288 60  0000 C CNN
F 1 "CY8C5888LTQ-LP097" H 18750 3182 60  0000 C CNN
F 2 "Package_DFN_QFN:QFN-68-1EP_8x8mm_P0.4mm_EP5.2x5.2mm" H 18750 3140 60  0001 C CNN
F 3 "" H 17350 2900 60  0000 C CNN
F 4 "CY8C5888LTQ-LP097" H 17350 2900 50  0001 C CNN "MPN"
	1    17350 2900
	-1   0    0    -1  
$EndComp
Text Label 14550 3000 2    50   ~ 0
PSOC_PHASE_LOCK_STATUS
Wire Wire Line
	7250 14700 7400 14700
Text Label 7550 15000 0    50   ~ 0
OCXO_CLK+_OUT_EN
$Comp
L Device:R R2
U 1 1 60A1AD54
P 10450 18850
F 0 "R2" V 10350 18850 50  0000 C CNN
F 1 "10" V 10450 18850 50  0000 C CNN
F 2 "Resistor_SMD:R_0402_1005Metric_Pad0.72x0.64mm_HandSolder" V 10380 18850 50  0001 C CNN
F 3 "~" H 10450 18850 50  0001 C CNN
F 4 "0402" V 10550 18850 50  0000 C CNN "Package"
F 5 "0402WGF100JTCE" V 10450 18850 50  0001 C CNN "MPN"
F 6 "C25077" V 10450 18850 50  0001 C CNN "LCSC"
	1    10450 18850
	0    -1   1    0   
$EndComp
$Comp
L Device:R R9
U 1 1 61930588
P 6650 12650
F 0 "R9" V 6550 12650 50  0000 C CNN
F 1 "10k" V 6650 12650 50  0000 C CNN
F 2 "Resistor_SMD:R_0402_1005Metric_Pad0.72x0.64mm_HandSolder" V 6580 12650 50  0001 C CNN
F 3 "~" H 6650 12650 50  0001 C CNN
F 4 "0402" V 6750 12650 50  0000 C CNN "Package"
F 5 "0402WGF1002TCE" V 6650 12650 50  0001 C CNN "MPN"
F 6 "C25744" V 6650 12650 50  0001 C CNN "LCSC"
	1    6650 12650
	1    0    0    -1  
$EndComp
$Comp
L Device:R R18
U 1 1 6019D71C
P 5900 2550
F 0 "R18" V 5800 2550 50  0000 C CNN
F 1 "0" V 5900 2550 50  0000 C CNN
F 2 "Resistor_SMD:R_0402_1005Metric_Pad0.72x0.64mm_HandSolder" V 5830 2550 50  0001 C CNN
F 3 "~" H 5900 2550 50  0001 C CNN
F 4 "0402" V 6000 2550 50  0001 C CNN "Package"
F 5 "0402WGF0000TCE" V 5900 2550 50  0001 C CNN "MPN"
F 6 "C17168" V 5900 2550 50  0001 C CNN "LCSC"
	1    5900 2550
	0    1    1    0   
$EndComp
$Comp
L Device:R R20
U 1 1 602351F2
P 5900 2850
F 0 "R20" V 5800 2850 50  0000 C CNN
F 1 "DNI" V 5900 2850 50  0000 C CNN
F 2 "Resistor_SMD:R_0402_1005Metric_Pad0.72x0.64mm_HandSolder" V 5830 2850 50  0001 C CNN
F 3 "~" H 5900 2850 50  0001 C CNN
F 4 "0402" V 6000 2850 50  0001 C CNN "Package"
F 5 "0402WGF0000TCE" V 5900 2850 50  0001 C CNN "MPN"
F 6 "C17168" V 5900 2850 50  0001 C CNN "LCSC"
	1    5900 2850
	0    1    1    0   
$EndComp
$Comp
L Device:CP C2
U 1 1 605234EC
P 6650 7800
F 0 "C2" H 6550 7900 50  0000 R CNN
F 1 "22u" H 6550 7800 50  0000 R CNN
F 2 "Capacitor_Tantalum_SMD:CP_EIA-3528-15_AVX-H" H 6688 7650 50  0001 C CNN
F 3 "~" H 6650 7800 50  0001 C CNN
F 4 "3528" H 6550 7700 50  0000 R CNN "Package"
F 5 "TAJB226K016RNJ" H 6650 7800 50  0001 C CNN "MPN"
F 6 "C8020" H 6650 7800 50  0001 C CNN "LCSC"
	1    6650 7800
	1    0    0    -1  
$EndComp
$EndSCHEMATC
