(export (version D)
  (design
    (source C:\Users\jonathanp\Documents\SiTime\HW\Sundial\pcb_designs\board\sundial_adapter.sch)
    (date "2/12/2021 1:59:53 PM")
    (tool "Eeschema (5.1.9)-1")
    (sheet (number 1) (name /) (tstamps /)
      (title_block
        (title)
        (company)
        (rev)
        (date)
        (source sundial_adapter.sch)
        (comment (number 1) (value ""))
        (comment (number 2) (value ""))
        (comment (number 3) (value ""))
        (comment (number 4) (value "")))))
  (components
    (comp (ref Q1)
      (value Q_NMOS_GSD)
      (footprint Package_TO_SOT_SMD:SOT-323_SC-70)
      (datasheet ~)
      (fields
        (field (name LCSC) C397976)
        (field (name MPN) DMN3150LW-7))
      (libsource (lib Device) (part Q_NMOS_GSD) (description "N-MOSFET transistor, gate/source/drain"))
      (sheetpath (names /) (tstamps /))
      (tstamp 63A2FB53))
    (comp (ref D1)
      (value LED)
      (footprint LED_SMD:LED_0603_1608Metric_Pad1.05x0.95mm_HandSolder)
      (datasheet ~)
      (fields
        (field (name LCSC) C72043)
        (field (name MPN) 19-217/GHC-YR1S2/3T)
        (field (name Package) 0603))
      (libsource (lib Device) (part LED) (description "Light emitting diode"))
      (sheetpath (names /) (tstamps /))
      (tstamp 63A7CB43))
    (comp (ref R2)
      (value 1k)
      (footprint Resistor_SMD:R_0402_1005Metric_Pad0.72x0.64mm_HandSolder)
      (datasheet ~)
      (fields
        (field (name LCSC) C11702)
        (field (name MPN) 0402WGF1001TCE)
        (field (name Package) 0402))
      (libsource (lib Device) (part R) (description Resistor))
      (sheetpath (names /) (tstamps /))
      (tstamp 63AC8F53))
    (comp (ref H1)
      (value MountingHole)
      (footprint MountingHole:MountingHole_4.3mm_M4_Pad)
      (datasheet ~)
      (libsource (lib Mechanical) (part MountingHole) (description "Mounting Hole without connection"))
      (sheetpath (names /) (tstamps /))
      (tstamp 5FD74EBF))
    (comp (ref Q2)
      (value Q_NMOS_GSD)
      (footprint Package_TO_SOT_SMD:SOT-323_SC-70)
      (datasheet ~)
      (fields
        (field (name LCSC) C397976)
        (field (name MPN) DMN3150LW-7))
      (libsource (lib Device) (part Q_NMOS_GSD) (description "N-MOSFET transistor, gate/source/drain"))
      (sheetpath (names /) (tstamps /))
      (tstamp 60045ADF))
    (comp (ref D2)
      (value LED)
      (footprint LED_SMD:LED_0603_1608Metric_Pad1.05x0.95mm_HandSolder)
      (datasheet ~)
      (fields
        (field (name LCSC) C72043)
        (field (name MPN) 19-217/GHC-YR1S2/3T)
        (field (name Package) 0603))
      (libsource (lib Device) (part LED) (description "Light emitting diode"))
      (sheetpath (names /) (tstamps /))
      (tstamp 60045AE5))
    (comp (ref R3)
      (value 1k)
      (footprint Resistor_SMD:R_0402_1005Metric_Pad0.72x0.64mm_HandSolder)
      (datasheet ~)
      (fields
        (field (name LCSC) C11702)
        (field (name MPN) 0402WGF1001TCE)
        (field (name Package) 0402))
      (libsource (lib Device) (part R) (description Resistor))
      (sheetpath (names /) (tstamps /))
      (tstamp 60045AF3))
    (comp (ref R1)
      (value 10)
      (footprint Resistor_SMD:R_0402_1005Metric_Pad0.72x0.64mm_HandSolder)
      (datasheet ~)
      (fields
        (field (name MPN) 0402WGF100JTCE)
        (field (name Package) 0402))
      (libsource (lib Device) (part R) (description Resistor))
      (sheetpath (names /) (tstamps /))
      (tstamp 60E19E46))
    (comp (ref J2)
      (value MECF-08-01-L-DV_02x08)
      (footprint Connector_PCBEdge:Samtec_MECF-08-01-L-DV-WT_2x08_P1.27mm_Polarized_Socket_Horizontal)
      (libsource (lib Sundial) (part MECF-08-01-L-DV_02x08) (description ""))
      (sheetpath (names /) (tstamps /))
      (tstamp 61CB2A5B))
    (comp (ref J1)
      (value Conn_Coaxial)
      (footprint Connector_Coaxial:SMA_Amphenol_132134-16_Vertical)
      (datasheet " ~")
      (libsource (lib Connector) (part Conn_Coaxial) (description "coaxial connector (BNC, SMA, SMB, SMC, Cinch/RCA, ...)"))
      (sheetpath (names /) (tstamps /))
      (tstamp 620CFBD1))
    (comp (ref U1)
      (value 74LVC1G126)
      (footprint Package_TO_SOT_SMD:SOT-353_SC-70-5)
      (fields
        (field (name LCSC) C88039)
        (field (name MPN) SN74LVC1G126DCKR)
        (field (name Package) SC-70-5))
      (libsource (lib Sundial) (part 74x1G126) (description ""))
      (sheetpath (names /) (tstamps /))
      (tstamp 62297A7E))
    (comp (ref C1)
      (value 0.1u)
      (footprint Capacitor_SMD:C_0402_1005Metric_Pad0.74x0.62mm_HandSolder)
      (datasheet ~)
      (fields
        (field (name LCSC) C1525)
        (field (name MPN) CL05B104KO5NNNC)
        (field (name Package) 0402))
      (libsource (lib Device) (part C) (description "Unpolarized capacitor"))
      (sheetpath (names /) (tstamps /))
      (tstamp 6237C2DE))
    (comp (ref R7)
      (value 10k)
      (footprint Resistor_SMD:R_0402_1005Metric_Pad0.72x0.64mm_HandSolder)
      (datasheet ~)
      (fields
        (field (name LCSC) C25744)
        (field (name MPN) 0402WGF1002TCE)
        (field (name Package) 0402))
      (libsource (lib Device) (part R) (description Resistor))
      (sheetpath (names /) (tstamps /))
      (tstamp 61BEFF62))
    (comp (ref C10)
      (value 10n)
      (footprint Capacitor_SMD:C_0402_1005Metric_Pad0.74x0.62mm_HandSolder)
      (datasheet ~)
      (fields
        (field (name LCSC) C15195)
        (field (name MPN) CL05B103KB5NNNC)
        (field (name Package) 0402))
      (libsource (lib Device) (part C) (description "Unpolarized capacitor"))
      (sheetpath (names /) (tstamps /))
      (tstamp 61AB0FF5))
    (comp (ref U7)
      (value MIC5219YM5)
      (footprint Package_TO_SOT_SMD:SOT-23-5)
      (fields
        (field (name LCSC) C29613)
        (field (name MPN) MIC5219-3.3YM5)
        (field (name Package) SOT-23-5))
      (libsource (lib Sundial) (part MIC5219YM5) (description ""))
      (sheetpath (names /) (tstamps /))
      (tstamp 6199C7BD))
    (comp (ref R12)
      (value 1k)
      (footprint Resistor_SMD:R_0402_1005Metric_Pad0.72x0.64mm_HandSolder)
      (datasheet ~)
      (fields
        (field (name LCSC) C11702)
        (field (name MPN) 0402WGF1001TCE)
        (field (name Package) 0402))
      (libsource (lib Device) (part R) (description Resistor))
      (sheetpath (names /) (tstamps /))
      (tstamp 63D31B08))
    (comp (ref D4)
      (value LED)
      (footprint LED_SMD:LED_0603_1608Metric_Pad1.05x0.95mm_HandSolder)
      (datasheet ~)
      (fields
        (field (name LCSC) C72043)
        (field (name MPN) 19-217/GHC-YR1S2/3T)
        (field (name Package) 0603))
      (libsource (lib Device) (part LED) (description "Light emitting diode"))
      (sheetpath (names /) (tstamps /))
      (tstamp 63D31AF4))
    (comp (ref Q4)
      (value Q_NMOS_GSD)
      (footprint Package_TO_SOT_SMD:SOT-323_SC-70)
      (datasheet ~)
      (fields
        (field (name LCSC) C397976)
        (field (name MPN) DMN3150LW-7))
      (libsource (lib Device) (part Q_NMOS_GSD) (description "N-MOSFET transistor, gate/source/drain"))
      (sheetpath (names /) (tstamps /))
      (tstamp 63D31AEE))
    (comp (ref R13)
      (value 1k)
      (footprint Resistor_SMD:R_0402_1005Metric_Pad0.72x0.64mm_HandSolder)
      (datasheet ~)
      (fields
        (field (name LCSC) C11702)
        (field (name MPN) 0402WGF1001TCE)
        (field (name Package) 0402))
      (libsource (lib Device) (part R) (description Resistor))
      (sheetpath (names /) (tstamps /))
      (tstamp 63CE11B6))
    (comp (ref D5)
      (value LED)
      (footprint LED_SMD:LED_0603_1608Metric_Pad1.05x0.95mm_HandSolder)
      (datasheet ~)
      (fields
        (field (name LCSC) C72043)
        (field (name MPN) 19-217/GHC-YR1S2/3T)
        (field (name Package) 0603))
      (libsource (lib Device) (part LED) (description "Light emitting diode"))
      (sheetpath (names /) (tstamps /))
      (tstamp 63CE11A2))
    (comp (ref Q5)
      (value Q_NMOS_GSD)
      (footprint Package_TO_SOT_SMD:SOT-323_SC-70)
      (datasheet ~)
      (fields
        (field (name LCSC) C397976)
        (field (name MPN) DMN3150LW-7))
      (libsource (lib Device) (part Q_NMOS_GSD) (description "N-MOSFET transistor, gate/source/drain"))
      (sheetpath (names /) (tstamps /))
      (tstamp 63CE119C))
    (comp (ref C4)
      (value 1u)
      (footprint Capacitor_SMD:C_0603_1608Metric_Pad1.05x0.95mm_HandSolder)
      (datasheet ~)
      (fields
        (field (name LCSC) C15849)
        (field (name MPN) CL10A105KB8NNNC)
        (field (name Package) 0603))
      (libsource (lib Device) (part C) (description "Unpolarized capacitor"))
      (sheetpath (names /) (tstamps /))
      (tstamp 60523524))
    (comp (ref C11)
      (value 2.2u)
      (footprint Capacitor_SMD:C_0805_2012Metric_Pad1.15x1.40mm_HandSolder)
      (datasheet ~)
      (fields
        (field (name LCSC) C49217)
        (field (name MPN) 0805F225M500NT)
        (field (name Package) 0805))
      (libsource (lib Device) (part C) (description "Unpolarized capacitor"))
      (sheetpath (names /) (tstamps /))
      (tstamp 6052350D))
    (comp (ref C2)
      (value 22u)
      (footprint Capacitor_Tantalum_SMD:CP_EIA-3528-15_AVX-H)
      (datasheet ~)
      (fields
        (field (name LCSC) C8020)
        (field (name Package) 3528))
      (libsource (lib Device) (part CP) (description "Polarized capacitor"))
      (sheetpath (names /) (tstamps /))
      (tstamp 605234EC))
    (comp (ref C9)
      (value 0.1u)
      (footprint Capacitor_SMD:C_0402_1005Metric_Pad0.74x0.62mm_HandSolder)
      (datasheet ~)
      (fields
        (field (name LCSC) C1525)
        (field (name MPN) CL05B104KO5NNNC)
        (field (name Package) 0402))
      (libsource (lib Device) (part C) (description "Unpolarized capacitor"))
      (sheetpath (names /) (tstamps /))
      (tstamp 6070DA01))
    (comp (ref X1)
      (value SIT1630)
      (footprint Package_TO_SOT_SMD:SOT-23-5)
      (datasheet https://support.epson.biz/td/api/doc_check.php?mode=dl&lang=en&Parts=SG-3030CM)
      (libsource (lib Sundial) (part SIT1630) (description ""))
      (sheetpath (names /) (tstamps /))
      (tstamp 6070BCC3))
    (comp (ref C18)
      (value 1u)
      (footprint Capacitor_SMD:C_0603_1608Metric_Pad1.05x0.95mm_HandSolder)
      (datasheet ~)
      (fields
        (field (name LCSC) C15849)
        (field (name MPN) CL10A105KB8NNNC)
        (field (name Package) 0603))
      (libsource (lib Device) (part C) (description "Unpolarized capacitor"))
      (sheetpath (names /) (tstamps /))
      (tstamp 5F4BB5C6))
    (comp (ref C17)
      (value 1u)
      (footprint Capacitor_SMD:C_0603_1608Metric_Pad1.05x0.95mm_HandSolder)
      (datasheet ~)
      (fields
        (field (name LCSC) C15849)
        (field (name MPN) CL10A105KB8NNNC)
        (field (name Package) 0603))
      (libsource (lib Device) (part C) (description "Unpolarized capacitor"))
      (sheetpath (names /) (tstamps /))
      (tstamp 5F4B6B6E))
    (comp (ref C21)
      (value 1u)
      (footprint Capacitor_SMD:C_0603_1608Metric_Pad1.05x0.95mm_HandSolder)
      (datasheet ~)
      (fields
        (field (name LCSC) C15849)
        (field (name MPN) CL10A105KB8NNNC)
        (field (name Package) 0603))
      (libsource (lib Device) (part C) (description "Unpolarized capacitor"))
      (sheetpath (names /) (tstamps /))
      (tstamp 5F4A2A0B))
    (comp (ref C24)
      (value 0.1u)
      (footprint Capacitor_SMD:C_0402_1005Metric_Pad0.74x0.62mm_HandSolder)
      (datasheet ~)
      (fields
        (field (name LCSC) C1525)
        (field (name MPN) CL05B104KO5NNNC)
        (field (name Package) 0402))
      (libsource (lib Device) (part C) (description "Unpolarized capacitor"))
      (sheetpath (names /) (tstamps /))
      (tstamp 5F499D65))
    (comp (ref C23)
      (value 0.1u)
      (footprint Capacitor_SMD:C_0402_1005Metric_Pad0.74x0.62mm_HandSolder)
      (datasheet ~)
      (fields
        (field (name LCSC) C1525)
        (field (name MPN) CL05B104KO5NNNC)
        (field (name Package) 0402))
      (libsource (lib Device) (part C) (description "Unpolarized capacitor"))
      (sheetpath (names /) (tstamps /))
      (tstamp 5F498475))
    (comp (ref C16)
      (value 0.1u)
      (footprint Capacitor_SMD:C_0402_1005Metric_Pad0.74x0.62mm_HandSolder)
      (datasheet ~)
      (fields
        (field (name LCSC) C1525)
        (field (name MPN) CL05B104KO5NNNC)
        (field (name Package) 0402))
      (libsource (lib Device) (part C) (description "Unpolarized capacitor"))
      (sheetpath (names /) (tstamps /))
      (tstamp 5F4955A1))
    (comp (ref C15)
      (value 0.1u)
      (footprint Capacitor_SMD:C_0402_1005Metric_Pad0.74x0.62mm_HandSolder)
      (datasheet ~)
      (fields
        (field (name LCSC) C1525)
        (field (name MPN) CL05B104KO5NNNC)
        (field (name Package) 0402))
      (libsource (lib Device) (part C) (description "Unpolarized capacitor"))
      (sheetpath (names /) (tstamps /))
      (tstamp 5F493F7A))
    (comp (ref C14)
      (value 0.1u)
      (footprint Capacitor_SMD:C_0402_1005Metric_Pad0.74x0.62mm_HandSolder)
      (datasheet ~)
      (fields
        (field (name LCSC) C1525)
        (field (name MPN) CL05B104KO5NNNC)
        (field (name Package) 0402))
      (libsource (lib Device) (part C) (description "Unpolarized capacitor"))
      (sheetpath (names /) (tstamps /))
      (tstamp 5F4926D4))
    (comp (ref C13)
      (value 0.1u)
      (footprint Capacitor_SMD:C_0402_1005Metric_Pad0.74x0.62mm_HandSolder)
      (datasheet ~)
      (fields
        (field (name LCSC) C1525)
        (field (name MPN) CL05B104KO5NNNC)
        (field (name Package) 0402))
      (libsource (lib Device) (part C) (description "Unpolarized capacitor"))
      (sheetpath (names /) (tstamps /))
      (tstamp 5F49165C))
    (comp (ref C12)
      (value 0.1u)
      (footprint Capacitor_SMD:C_0402_1005Metric_Pad0.74x0.62mm_HandSolder)
      (datasheet ~)
      (fields
        (field (name LCSC) C1525)
        (field (name MPN) CL05B104KO5NNNC)
        (field (name Package) 0402))
      (libsource (lib Device) (part C) (description "Unpolarized capacitor"))
      (sheetpath (names /) (tstamps /))
      (tstamp 5F48E897))
    (comp (ref U10)
      (value CY8C5866LTI-LP022)
      (footprint Package_DFN_QFN:QFN-68-1EP_8x8mm_P0.4mm_EP5.2x5.2mm)
      (libsource (lib Sundial) (part CY8C5866LTI-LP022) (description ""))
      (sheetpath (names /) (tstamps /))
      (tstamp 5F458528))
    (comp (ref C8)
      (value 0.1u)
      (footprint Capacitor_SMD:C_0402_1005Metric_Pad0.74x0.62mm_HandSolder)
      (datasheet ~)
      (fields
        (field (name LCSC) C1525)
        (field (name MPN) CL05B104KO5NNNC)
        (field (name Package) 0402))
      (libsource (lib Device) (part C) (description "Unpolarized capacitor"))
      (sheetpath (names /) (tstamps /))
      (tstamp 64A73116))
    (comp (ref U6)
      (value 74x1G79)
      (footprint Package_TO_SOT_SMD:SOT-353_SC-70-5)
      (fields
        (field (name LCSC) C42878)
        (field (name MPN) SN74LVC1G79DBVR)
        (field (name Package) SC-70-5))
      (libsource (lib Sundial) (part 74x1G79) (description ""))
      (sheetpath (names /) (tstamps /))
      (tstamp 60670B7C))
    (comp (ref U11)
      (value 74LVC1G3157)
      (footprint Package_TO_SOT_SMD:SOT-363_SC-70-6)
      (fields
        (field (name LCSC) C38663)
        (field (name MPN) SN74LVC1G3157DCKR)
        (field (name Package) SC-70-6))
      (libsource (lib Sundial) (part 74LVC1G3157) (description ""))
      (sheetpath (names /) (tstamps /))
      (tstamp 600C8BBE))
    (comp (ref U3)
      (value 4017)
      (footprint Package_SO:TSSOP-16_4.4x5mm_P0.65mm)
      (datasheet http://www.intersil.com/content/dam/Intersil/documents/cd40/cd4017bms-22bms.pdf)
      (fields
        (field (name Package) TSSOP-16))
      (libsource (lib 4xxx) (part 4017) (description "Johnson Counter ( 10 outputs )"))
      (sheetpath (names /) (tstamps /))
      (tstamp 644FFDAE))
    (comp (ref C5)
      (value 0.1u)
      (footprint Capacitor_SMD:C_0402_1005Metric_Pad0.74x0.62mm_HandSolder)
      (datasheet ~)
      (fields
        (field (name LCSC) C1525)
        (field (name MPN) CL05B104KO5NNNC)
        (field (name Package) 0402))
      (libsource (lib Device) (part C) (description "Unpolarized capacitor"))
      (sheetpath (names /) (tstamps /))
      (tstamp 64624837))
    (comp (ref C6)
      (value 0.1u)
      (footprint Capacitor_SMD:C_0402_1005Metric_Pad0.74x0.62mm_HandSolder)
      (datasheet ~)
      (fields
        (field (name LCSC) C1525)
        (field (name MPN) CL05B104KO5NNNC)
        (field (name Package) 0402))
      (libsource (lib Device) (part C) (description "Unpolarized capacitor"))
      (sheetpath (names /) (tstamps /))
      (tstamp 63B3E5CD))
    (comp (ref U4)
      (value 74LVC1G126)
      (footprint Package_TO_SOT_SMD:SOT-353_SC-70-5)
      (fields
        (field (name LCSC) C88039)
        (field (name MPN) SN74LVC1G126DCKR)
        (field (name Package) SC-70-5))
      (libsource (lib Sundial) (part 74x1G126) (description ""))
      (sheetpath (names /) (tstamps /))
      (tstamp 63B3E5C4))
    (comp (ref R6)
      (value 0)
      (footprint Resistor_SMD:R_0402_1005Metric_Pad0.72x0.64mm_HandSolder)
      (datasheet ~)
      (fields
        (field (name LCSC) C17168)
        (field (name MPN) 0402WGF0000TCE)
        (field (name Package) 0402))
      (libsource (lib Device) (part R) (description Resistor))
      (sheetpath (names /) (tstamps /))
      (tstamp 62E88B2C))
    (comp (ref R5)
      (value 0)
      (footprint Resistor_SMD:R_0402_1005Metric_Pad0.72x0.64mm_HandSolder)
      (datasheet ~)
      (fields
        (field (name LCSC) C17168)
        (field (name MPN) 0402WGF0000TCE)
        (field (name Package) 0402))
      (libsource (lib Device) (part R) (description Resistor))
      (sheetpath (names /) (tstamps /))
      (tstamp 62E5A13E))
    (comp (ref C3)
      (value 0.1u)
      (footprint Capacitor_SMD:C_0402_1005Metric_Pad0.74x0.62mm_HandSolder)
      (datasheet ~)
      (fields
        (field (name LCSC) C1525)
        (field (name MPN) CL05B104KO5NNNC)
        (field (name Package) 0402))
      (libsource (lib Device) (part C) (description "Unpolarized capacitor"))
      (sheetpath (names /) (tstamps /))
      (tstamp 6186F14F))
    (comp (ref R9)
      (value 1k)
      (footprint Resistor_SMD:R_0402_1005Metric_Pad0.72x0.64mm_HandSolder)
      (datasheet ~)
      (fields
        (field (name LCSC) C11702)
        (field (name MPN) 0402WGF1001TCE)
        (field (name Package) 0402))
      (libsource (lib Device) (part R) (description Resistor))
      (sheetpath (names /) (tstamps /))
      (tstamp 61466139))
    (comp (ref D3)
      (value LED)
      (footprint LED_SMD:LED_0603_1608Metric_Pad1.05x0.95mm_HandSolder)
      (datasheet ~)
      (fields
        (field (name LCSC) C72043)
        (field (name MPN) 19-217/GHC-YR1S2/3T)
        (field (name Package) 0603))
      (libsource (lib Device) (part LED) (description "Light emitting diode"))
      (sheetpath (names /) (tstamps /))
      (tstamp 6146612B))
    (comp (ref Q3)
      (value Q_NMOS_GSD)
      (footprint Package_TO_SOT_SMD:SOT-323_SC-70)
      (datasheet ~)
      (fields
        (field (name LCSC) C397976)
        (field (name MPN) DMN3150LW-7))
      (libsource (lib Device) (part Q_NMOS_GSD) (description "N-MOSFET transistor, gate/source/drain"))
      (sheetpath (names /) (tstamps /))
      (tstamp 61466125))
    (comp (ref R4)
      (value 10)
      (footprint Resistor_SMD:R_0402_1005Metric_Pad0.72x0.64mm_HandSolder)
      (datasheet ~)
      (fields
        (field (name LCSC) C25077)
        (field (name MPN) 0402WGF100JTCE)
        (field (name Package) 0402))
      (libsource (lib Device) (part R) (description Resistor))
      (sheetpath (names /) (tstamps /))
      (tstamp 609B6291))
    (comp (ref U2)
      (value 74AUP1G74)
      (footprint Package_SO:VSSOP-8_2.3x2mm_P0.5mm)
      (datasheet http://www.ti.com/lit/sg/scyt129e/scyt129e.pdf)
      (fields
        (field (name LCSC) C70285)
        (field (name MPN) SN74LVC1G74DCUR)
        (field (name Package) VSSOP-8))
      (libsource (lib 74xGxx) (part 74AUP1G74) (description "Single D Flip-Flop, Low-Voltage CMOS"))
      (sheetpath (names /) (tstamps /))
      (tstamp 60969320))
    (comp (ref R8)
      (value 10)
      (footprint Resistor_SMD:R_0402_1005Metric_Pad0.72x0.64mm_HandSolder)
      (datasheet ~)
      (fields
        (field (name LCSC) C25077)
        (field (name MPN) 0402WGF100JTCE)
        (field (name Package) 0402))
      (libsource (lib Device) (part R) (description Resistor))
      (sheetpath (names /) (tstamps /))
      (tstamp 607E1EAA))
    (comp (ref C7)
      (value 0.1u)
      (footprint Capacitor_SMD:C_0402_1005Metric_Pad0.74x0.62mm_HandSolder)
      (datasheet ~)
      (fields
        (field (name LCSC) C1525)
        (field (name MPN) CL05B104KO5NNNC)
        (field (name Package) 0402))
      (libsource (lib Device) (part C) (description "Unpolarized capacitor"))
      (sheetpath (names /) (tstamps /))
      (tstamp 606F6332))
    (comp (ref U5)
      (value 74HCT164)
      (footprint Package_SO:TSSOP-14_4.4x5mm_P0.65mm)
      (datasheet https://assets.nexperia.com/documents/data-sheet/74HC_HCT164.pdf)
      (fields
        (field (name LCSC) C192259)
        (field (name Package) TSSOP-14))
      (libsource (lib 74xx) (part 74HCT164) (description "8-bit serial-in parallel-out shift register"))
      (sheetpath (names /) (tstamps /))
      (tstamp 6065F156))
    (comp (ref R14)
      (value 1k)
      (footprint Resistor_SMD:R_0402_1005Metric_Pad0.72x0.64mm_HandSolder)
      (datasheet ~)
      (fields
        (field (name LCSC) C11702)
        (field (name MPN) 0402WGF1001TCE)
        (field (name Package) 0402))
      (libsource (lib Device) (part R) (description Resistor))
      (sheetpath (names /) (tstamps /))
      (tstamp 614CC627))
    (comp (ref D6)
      (value LED)
      (footprint LED_SMD:LED_0603_1608Metric_Pad1.05x0.95mm_HandSolder)
      (datasheet ~)
      (fields
        (field (name LCSC) C72043)
        (field (name MPN) 19-217/GHC-YR1S2/3T)
        (field (name Package) 0603))
      (libsource (lib Device) (part LED) (description "Light emitting diode"))
      (sheetpath (names /) (tstamps /))
      (tstamp 614CC619))
    (comp (ref Q6)
      (value Q_NMOS_GSD)
      (footprint Package_TO_SOT_SMD:SOT-323_SC-70)
      (datasheet ~)
      (fields
        (field (name LCSC) C397976)
        (field (name MPN) DMN3150LW-7))
      (libsource (lib Device) (part Q_NMOS_GSD) (description "N-MOSFET transistor, gate/source/drain"))
      (sheetpath (names /) (tstamps /))
      (tstamp 614CC613))
    (comp (ref U8)
      (value Elite_5032_10L_SPI)
      (footprint Sundial:Elite_TCXO_Ceramic_5032)
      (libsource (lib Sundial) (part Elite_5032_10L_SPI) (description ""))
      (sheetpath (names /) (tstamps /))
      (tstamp 60507004))
    (comp (ref C19)
      (value 0.1u)
      (footprint Capacitor_SMD:C_0402_1005Metric_Pad0.74x0.62mm_HandSolder)
      (datasheet ~)
      (fields
        (field (name LCSC) C1525)
        (field (name MPN) CL05B104KO5NNNC)
        (field (name Package) 0402))
      (libsource (lib Device) (part C) (description "Unpolarized capacitor"))
      (sheetpath (names /) (tstamps /))
      (tstamp 6189B124))
    (comp (ref C20)
      (value 0.1u)
      (footprint Capacitor_SMD:C_0402_1005Metric_Pad0.74x0.62mm_HandSolder)
      (datasheet ~)
      (fields
        (field (name LCSC) C1525)
        (field (name MPN) CL05B104KO5NNNC)
        (field (name Package) 0402))
      (libsource (lib Device) (part C) (description "Unpolarized capacitor"))
      (sheetpath (names /) (tstamps /))
      (tstamp 5F48B355))
    (comp (ref R11)
      (value 10k)
      (footprint Resistor_SMD:R_0402_1005Metric_Pad0.72x0.64mm_HandSolder)
      (datasheet ~)
      (fields
        (field (name LCSC) C25744)
        (field (name MPN) 0402WGF1002TCE)
        (field (name Package) 0402))
      (libsource (lib Device) (part R) (description Resistor))
      (sheetpath (names /) (tstamps /))
      (tstamp 5FD0CFA3))
    (comp (ref R10)
      (value 10k)
      (footprint Resistor_SMD:R_0402_1005Metric_Pad0.72x0.64mm_HandSolder)
      (datasheet ~)
      (fields
        (field (name LCSC) C25744)
        (field (name MPN) 0402WGF1002TCE)
        (field (name Package) 0402))
      (libsource (lib Device) (part R) (description Resistor))
      (sheetpath (names /) (tstamps /))
      (tstamp 5F485F6C))
    (comp (ref C22)
      (value 1u)
      (footprint Capacitor_SMD:C_0603_1608Metric_Pad1.05x0.95mm_HandSolder)
      (datasheet ~)
      (fields
        (field (name LCSC) C15849)
        (field (name MPN) CL10A105KB8NNNC)
        (field (name Package) 0603))
      (libsource (lib Device) (part C) (description "Unpolarized capacitor"))
      (sheetpath (names /) (tstamps /))
      (tstamp 5F483C36))
    (comp (ref U9)
      (value TDC7200PW)
      (footprint Package_SO:TSSOP-14_4.4x5mm_P0.65mm)
      (datasheet http://www.ti.com/lit/ds/symlink/tdc7200.pdf)
      (fields
        (field (name Package) TSSOP-14))
      (libsource (lib Sundial) (part TDC7200PW) (description ""))
      (sheetpath (names /) (tstamps /))
      (tstamp 5F457643))
    (comp (ref J6)
      (value Conn_01x02)
      (footprint Connector_Molex:Molex_KK-254_AE-6410-02A_1x02_P2.54mm_Vertical)
      (datasheet ~)
      (libsource (lib Connector_Generic) (part Conn_01x02) (description "Generic connector, single row, 01x02, script generated (kicad-library-utils/schlib/autogen/connector/)"))
      (sheetpath (names /) (tstamps /))
      (tstamp 6218AB39))
    (comp (ref J3)
      (value Conn_01x02)
      (footprint Connector_Molex:Molex_KK-254_AE-6410-02A_1x02_P2.54mm_Vertical)
      (datasheet ~)
      (libsource (lib Connector_Generic) (part Conn_01x02) (description "Generic connector, single row, 01x02, script generated (kicad-library-utils/schlib/autogen/connector/)"))
      (sheetpath (names /) (tstamps /))
      (tstamp 6214C5EF))
    (comp (ref J5)
      (value Conn_01x05)
      (footprint Connector_Molex:Molex_KK-254_AE-6410-05A_1x05_P2.54mm_Vertical)
      (datasheet ~)
      (libsource (lib Connector_Generic) (part Conn_01x05) (description "Generic connector, single row, 01x05, script generated (kicad-library-utils/schlib/autogen/connector/)"))
      (sheetpath (names /) (tstamps /))
      (tstamp 62063E2C))
    (comp (ref J4)
      (value Conn_02x05_Odd_Even)
      (footprint Connector_PinHeader_2.54mm:PinHeader_2x05_P2.54mm_Vertical)
      (datasheet ~)
      (libsource (lib Connector_Generic) (part Conn_02x05_Odd_Even) (description "Generic connector, double row, 02x05, odd/even pin numbering scheme (row 1 odd numbers, row 2 even numbers), script generated (kicad-library-utils/schlib/autogen/connector/)"))
      (sheetpath (names /) (tstamps /))
      (tstamp 61F5AE38))
    (comp (ref C25)
      (value 0.1u)
      (footprint Capacitor_SMD:C_0402_1005Metric_Pad0.74x0.62mm_HandSolder)
      (datasheet ~)
      (fields
        (field (name LCSC) C1525)
        (field (name MPN) CL05B104KO5NNNC)
        (field (name Package) 0402))
      (libsource (lib Device) (part C) (description "Unpolarized capacitor"))
      (sheetpath (names /) (tstamps /))
      (tstamp 6033D82E))
    (comp (ref C26)
      (value 0.1u)
      (footprint Capacitor_SMD:C_0402_1005Metric_Pad0.74x0.62mm_HandSolder)
      (datasheet ~)
      (fields
        (field (name LCSC) C1525)
        (field (name MPN) CL05B104KO5NNNC)
        (field (name Package) 0402))
      (libsource (lib Device) (part C) (description "Unpolarized capacitor"))
      (sheetpath (names /) (tstamps /))
      (tstamp 60631C96))
    (comp (ref U12)
      (value 74LVC1G126)
      (footprint Package_TO_SOT_SMD:SOT-353_SC-70-5)
      (fields
        (field (name LCSC) C88039)
        (field (name MPN) SN74LVC1G126DCKR)
        (field (name Package) SC-70-5))
      (libsource (lib Sundial) (part 74x1G126) (description ""))
      (sheetpath (names /) (tstamps /))
      (tstamp 60631C9D))
    (comp (ref R15)
      (value 10)
      (footprint Resistor_SMD:R_0402_1005Metric_Pad0.72x0.64mm_HandSolder)
      (datasheet ~)
      (fields
        (field (name LCSC) C25077)
        (field (name MPN) 0402WGF100JTCE)
        (field (name Package) 0402))
      (libsource (lib Device) (part R) (description Resistor))
      (sheetpath (names /) (tstamps /))
      (tstamp 60631CA6))
    (comp (ref J7)
      (value Conn_Coaxial)
      (footprint Connector_Coaxial:SMA_Amphenol_132134-16_Vertical)
      (datasheet " ~")
      (libsource (lib Connector) (part Conn_Coaxial) (description "coaxial connector (BNC, SMA, SMB, SMC, Cinch/RCA, ...)"))
      (sheetpath (names /) (tstamps /))
      (tstamp 60663245))
    (comp (ref C27)
      (value 47u)
      (footprint Capacitor_Tantalum_SMD:CP_EIA-3528-15_AVX-H)
      (datasheet ~)
      (fields
        (field (name LCSC) C8020)
        (field (name Package) 3528))
      (libsource (lib Device) (part CP) (description "Polarized capacitor"))
      (sheetpath (names /) (tstamps /))
      (tstamp 606DF7FB))
    (comp (ref H2)
      (value MountingHole)
      (footprint MountingHole:MountingHole_4.3mm_M4_Pad)
      (datasheet ~)
      (libsource (lib Mechanical) (part MountingHole) (description "Mounting Hole without connection"))
      (sheetpath (names /) (tstamps /))
      (tstamp 6081120F))
    (comp (ref H3)
      (value MountingHole)
      (footprint MountingHole:MountingHole_4.3mm_M4_Pad)
      (datasheet ~)
      (libsource (lib Mechanical) (part MountingHole) (description "Mounting Hole without connection"))
      (sheetpath (names /) (tstamps /))
      (tstamp 608299A6))
    (comp (ref H4)
      (value MountingHole)
      (footprint MountingHole:MountingHole_4.3mm_M4_Pad)
      (datasheet ~)
      (libsource (lib Mechanical) (part MountingHole) (description "Mounting Hole without connection"))
      (sheetpath (names /) (tstamps /))
      (tstamp 608420C6))
    (comp (ref R16)
      (value 10)
      (footprint Resistor_SMD:R_0402_1005Metric_Pad0.72x0.64mm_HandSolder)
      (datasheet ~)
      (fields
        (field (name LCSC) C25077)
        (field (name MPN) 0402WGF100JTCE)
        (field (name Package) 0402))
      (libsource (lib Device) (part R) (description Resistor))
      (sheetpath (names /) (tstamps /))
      (tstamp 60991C00))
    (comp (ref R17)
      (value DNI)
      (footprint Resistor_SMD:R_0402_1005Metric_Pad0.72x0.64mm_HandSolder)
      (datasheet ~)
      (fields
        (field (name MPN) CRCW04023R92FKEDHP)
        (field (name Package) 0402))
      (libsource (lib Device) (part R) (description Resistor))
      (sheetpath (names /) (tstamps /))
      (tstamp 60A55351))
    (comp (ref R18)
      (value 0)
      (footprint Resistor_SMD:R_0402_1005Metric_Pad0.72x0.64mm_HandSolder)
      (datasheet ~)
      (fields
        (field (name LCSC) C17168)
        (field (name MPN) 0402WGF0000TCE)
        (field (name Package) 0402))
      (libsource (lib Device) (part R) (description Resistor))
      (sheetpath (names /) (tstamps /))
      (tstamp 6019D71C))
    (comp (ref R19)
      (value 0)
      (footprint Resistor_SMD:R_0402_1005Metric_Pad0.72x0.64mm_HandSolder)
      (datasheet ~)
      (fields
        (field (name LCSC) C17168)
        (field (name MPN) 0402WGF0000TCE)
        (field (name Package) 0402))
      (libsource (lib Device) (part R) (description Resistor))
      (sheetpath (names /) (tstamps /))
      (tstamp 601E8DA6))
    (comp (ref R20)
      (value DNI)
      (footprint Resistor_SMD:R_0402_1005Metric_Pad0.72x0.64mm_HandSolder)
      (datasheet ~)
      (fields
        (field (name Package) 0402))
      (libsource (lib Device) (part R) (description Resistor))
      (sheetpath (names /) (tstamps /))
      (tstamp 602351F2))
    (comp (ref R21)
      (value DNI)
      (footprint Resistor_SMD:R_0402_1005Metric_Pad0.72x0.64mm_HandSolder)
      (datasheet ~)
      (fields
        (field (name Package) 0402))
      (libsource (lib Device) (part R) (description Resistor))
      (sheetpath (names /) (tstamps /))
      (tstamp 602686FA))
    (comp (ref J8)
      (value Conn_Coaxial)
      (footprint Connector_Coaxial:SMA_Amphenol_132134-16_Vertical)
      (datasheet " ~")
      (libsource (lib Connector) (part Conn_Coaxial) (description "coaxial connector (BNC, SMA, SMB, SMC, Cinch/RCA, ...)"))
      (sheetpath (names /) (tstamps /))
      (tstamp 60757E83)))
  (libparts
    (libpart (lib 4xxx) (part 4017)
      (description "Johnson Counter ( 10 outputs )")
      (docs http://www.intersil.com/content/dam/Intersil/documents/cd40/cd4017bms-22bms.pdf)
      (footprints
        (fp DIP?16*))
      (fields
        (field (name Reference) U)
        (field (name Value) 4017))
      (pins
        (pin (num 1) (name Q5) (type output))
        (pin (num 2) (name Q1) (type output))
        (pin (num 3) (name Q0) (type output))
        (pin (num 4) (name Q2) (type output))
        (pin (num 5) (name Q6) (type output))
        (pin (num 6) (name Q7) (type output))
        (pin (num 7) (name Q3) (type output))
        (pin (num 8) (name VSS) (type power_in))
        (pin (num 9) (name Q8) (type output))
        (pin (num 10) (name Q4) (type output))
        (pin (num 11) (name Q9) (type output))
        (pin (num 12) (name Cout) (type output))
        (pin (num 13) (name CKEN) (type input))
        (pin (num 14) (name CLK) (type input))
        (pin (num 15) (name Reset) (type input))
        (pin (num 16) (name VDD) (type power_in))))
    (libpart (lib 74xGxx) (part 74AUC1G74)
      (aliases
        (alias 74AUP1G74))
      (description "Single D Flip-Flop, Low-Voltage CMOS")
      (docs http://www.ti.com/lit/sg/scyt129e/scyt129e.pdf)
      (footprints
        (fp SSOP*)
        (fp VSSOP*))
      (fields
        (field (name Reference) U)
        (field (name Value) 74AUC1G74))
      (pins
        (pin (num 1) (name C) (type input))
        (pin (num 2) (name D) (type input))
        (pin (num 3) (name ~Q) (type output))
        (pin (num 4) (name GND) (type power_in))
        (pin (num 5) (name Q) (type output))
        (pin (num 6) (name ~CLR) (type input))
        (pin (num 7) (name ~PRE) (type input))
        (pin (num 8) (name VCC) (type power_in))))
    (libpart (lib 74xx) (part 74HC164)
      (aliases
        (alias 74HCT164))
      (description "8-bit serial-in parallel-out shift register")
      (docs https://assets.nexperia.com/documents/data-sheet/74HC_HCT164.pdf)
      (footprints
        (fp SOIC*3.9x8.7*P1.27mm*)
        (fp ?SSOP*P0.65mm*)
        (fp DIP*W7.62mm*))
      (fields
        (field (name Reference) U)
        (field (name Value) 74HC164))
      (pins
        (pin (num 1) (name DSA) (type input))
        (pin (num 2) (name DSB) (type input))
        (pin (num 3) (name Q0) (type output))
        (pin (num 4) (name Q1) (type output))
        (pin (num 5) (name Q2) (type output))
        (pin (num 6) (name Q3) (type output))
        (pin (num 7) (name GND) (type power_in))
        (pin (num 8) (name CP) (type input))
        (pin (num 9) (name ~MR) (type input))
        (pin (num 10) (name Q4) (type output))
        (pin (num 11) (name Q5) (type output))
        (pin (num 12) (name Q6) (type output))
        (pin (num 13) (name Q7) (type output))
        (pin (num 14) (name VCC) (type power_in))))
    (libpart (lib Connector) (part Conn_Coaxial)
      (description "coaxial connector (BNC, SMA, SMB, SMC, Cinch/RCA, ...)")
      (docs " ~")
      (footprints
        (fp *BNC*)
        (fp *SMA*)
        (fp *SMB*)
        (fp *SMC*)
        (fp *Cinch*))
      (fields
        (field (name Reference) J)
        (field (name Value) Conn_Coaxial))
      (pins
        (pin (num 1) (name In) (type passive))
        (pin (num 2) (name Ext) (type passive))))
    (libpart (lib Connector_Generic) (part Conn_01x02)
      (description "Generic connector, single row, 01x02, script generated (kicad-library-utils/schlib/autogen/connector/)")
      (docs ~)
      (footprints
        (fp Connector*:*_1x??_*))
      (fields
        (field (name Reference) J)
        (field (name Value) Conn_01x02))
      (pins
        (pin (num 1) (name Pin_1) (type passive))
        (pin (num 2) (name Pin_2) (type passive))))
    (libpart (lib Connector_Generic) (part Conn_01x05)
      (description "Generic connector, single row, 01x05, script generated (kicad-library-utils/schlib/autogen/connector/)")
      (docs ~)
      (footprints
        (fp Connector*:*_1x??_*))
      (fields
        (field (name Reference) J)
        (field (name Value) Conn_01x05))
      (pins
        (pin (num 1) (name Pin_1) (type passive))
        (pin (num 2) (name Pin_2) (type passive))
        (pin (num 3) (name Pin_3) (type passive))
        (pin (num 4) (name Pin_4) (type passive))
        (pin (num 5) (name Pin_5) (type passive))))
    (libpart (lib Connector_Generic) (part Conn_02x05_Odd_Even)
      (description "Generic connector, double row, 02x05, odd/even pin numbering scheme (row 1 odd numbers, row 2 even numbers), script generated (kicad-library-utils/schlib/autogen/connector/)")
      (docs ~)
      (footprints
        (fp Connector*:*_2x??_*))
      (fields
        (field (name Reference) J)
        (field (name Value) Conn_02x05_Odd_Even))
      (pins
        (pin (num 1) (name Pin_1) (type passive))
        (pin (num 2) (name Pin_2) (type passive))
        (pin (num 3) (name Pin_3) (type passive))
        (pin (num 4) (name Pin_4) (type passive))
        (pin (num 5) (name Pin_5) (type passive))
        (pin (num 6) (name Pin_6) (type passive))
        (pin (num 7) (name Pin_7) (type passive))
        (pin (num 8) (name Pin_8) (type passive))
        (pin (num 9) (name Pin_9) (type passive))
        (pin (num 10) (name Pin_10) (type passive))))
    (libpart (lib Device) (part C)
      (description "Unpolarized capacitor")
      (docs ~)
      (footprints
        (fp C_*))
      (fields
        (field (name Reference) C)
        (field (name Value) C))
      (pins
        (pin (num 1) (name ~) (type passive))
        (pin (num 2) (name ~) (type passive))))
    (libpart (lib Device) (part CP)
      (description "Polarized capacitor")
      (docs ~)
      (footprints
        (fp CP_*))
      (fields
        (field (name Reference) C)
        (field (name Value) CP))
      (pins
        (pin (num 1) (name ~) (type passive))
        (pin (num 2) (name ~) (type passive))))
    (libpart (lib Device) (part LED)
      (description "Light emitting diode")
      (docs ~)
      (footprints
        (fp LED*)
        (fp LED_SMD:*)
        (fp LED_THT:*))
      (fields
        (field (name Reference) D)
        (field (name Value) LED))
      (pins
        (pin (num 1) (name K) (type passive))
        (pin (num 2) (name A) (type passive))))
    (libpart (lib Device) (part Q_NMOS_GSD)
      (description "N-MOSFET transistor, gate/source/drain")
      (docs ~)
      (fields
        (field (name Reference) Q)
        (field (name Value) Q_NMOS_GSD))
      (pins
        (pin (num 1) (name G) (type input))
        (pin (num 2) (name S) (type passive))
        (pin (num 3) (name D) (type passive))))
    (libpart (lib Device) (part R)
      (description Resistor)
      (docs ~)
      (footprints
        (fp R_*))
      (fields
        (field (name Reference) R)
        (field (name Value) R))
      (pins
        (pin (num 1) (name ~) (type passive))
        (pin (num 2) (name ~) (type passive))))
    (libpart (lib Mechanical) (part MountingHole)
      (description "Mounting Hole without connection")
      (docs ~)
      (footprints
        (fp MountingHole*))
      (fields
        (field (name Reference) H)
        (field (name Value) MountingHole)))
    (libpart (lib Sundial) (part 74LVC1G3157)
      (footprints
        (fp SOT*)
        (fp SC*))
      (fields
        (field (name Reference) U)
        (field (name Value) 74LVC1G3157))
      (pins
        (pin (num 1) (name ~) (type BiDi))
        (pin (num 2) (name ~) (type power_in))
        (pin (num 3) (name ~) (type BiDi))
        (pin (num 4) (name ~) (type BiDi))
        (pin (num 5) (name ~) (type passive))
        (pin (num 6) (name ~) (type input))
        (pin (num 7) (name ~) (type BiDi))))
    (libpart (lib Sundial) (part 74x1G126)
      (fields
        (field (name Reference) U)
        (field (name Value) 74x1G126))
      (pins
        (pin (num 1) (name OE) (type input))
        (pin (num 2) (name A) (type input))
        (pin (num 3) (name ~) (type passive))
        (pin (num 4) (name Y) (type output))
        (pin (num 5) (name ~) (type passive))))
    (libpart (lib Sundial) (part 74x1G79)
      (fields
        (field (name Reference) U)
        (field (name Value) 74x1G79))
      (pins
        (pin (num 1) (name D) (type input))
        (pin (num 2) (name C) (type input))
        (pin (num 3) (name ~) (type passive))
        (pin (num 4) (name Q) (type output))
        (pin (num 5) (name ~) (type passive))))
    (libpart (lib Sundial) (part CY8C5866LTI-LP022)
      (footprints
        (fp QFN-68)
        (fp QFN-68-M)
        (fp QFN-68-L))
      (fields
        (field (name Reference) U)
        (field (name Value) CY8C5866LTI-LP022)
        (field (name Footprint) Package_DFN_QFN:QFN-68-1EP_8x8mm_P0.4mm_EP5.2x5.2mm))
      (pins
        (pin (num 1) (name P26) (type BiDi))
        (pin (num 2) (name P27) (type BiDi))
        (pin (num 3) (name P124) (type BiDi))
        (pin (num 4) (name P125) (type BiDi))
        (pin (num 5) (name VSSB) (type power_in))
        (pin (num 6) (name IND) (type unspc))
        (pin (num 7) (name VBOOST) (type power_in))
        (pin (num 8) (name VBAT) (type power_in))
        (pin (num 9) (name VSSD) (type power_in))
        (pin (num 10) (name *XRES) (type input))
        (pin (num 11) (name P10) (type BiDi))
        (pin (num 12) (name P11) (type BiDi))
        (pin (num 13) (name P12) (type BiDi))
        (pin (num 14) (name P13) (type BiDi))
        (pin (num 15) (name P14) (type BiDi))
        (pin (num 16) (name P15) (type BiDi))
        (pin (num 17) (name VDDIO1) (type power_in))
        (pin (num 18) (name P16) (type BiDi))
        (pin (num 19) (name P17) (type BiDi))
        (pin (num 20) (name P126) (type BiDi))
        (pin (num 21) (name P127) (type BiDi))
        (pin (num 22) (name P156) (type BiDi))
        (pin (num 23) (name P157) (type BiDi))
        (pin (num 24) (name VDDD) (type power_in))
        (pin (num 25) (name VSSD) (type power_in))
        (pin (num 26) (name VCCD) (type power_in))
        (pin (num 27) (name P150) (type BiDi))
        (pin (num 28) (name P151) (type BiDi))
        (pin (num 29) (name P30) (type BiDi))
        (pin (num 30) (name P31) (type BiDi))
        (pin (num 31) (name P32) (type BiDi))
        (pin (num 32) (name P33) (type BiDi))
        (pin (num 33) (name P34) (type BiDi))
        (pin (num 34) (name P35) (type BiDi))
        (pin (num 35) (name VDDIO3) (type power_in))
        (pin (num 36) (name P36) (type BiDi))
        (pin (num 37) (name P37) (type BiDi))
        (pin (num 38) (name P120) (type BiDi))
        (pin (num 39) (name P121) (type BiDi))
        (pin (num 40) (name P152) (type BiDi))
        (pin (num 41) (name P153) (type BiDi))
        (pin (num 42) (name VCCA) (type power_in))
        (pin (num 43) (name VSSA) (type power_in))
        (pin (num 44) (name VDDA) (type power_in))
        (pin (num 45) (name VSSD) (type power_in))
        (pin (num 46) (name P122) (type BiDi))
        (pin (num 47) (name P123) (type BiDi))
        (pin (num 48) (name P00) (type BiDi))
        (pin (num 49) (name P01) (type BiDi))
        (pin (num 50) (name P02) (type BiDi))
        (pin (num 51) (name P03) (type BiDi))
        (pin (num 52) (name VDDIO0) (type power_in))
        (pin (num 53) (name P04) (type BiDi))
        (pin (num 54) (name P05) (type BiDi))
        (pin (num 55) (name P06) (type BiDi))
        (pin (num 56) (name P07) (type BiDi))
        (pin (num 57) (name VCCD) (type power_in))
        (pin (num 58) (name VSSD) (type power_in))
        (pin (num 59) (name VDDD) (type power_in))
        (pin (num 60) (name P154) (type BiDi))
        (pin (num 61) (name P155) (type BiDi))
        (pin (num 62) (name P20) (type BiDi))
        (pin (num 63) (name P21) (type BiDi))
        (pin (num 64) (name P22) (type BiDi))
        (pin (num 65) (name P23) (type BiDi))
        (pin (num 66) (name P24) (type BiDi))
        (pin (num 67) (name VDDIO2) (type power_in))
        (pin (num 68) (name P25) (type BiDi))
        (pin (num 69) (name 69) (type unspc))))
    (libpart (lib Sundial) (part Elite_5032_10L_SPI)
      (fields
        (field (name Reference) U)
        (field (name Value) Elite_5032_10L_SPI)
        (field (name Footprint) Sundial:Elite_TCXO_Ceramic_5032))
      (pins
        (pin (num 1) (name PROG) (type input))
        (pin (num 2) (name SCL) (type input))
        (pin (num 3) (name NC) (type passive))
        (pin (num 4) (name GND) (type power_in))
        (pin (num 5) (name MOSI) (type input))
        (pin (num 6) (name CLK) (type output))
        (pin (num 7) (name SS) (type input))
        (pin (num 8) (name NC) (type passive))
        (pin (num 9) (name VDD) (type power_in))
        (pin (num 10) (name MISO) (type output))))
    (libpart (lib Sundial) (part MECF-08-01-L-DV_02x08)
      (footprints
        (fp Connector*:*_2x??_*))
      (fields
        (field (name Reference) J)
        (field (name Value) MECF-08-01-L-DV_02x08))
      (pins
        (pin (num 1) (name Pin_1) (type passive))
        (pin (num 2) (name Pin_2) (type passive))
        (pin (num 3) (name Pin_3) (type passive))
        (pin (num 4) (name Pin_4) (type passive))
        (pin (num 7) (name Pin_7) (type passive))
        (pin (num 8) (name Pin_8) (type passive))
        (pin (num 9) (name Pin_9) (type passive))
        (pin (num 10) (name Pin_10) (type passive))
        (pin (num 11) (name Pin_11) (type passive))
        (pin (num 12) (name Pin_12) (type passive))
        (pin (num 13) (name Pin_13) (type passive))
        (pin (num 14) (name Pin_14) (type passive))
        (pin (num 15) (name Pin_15) (type passive))
        (pin (num 16) (name Pin_16) (type passive))))
    (libpart (lib Sundial) (part MIC5219YM5)
      (fields
        (field (name Reference) U)
        (field (name Value) MIC5219YM5))
      (pins
        (pin (num 1) (name VIN) (type power_in))
        (pin (num 2) (name GND) (type power_in))
        (pin (num 3) (name EN) (type input))
        (pin (num 4) (name BYP) (type input))
        (pin (num 5) (name VOUT) (type passive))))
    (libpart (lib Sundial) (part SIT1630)
      (footprints
        (fp Oscillator*SMD*SeikoEpson*SG3030CM*))
      (fields
        (field (name Reference) X)
        (field (name Value) SIT1630)
        (field (name Footprint) Oscillator:Oscillator_SMD_SeikoEpson_SG3030CM))
      (pins
        (pin (num 1) (name GND) (type power_in))
        (pin (num 4) (name Vcc) (type power_in))
        (pin (num 5) (name OUT) (type output))))
    (libpart (lib Sundial) (part TDC7200PW)
      (fields
        (field (name Reference) U)
        (field (name Value) TDC7200PW)
        (field (name Footprint) Package_SO:TSSOP-14_4.4x5mm_P0.65mm)
        (field (name Package) TSSOP-14))
      (pins
        (pin (num 1) (name EN) (type input))
        (pin (num 2) (name TRIG) (type input))
        (pin (num 3) (name START) (type input))
        (pin (num 4) (name STOP) (type input))
        (pin (num 5) (name CLK) (type input))
        (pin (num 6) (name NC) (type NotConnected))
        (pin (num 7) (name GND) (type power_in))
        (pin (num 8) (name INTB) (type input))
        (pin (num 9) (name DOUT) (type output))
        (pin (num 10) (name DIN) (type input))
        (pin (num 11) (name CSB) (type input))
        (pin (num 12) (name SCLK) (type input))
        (pin (num 13) (name VREG) (type input))
        (pin (num 14) (name VDD) (type power_in)))))
  (libraries
    (library (logical 4xxx)
      (uri "C:\\Program Files\\KiCad\\share\\kicad\\library/4xxx.lib"))
    (library (logical 74xGxx)
      (uri "C:\\Program Files\\KiCad\\share\\kicad\\library/74xGxx.lib"))
    (library (logical 74xx)
      (uri "C:\\Program Files\\KiCad\\share\\kicad\\library/74xx.lib"))
    (library (logical Connector)
      (uri "C:\\Program Files\\KiCad\\share\\kicad\\library/Connector.lib"))
    (library (logical Connector_Generic)
      (uri "C:\\Program Files\\KiCad\\share\\kicad\\library/Connector_Generic.lib"))
    (library (logical Device)
      (uri "C:\\Program Files\\KiCad\\share\\kicad\\library/Device.lib"))
    (library (logical Mechanical)
      (uri "C:\\Program Files\\KiCad\\share\\kicad\\library/Mechanical.lib"))
    (library (logical Sundial)
      (uri C:/Users/jonathanp/Documents/SiTime/HW/Sundial/pcb_designs/Sundial.lib)))
  (nets
    (net (code 1) (name /TDC_STOP_PULSE_EN)
      (node (ref U5) (pin 10))
      (node (ref U4) (pin 1)))
    (net (code 2) (name /TDC_STOP_PULSE)
      (node (ref U9) (pin 4))
      (node (ref R8) (pin 1)))
    (net (code 3) (name GND)
      (node (ref C9) (pin 2))
      (node (ref J3) (pin 2))
      (node (ref Q4) (pin 2))
      (node (ref Q5) (pin 2))
      (node (ref J1) (pin 2))
      (node (ref J4) (pin 2))
      (node (ref J4) (pin 10))
      (node (ref J5) (pin 2))
      (node (ref C11) (pin 2))
      (node (ref J2) (pin 14))
      (node (ref J2) (pin 13))
      (node (ref C2) (pin 2))
      (node (ref C4) (pin 2))
      (node (ref X1) (pin 1))
      (node (ref U12) (pin 3))
      (node (ref C26) (pin 2))
      (node (ref C25) (pin 2))
      (node (ref J8) (pin 2))
      (node (ref C27) (pin 2))
      (node (ref J7) (pin 2))
      (node (ref Q3) (pin 2))
      (node (ref C14) (pin 1))
      (node (ref R10) (pin 1))
      (node (ref J6) (pin 2))
      (node (ref C22) (pin 2))
      (node (ref U9) (pin 7))
      (node (ref C17) (pin 2))
      (node (ref C18) (pin 2))
      (node (ref C24) (pin 2))
      (node (ref C15) (pin 1))
      (node (ref C16) (pin 2))
      (node (ref C23) (pin 1))
      (node (ref C21) (pin 2))
      (node (ref C12) (pin 1))
      (node (ref C13) (pin 1))
      (node (ref U7) (pin 2))
      (node (ref C10) (pin 2))
      (node (ref C1) (pin 2))
      (node (ref Q2) (pin 2))
      (node (ref Q1) (pin 2))
      (node (ref U1) (pin 3))
      (node (ref U10) (pin 69))
      (node (ref U10) (pin 9))
      (node (ref U10) (pin 8))
      (node (ref U10) (pin 7))
      (node (ref U3) (pin 13))
      (node (ref U11) (pin 2))
      (node (ref U6) (pin 3))
      (node (ref C8) (pin 2))
      (node (ref U10) (pin 25))
      (node (ref U10) (pin 58))
      (node (ref U10) (pin 5))
      (node (ref U10) (pin 45))
      (node (ref U10) (pin 43))
      (node (ref C20) (pin 1))
      (node (ref C19) (pin 1))
      (node (ref U8) (pin 4))
      (node (ref U5) (pin 7))
      (node (ref U2) (pin 4))
      (node (ref C3) (pin 2))
      (node (ref C5) (pin 2))
      (node (ref U4) (pin 3))
      (node (ref Q6) (pin 2))
      (node (ref U3) (pin 8))
      (node (ref C6) (pin 2))
      (node (ref C7) (pin 2)))
    (net (code 4) (name /~TDC_INTB)
      (node (ref R5) (pin 2))
      (node (ref R11) (pin 1))
      (node (ref Q6) (pin 1))
      (node (ref U9) (pin 8))
      (node (ref U10) (pin 31)))
    (net (code 5) (name "Net-(U5-Pad11)")
      (node (ref U5) (pin 11)))
    (net (code 6) (name "Net-(U5-Pad12)")
      (node (ref U5) (pin 12)))
    (net (code 7) (name "Net-(U5-Pad13)")
      (node (ref U5) (pin 13)))
    (net (code 8) (name "Net-(U5-Pad3)")
      (node (ref U5) (pin 3)))
    (net (code 9) (name "Net-(U5-Pad4)")
      (node (ref U5) (pin 4)))
    (net (code 10) (name "Net-(U5-Pad5)")
      (node (ref U5) (pin 5)))
    (net (code 11) (name "Net-(U5-Pad6)")
      (node (ref U5) (pin 6)))
    (net (code 12) (name "Net-(R4-Pad2)")
      (node (ref U2) (pin 5))
      (node (ref R4) (pin 2)))
    (net (code 13) (name /TDC_START_PULSE)
      (node (ref Q3) (pin 1))
      (node (ref U9) (pin 3))
      (node (ref U5) (pin 1))
      (node (ref R4) (pin 1))
      (node (ref U5) (pin 2)))
    (net (code 14) (name /EXT_REF_CLK)
      (node (ref U10) (pin 15))
      (node (ref U2) (pin 1))
      (node (ref R1) (pin 1)))
    (net (code 15) (name "Net-(U2-Pad3)")
      (node (ref U2) (pin 3)))
    (net (code 16) (name "Net-(U8-Pad1)")
      (node (ref U8) (pin 1)))
    (net (code 17) (name "Net-(U8-Pad10)")
      (node (ref U8) (pin 10)))
    (net (code 18) (name "Net-(U8-Pad2)")
      (node (ref U8) (pin 2)))
    (net (code 19) (name "Net-(U8-Pad3)")
      (node (ref U8) (pin 3)))
    (net (code 20) (name "Net-(U8-Pad5)")
      (node (ref U8) (pin 5)))
    (net (code 21) (name /TDC_CLK_REF)
      (node (ref U9) (pin 5))
      (node (ref U10) (pin 30))
      (node (ref U8) (pin 6)))
    (net (code 22) (name "Net-(U8-Pad7)")
      (node (ref U8) (pin 7)))
    (net (code 23) (name "Net-(U8-Pad8)")
      (node (ref U8) (pin 8)))
    (net (code 24) (name +3.3VP)
      (node (ref C15) (pin 2))
      (node (ref R14) (pin 1))
      (node (ref U1) (pin 5))
      (node (ref C11) (pin 1))
      (node (ref C1) (pin 1))
      (node (ref R2) (pin 1))
      (node (ref C7) (pin 1))
      (node (ref R13) (pin 1))
      (node (ref X1) (pin 4))
      (node (ref C9) (pin 1))
      (node (ref R12) (pin 1))
      (node (ref U7) (pin 5))
      (node (ref U10) (pin 17))
      (node (ref U2) (pin 7))
      (node (ref U2) (pin 8))
      (node (ref U10) (pin 67))
      (node (ref C13) (pin 2))
      (node (ref U5) (pin 14))
      (node (ref U11) (pin 5))
      (node (ref C24) (pin 1))
      (node (ref U2) (pin 2))
      (node (ref C12) (pin 2))
      (node (ref C14) (pin 2))
      (node (ref C23) (pin 2))
      (node (ref C20) (pin 2))
      (node (ref C16) (pin 1))
      (node (ref R3) (pin 1))
      (node (ref U10) (pin 24))
      (node (ref U6) (pin 5))
      (node (ref U8) (pin 9))
      (node (ref C8) (pin 1))
      (node (ref U10) (pin 35))
      (node (ref U10) (pin 59))
      (node (ref U10) (pin 44))
      (node (ref C19) (pin 2))
      (node (ref U10) (pin 52))
      (node (ref R11) (pin 2))
      (node (ref U12) (pin 1))
      (node (ref C26) (pin 1))
      (node (ref C3) (pin 1))
      (node (ref U12) (pin 5))
      (node (ref C5) (pin 1))
      (node (ref U9) (pin 14))
      (node (ref C25) (pin 1))
      (node (ref U4) (pin 5))
      (node (ref C6) (pin 1))
      (node (ref U3) (pin 16))
      (node (ref R9) (pin 1)))
    (net (code 25) (name "Net-(D6-Pad1)")
      (node (ref Q6) (pin 3))
      (node (ref D6) (pin 1)))
    (net (code 26) (name "Net-(D6-Pad2)")
      (node (ref R14) (pin 2))
      (node (ref D6) (pin 2)))
    (net (code 27) (name "Net-(D3-Pad1)")
      (node (ref Q3) (pin 3))
      (node (ref D3) (pin 1)))
    (net (code 28) (name "Net-(U3-Pad4)")
      (node (ref U3) (pin 4)))
    (net (code 29) (name "Net-(U3-Pad7)")
      (node (ref U3) (pin 7)))
    (net (code 30) (name "Net-(U3-Pad5)")
      (node (ref U3) (pin 5)))
    (net (code 31) (name "Net-(U3-Pad6)")
      (node (ref U3) (pin 6)))
    (net (code 32) (name "Net-(U3-Pad9)")
      (node (ref U3) (pin 9)))
    (net (code 33) (name "Net-(U3-Pad10)")
      (node (ref U3) (pin 10)))
    (net (code 34) (name "Net-(U3-Pad2)")
      (node (ref U3) (pin 2)))
    (net (code 35) (name /OCXO_CLK+_RETIMER_OUT)
      (node (ref U6) (pin 4))
      (node (ref U4) (pin 2)))
    (net (code 36) (name "Net-(U3-Pad3)")
      (node (ref U3) (pin 3)))
    (net (code 37) (name "Net-(D3-Pad2)")
      (node (ref D3) (pin 2))
      (node (ref R9) (pin 2)))
    (net (code 38) (name "Net-(R8-Pad2)")
      (node (ref U4) (pin 4))
      (node (ref R8) (pin 2)))
    (net (code 39) (name /~CLK_PULSE_RESET)
      (node (ref U2) (pin 6))
      (node (ref R6) (pin 1))
      (node (ref R5) (pin 1))
      (node (ref U5) (pin 9)))
    (net (code 40) (name /~PSOC_PHASE_CMP_RESET)
      (node (ref R6) (pin 2))
      (node (ref U10) (pin 19)))
    (net (code 41) (name "Net-(R15-Pad2)")
      (node (ref U12) (pin 4))
      (node (ref R15) (pin 2)))
    (net (code 42) (name "Net-(J7-Pad1)")
      (node (ref J7) (pin 1))
      (node (ref R15) (pin 1)))
    (net (code 43) (name +5V)
      (node (ref C4) (pin 1))
      (node (ref C27) (pin 1))
      (node (ref R7) (pin 2))
      (node (ref U7) (pin 1))
      (node (ref J6) (pin 1))
      (node (ref C2) (pin 1))
      (node (ref J2) (pin 1))
      (node (ref J3) (pin 1))
      (node (ref J2) (pin 2)))
    (net (code 44) (name "Net-(R16-Pad2)")
      (node (ref U11) (pin 4))
      (node (ref R16) (pin 2)))
    (net (code 45) (name "Net-(J4-Pad8)")
      (node (ref R21) (pin 1))
      (node (ref J4) (pin 8)))
    (net (code 46) (name "Net-(J4-Pad3)")
      (node (ref R19) (pin 1))
      (node (ref J4) (pin 3)))
    (net (code 47) (name "Net-(J4-Pad7)")
      (node (ref R20) (pin 1))
      (node (ref J4) (pin 7)))
    (net (code 48) (name /PSOC_I2CS_SCL)
      (node (ref R20) (pin 2))
      (node (ref U10) (pin 38))
      (node (ref R18) (pin 2)))
    (net (code 49) (name /PSOC_I2CS_SDA)
      (node (ref U10) (pin 39))
      (node (ref R21) (pin 2))
      (node (ref R19) (pin 2)))
    (net (code 50) (name /PSOC_SPIS_MISO)
      (node (ref U10) (pin 46))
      (node (ref J4) (pin 5)))
    (net (code 51) (name /PSOC_SPIS_SS)
      (node (ref U10) (pin 47))
      (node (ref J4) (pin 9)))
    (net (code 52) (name /PSOC_TST_OUT)
      (node (ref J8) (pin 1))
      (node (ref U10) (pin 68)))
    (net (code 53) (name "Net-(U10-Pad40)")
      (node (ref U10) (pin 40)))
    (net (code 54) (name "Net-(R16-Pad1)")
      (node (ref U6) (pin 1))
      (node (ref R17) (pin 2))
      (node (ref R16) (pin 1)))
    (net (code 55) (name /PSOC_OCXO_CLK_DIV)
      (node (ref R17) (pin 1))
      (node (ref U10) (pin 55)))
    (net (code 56) (name "Net-(U10-Pad61)")
      (node (ref U10) (pin 61)))
    (net (code 57) (name "Net-(U10-Pad60)")
      (node (ref U10) (pin 60)))
    (net (code 58) (name "Net-(U10-Pad49)")
      (node (ref U10) (pin 49)))
    (net (code 59) (name "Net-(U10-Pad37)")
      (node (ref U10) (pin 37)))
    (net (code 60) (name "Net-(U10-Pad32)")
      (node (ref U10) (pin 32)))
    (net (code 61) (name "Net-(U10-Pad29)")
      (node (ref U10) (pin 29)))
    (net (code 62) (name "Net-(U10-Pad27)")
      (node (ref U10) (pin 27)))
    (net (code 63) (name "Net-(U10-Pad23)")
      (node (ref U10) (pin 23)))
    (net (code 64) (name "Net-(U10-Pad22)")
      (node (ref U10) (pin 22)))
    (net (code 65) (name "Net-(U10-Pad14)")
      (node (ref U10) (pin 14)))
    (net (code 66) (name "Net-(J4-Pad1)")
      (node (ref R18) (pin 1))
      (node (ref J4) (pin 1)))
    (net (code 67) (name /TDC_SPI_CLK)
      (node (ref U9) (pin 12))
      (node (ref U10) (pin 21)))
    (net (code 68) (name "Net-(U9-Pad6)")
      (node (ref U9) (pin 6)))
    (net (code 69) (name /TDC_SPI_MOSI)
      (node (ref U9) (pin 10))
      (node (ref U10) (pin 20)))
    (net (code 70) (name /~TDC_SPI_CS)
      (node (ref U10) (pin 1))
      (node (ref U9) (pin 11)))
    (net (code 71) (name "Net-(C22-Pad1)")
      (node (ref U9) (pin 13))
      (node (ref C22) (pin 1)))
    (net (code 72) (name /TDC_TRIGGER)
      (node (ref U10) (pin 18))
      (node (ref U9) (pin 2)))
    (net (code 73) (name /TDC_SPI_MISO)
      (node (ref U9) (pin 9))
      (node (ref U10) (pin 2)))
    (net (code 74) (name /TDC_ENABLE)
      (node (ref R10) (pin 2))
      (node (ref U10) (pin 16))
      (node (ref U9) (pin 1)))
    (net (code 75) (name "Net-(J4-Pad4)")
      (node (ref J4) (pin 4)))
    (net (code 76) (name "Net-(J4-Pad6)")
      (node (ref J4) (pin 6)))
    (net (code 77) (name "Net-(U11-Pad1)")
      (node (ref U3) (pin 1))
      (node (ref U11) (pin 1)))
    (net (code 78) (name "Net-(U11-Pad3)")
      (node (ref U11) (pin 3))
      (node (ref U3) (pin 12)))
    (net (code 79) (name "Net-(J5-Pad1)")
      (node (ref J5) (pin 1)))
    (net (code 80) (name /~PSOC_XRES)
      (node (ref U10) (pin 10))
      (node (ref J5) (pin 3)))
    (net (code 81) (name /PSOC_SWCLK)
      (node (ref J5) (pin 4))
      (node (ref U10) (pin 13)))
    (net (code 82) (name /PSOC_SWDIO)
      (node (ref U10) (pin 12))
      (node (ref J5) (pin 5)))
    (net (code 83) (name "Net-(D5-Pad1)")
      (node (ref D5) (pin 1))
      (node (ref Q5) (pin 3)))
    (net (code 84) (name "Net-(D5-Pad2)")
      (node (ref D5) (pin 2))
      (node (ref R13) (pin 2)))
    (net (code 85) (name "Net-(D4-Pad2)")
      (node (ref D4) (pin 2))
      (node (ref R12) (pin 2)))
    (net (code 86) (name "Net-(D4-Pad1)")
      (node (ref D4) (pin 1))
      (node (ref Q4) (pin 3)))
    (net (code 87) (name /PSOC_PLL_STATUS_LED)
      (node (ref Q4) (pin 1))
      (node (ref U10) (pin 56)))
    (net (code 88) (name "Net-(U10-Pad6)")
      (node (ref U10) (pin 6)))
    (net (code 89) (name "Net-(U10-Pad11)")
      (node (ref U10) (pin 11)))
    (net (code 90) (name /PSOC_32KHZ_RTC)
      (node (ref X1) (pin 5))
      (node (ref U10) (pin 41)))
    (net (code 91) (name "Net-(C17-Pad1)")
      (node (ref C17) (pin 1))
      (node (ref U10) (pin 57)))
    (net (code 92) (name "Net-(C18-Pad1)")
      (node (ref U10) (pin 42))
      (node (ref C18) (pin 1)))
    (net (code 93) (name "Net-(U10-Pad66)")
      (node (ref U10) (pin 66)))
    (net (code 94) (name /OCXO_VOUT)
      (node (ref J2) (pin 16))
      (node (ref U10) (pin 65)))
    (net (code 95) (name "Net-(R1-Pad2)")
      (node (ref U1) (pin 4))
      (node (ref R1) (pin 2)))
    (net (code 96) (name "Net-(J1-Pad1)")
      (node (ref J1) (pin 1))
      (node (ref U1) (pin 2)))
    (net (code 97) (name "Net-(D2-Pad1)")
      (node (ref Q2) (pin 3))
      (node (ref D2) (pin 1)))
    (net (code 98) (name "Net-(D1-Pad1)")
      (node (ref D1) (pin 1))
      (node (ref Q1) (pin 3)))
    (net (code 99) (name "Net-(D1-Pad2)")
      (node (ref D1) (pin 2))
      (node (ref R2) (pin 2)))
    (net (code 100) (name "Net-(D2-Pad2)")
      (node (ref D2) (pin 2))
      (node (ref R3) (pin 2)))
    (net (code 101) (name "Net-(R7-Pad1)")
      (node (ref R7) (pin 1))
      (node (ref U7) (pin 3)))
    (net (code 102) (name "Net-(C10-Pad1)")
      (node (ref U7) (pin 4))
      (node (ref C10) (pin 1)))
    (net (code 103) (name /OCXO_HSET1)
      (node (ref U10) (pin 48))
      (node (ref J2) (pin 4)))
    (net (code 104) (name /PSOC_FLL_STATUS_LED)
      (node (ref U10) (pin 50))
      (node (ref Q5) (pin 1)))
    (net (code 105) (name /PSOC_OCXO_STATUS_LED)
      (node (ref U10) (pin 51))
      (node (ref Q1) (pin 1)))
    (net (code 106) (name /OCXO_HSENSE1)
      (node (ref J2) (pin 8))
      (node (ref U10) (pin 54)))
    (net (code 107) (name /EXT_REF_CLK_EN)
      (node (ref U1) (pin 1))
      (node (ref U10) (pin 62)))
    (net (code 108) (name /~OCXO_SPI_SS)
      (node (ref U10) (pin 63))
      (node (ref J2) (pin 10)))
    (net (code 109) (name /OCXO_SPI_CLK)
      (node (ref J2) (pin 11))
      (node (ref U10) (pin 3)))
    (net (code 110) (name /OCXO_SPI_MISO)
      (node (ref J2) (pin 12))
      (node (ref U10) (pin 64)))
    (net (code 111) (name /OCXO_HSENSE2)
      (node (ref J2) (pin 7))
      (node (ref U10) (pin 33)))
    (net (code 112) (name /PSOC_EXT_REF_STATUS_LED)
      (node (ref Q2) (pin 1))
      (node (ref U10) (pin 34)))
    (net (code 113) (name /OCXO_HSET2)
      (node (ref J2) (pin 3))
      (node (ref U10) (pin 36)))
    (net (code 114) (name /OCXO_SPI_MOSI)
      (node (ref J2) (pin 9))
      (node (ref U10) (pin 4)))
    (net (code 115) (name /OCXO_CLK+_DIV_SEL)
      (node (ref U10) (pin 53))
      (node (ref U11) (pin 6)))
    (net (code 116) (name "Net-(U3-Pad11)")
      (node (ref U3) (pin 11)))
    (net (code 117) (name /OCXO_CLK+_OUT)
      (node (ref U12) (pin 2))
      (node (ref J2) (pin 15))
      (node (ref U5) (pin 8))
      (node (ref U10) (pin 28))
      (node (ref U3) (pin 14))
      (node (ref U6) (pin 2)))
    (net (code 118) (name /OCXO_CLK+_DIV_OUT)
      (node (ref U3) (pin 15)))
    (net (code 119) (name "Net-(C21-Pad1)")
      (node (ref U10) (pin 26))
      (node (ref C21) (pin 1)))))