EESchema Schematic File Version 4
EELAYER 30 0
EELAYER END
$Descr D 34000 22000
encoding utf-8
Sheet 1 1
Title ""
Date ""
Rev ""
Comp ""
Comment1 ""
Comment2 ""
Comment3 ""
Comment4 ""
$EndDescr
Text Notes 3600 11250 0    250  ~ 0
OCXO
Wire Notes Line
	1500 11500 6500 11500
Wire Notes Line
	24500 2850 24500 8550
Wire Notes Line
	24300 3500 32500 3500
Wire Notes Line
	24300 4500 32500 4500
Wire Notes Line
	24300 5500 32500 5500
Wire Notes Line
	24550 4450 24650 4450
Wire Notes Line
	24750 3950 24750 4450
Wire Notes Line
	24650 3950 24750 3950
Wire Notes Line
	24650 3950 24650 4450
Wire Notes Line
	24750 4450 24850 4450
Wire Notes Line
	24950 3950 24950 4450
Wire Notes Line
	24850 3950 24950 3950
Wire Notes Line
	24850 3950 24850 4450
Wire Notes Line
	24950 4450 25050 4450
Wire Notes Line
	25150 3950 25150 4450
Wire Notes Line
	25050 3950 25150 3950
Wire Notes Line
	25050 3950 25050 4450
Wire Notes Line
	25150 4450 25250 4450
Wire Notes Line
	25350 3950 25350 4450
Wire Notes Line
	25250 3950 25350 3950
Wire Notes Line
	25250 3950 25250 4450
Wire Notes Line
	25350 4450 25450 4450
Wire Notes Line
	25550 3950 25550 4450
Wire Notes Line
	25450 3950 25550 3950
Wire Notes Line
	25450 3950 25450 4450
Wire Notes Line
	25550 4450 25650 4450
Wire Notes Line
	25750 3950 25750 4450
Wire Notes Line
	25650 3950 25750 3950
Wire Notes Line
	25650 3950 25650 4450
Wire Notes Line
	25750 4450 25850 4450
Wire Notes Line
	25950 3950 25950 4450
Wire Notes Line
	25850 3950 25950 3950
Wire Notes Line
	25850 3950 25850 4450
Wire Notes Line
	25950 4450 26050 4450
Wire Notes Line
	26150 3950 26150 4450
Wire Notes Line
	26050 3950 26150 3950
Wire Notes Line
	26050 3950 26050 4450
Wire Notes Line
	26150 4450 26250 4450
Wire Notes Line
	26350 3950 26350 4450
Wire Notes Line
	26250 3950 26350 3950
Wire Notes Line
	26250 3950 26250 4450
Wire Notes Line
	26350 4450 26450 4450
Wire Notes Line
	26550 3950 26550 4450
Wire Notes Line
	26450 3950 26550 3950
Wire Notes Line
	26450 3950 26450 4450
Wire Notes Line
	26550 4450 26650 4450
Wire Notes Line
	26750 3950 26750 4450
Wire Notes Line
	26650 3950 26750 3950
Wire Notes Line
	26650 3950 26650 4450
Wire Notes Line
	26750 4450 26850 4450
Wire Notes Line
	26950 3950 26950 4450
Wire Notes Line
	26850 3950 26950 3950
Wire Notes Line
	26850 3950 26850 4450
Wire Notes Line
	26950 4450 27050 4450
Wire Notes Line
	27150 3950 27150 4450
Wire Notes Line
	27050 3950 27150 3950
Wire Notes Line
	27050 3950 27050 4450
Wire Notes Line
	27150 4450 27250 4450
Wire Notes Line
	27350 3950 27350 4450
Wire Notes Line
	27250 3950 27350 3950
Wire Notes Line
	27250 3950 27250 4450
Wire Notes Line
	27350 4450 27450 4450
Wire Notes Line
	27550 3950 27550 4450
Wire Notes Line
	27450 3950 27550 3950
Wire Notes Line
	27450 3950 27450 4450
Wire Notes Line
	27550 4450 27650 4450
Wire Notes Line
	27750 3950 27750 4450
Wire Notes Line
	27650 3950 27750 3950
Wire Notes Line
	27650 3950 27650 4450
Wire Notes Line
	27750 4450 27850 4450
Wire Notes Line
	27950 3950 27950 4450
Wire Notes Line
	27850 3950 27950 3950
Wire Notes Line
	27850 3950 27850 4450
Wire Notes Line
	27950 4450 28050 4450
Wire Notes Line
	28150 3950 28150 4450
Wire Notes Line
	28050 3950 28150 3950
Wire Notes Line
	28050 3950 28050 4450
Wire Notes Line
	28150 4450 28250 4450
Wire Notes Line
	28350 3950 28350 4450
Wire Notes Line
	28250 3950 28350 3950
Wire Notes Line
	28250 3950 28250 4450
Wire Notes Line
	28350 4450 28450 4450
Wire Notes Line
	28550 3950 28550 4450
Wire Notes Line
	28450 3950 28550 3950
Wire Notes Line
	28450 3950 28450 4450
Wire Notes Line
	28550 4450 28650 4450
Wire Notes Line
	28750 3950 28750 4450
Wire Notes Line
	28650 3950 28750 3950
Wire Notes Line
	28650 3950 28650 4450
Wire Notes Line
	28750 4450 28850 4450
Wire Notes Line
	28950 3950 28950 4450
Wire Notes Line
	28850 3950 28950 3950
Wire Notes Line
	28850 3950 28850 4450
Wire Notes Line
	28950 4450 29050 4450
Wire Notes Line
	29150 3950 29150 4450
Wire Notes Line
	29050 3950 29150 3950
Wire Notes Line
	29050 3950 29050 4450
Wire Notes Line
	29150 4450 29250 4450
Wire Notes Line
	29350 3950 29350 4450
Wire Notes Line
	29250 3950 29350 3950
Wire Notes Line
	29250 3950 29250 4450
Wire Notes Line
	29350 4450 29450 4450
Wire Notes Line
	29550 3950 29550 4450
Wire Notes Line
	29450 3950 29550 3950
Wire Notes Line
	29450 3950 29450 4450
Wire Notes Line
	29550 4450 29650 4450
Wire Notes Line
	29750 3950 29750 4450
Wire Notes Line
	29650 3950 29750 3950
Wire Notes Line
	29650 3950 29650 4450
Wire Notes Line
	29750 4450 29850 4450
Wire Notes Line
	29950 3950 29950 4450
Wire Notes Line
	29850 3950 29950 3950
Wire Notes Line
	29850 3950 29850 4450
Wire Notes Line
	29950 4450 30050 4450
Wire Notes Line
	30150 3950 30150 4450
Wire Notes Line
	30050 3950 30150 3950
Wire Notes Line
	30050 3950 30050 4450
Wire Notes Line
	30150 4450 30250 4450
Wire Notes Line
	30350 3950 30350 4450
Wire Notes Line
	30250 3950 30350 3950
Wire Notes Line
	30250 3950 30250 4450
Wire Notes Line
	30350 4450 30450 4450
Wire Notes Line
	30550 3950 30550 4450
Wire Notes Line
	30450 3950 30550 3950
Wire Notes Line
	30450 3950 30450 4450
Wire Notes Line
	30550 4450 30650 4450
Wire Notes Line
	30750 3950 30750 4450
Wire Notes Line
	30650 3950 30750 3950
Wire Notes Line
	30650 3950 30650 4450
Wire Notes Line
	30750 4450 30850 4450
Wire Notes Line
	30950 3950 30950 4450
Wire Notes Line
	30850 3950 30950 3950
Wire Notes Line
	30850 3950 30850 4450
Wire Notes Line
	30950 4450 31050 4450
Wire Notes Line
	31150 3950 31150 4450
Wire Notes Line
	31050 3950 31150 3950
Wire Notes Line
	31050 3950 31050 4450
Wire Notes Line
	31150 4450 31250 4450
Wire Notes Line
	31350 3950 31350 4450
Wire Notes Line
	31250 3950 31350 3950
Wire Notes Line
	31250 3950 31250 4450
Wire Notes Line
	31350 4450 31450 4450
Wire Notes Line
	24550 5450 24650 5450
Wire Notes Line
	24650 4950 24650 5450
Wire Notes Line
	25050 4950 25050 5450
Wire Notes Line
	24650 4950 25050 4950
Wire Notes Line
	25050 5450 25450 5450
Wire Notes Line
	25450 4950 25450 5450
Wire Notes Line
	25850 4950 25850 5450
Wire Notes Line
	25450 4950 25850 4950
Wire Notes Line
	25850 5450 26250 5450
Wire Notes Line
	26250 4950 26250 5450
Wire Notes Line
	26650 4950 26650 5450
Wire Notes Line
	26250 4950 26650 4950
Wire Notes Line
	26650 5450 27050 5450
Wire Notes Line
	27050 4950 27050 5450
Wire Notes Line
	27450 4950 27450 5450
Wire Notes Line
	27050 4950 27450 4950
Wire Notes Line
	27450 5450 27850 5450
Wire Notes Line
	27850 4950 27850 5450
Wire Notes Line
	28250 4950 28250 5450
Wire Notes Line
	27850 4950 28250 4950
Wire Notes Line
	28250 5450 28650 5450
Wire Notes Line
	28650 4950 28650 5450
Wire Notes Line
	29050 4950 29050 5450
Wire Notes Line
	28650 4950 29050 4950
Wire Notes Line
	29050 5450 29450 5450
Wire Notes Line
	29450 4950 29450 5450
Wire Notes Line
	29850 4950 29850 5450
Wire Notes Line
	29450 4950 29850 4950
Wire Notes Line
	29850 5450 30250 5450
Wire Notes Line
	30250 4950 30250 5450
Wire Notes Line
	30650 4950 30650 5450
Wire Notes Line
	30250 4950 30650 4950
Wire Notes Line
	30650 5450 31050 5450
Wire Notes Line
	31050 4950 31050 5450
Wire Notes Line
	31450 4950 31450 5450
Wire Notes Line
	31050 4950 31450 4950
Wire Notes Line
	31550 3950 31550 4450
Wire Notes Line
	31450 3950 31550 3950
Wire Notes Line
	31550 4450 31650 4450
Wire Notes Line
	31450 3950 31450 4450
Wire Notes Line
	31450 5450 31850 5450
Wire Notes Line
	24300 6500 32500 6500
Wire Notes Line
	24800 3500 24800 3000
Wire Notes Line
	31200 3500 31200 3000
Wire Notes Line
	28000 3000 28000 3500
Wire Notes Line
	26400 3500 26400 3000
Wire Notes Line
	29600 3000 29600 3500
Wire Notes Line
	24800 6450 24800 6000
Wire Notes Line
	31200 6450 31200 6000
Wire Notes Line
	28000 6000 28000 6450
Wire Notes Line
	26400 6450 26400 6000
Wire Notes Line
	29600 6000 29600 6450
Wire Notes Line
	25450 6450 25450 6000
Wire Notes Line
	31850 6450 31850 6000
Wire Notes Line
	28650 6000 28650 6450
Wire Notes Line
	27050 6450 27050 6000
Wire Notes Line
	30250 6000 30250 6450
Wire Notes Line
	24800 6000 25450 6000
Wire Notes Line
	26400 6000 27050 6000
Wire Notes Line
	28000 6000 28650 6000
Wire Notes Line
	29600 6000 30250 6000
Wire Notes Line
	31200 6000 31850 6000
Wire Notes Line
	31850 4950 31850 5450
Wire Notes Line
	31850 4950 32250 4950
Wire Notes Line
	32250 4950 32250 5450
Wire Notes Line
	32250 5450 32650 5450
Wire Notes Line
	31750 3950 31750 4450
Wire Notes Line
	31650 3950 31750 3950
Wire Notes Line
	31750 4450 31850 4450
Wire Notes Line
	31950 3950 31950 4450
Wire Notes Line
	31850 3950 31950 3950
Wire Notes Line
	31850 3950 31850 4450
Wire Notes Line
	31950 4450 32050 4450
Wire Notes Line
	32150 3950 32150 4450
Wire Notes Line
	32050 3950 32150 3950
Wire Notes Line
	32050 3950 32050 4450
Wire Notes Line
	32150 4450 32250 4450
Wire Notes Line
	32350 3950 32350 4450
Wire Notes Line
	32250 3950 32350 3950
Wire Notes Line
	32350 4450 32450 4450
Wire Notes Line
	32250 3950 32250 4450
Wire Notes Line
	31650 3950 31650 4450
Text Notes 24450 2950 2    100  ~ 20
1PPS
Text Notes 24450 3950 2    100  ~ 20
CLK
Wire Notes Line
	25450 6450 26400 6450
Wire Notes Line
	27050 6450 28000 6450
Wire Notes Line
	28650 6450 29600 6450
Wire Notes Line
	30250 6450 31200 6450
Wire Notes Line
	31850 6450 32800 6450
Wire Notes Line
	24550 6450 24800 6450
Text Notes 24450 4950 2    100  ~ 20
DIV_CLK
Text Notes 24450 6000 2    100  ~ 20
Phase Diff
Wire Notes Line
	24300 7500 32500 7500
Wire Notes Line
	24800 7500 24800 7000
Text Notes 24450 7000 2    100  ~ 20
Start Pulse
Wire Notes Line
	26400 7500 26400 7000
Wire Notes Line
	28000 7500 28000 7000
Wire Notes Line
	29600 7500 29600 7000
Wire Notes Line
	31200 7500 31200 7000
Wire Notes Line
	24300 8500 32500 8500
Wire Notes Line
	25450 8500 25450 8000
Wire Notes Line
	27050 8500 27050 8000
Wire Notes Line
	28650 8500 28650 8000
Wire Notes Line
	30250 8500 30250 8000
Wire Notes Line
	31850 8500 31850 8000
Text Notes 24450 8000 2    100  ~ 20
Stop Pulse
Wire Notes Line
	6500 11500 6500 15000
Wire Notes Line
	1500 15000 6500 15000
$Comp
L Device:Q_NMOS_GSD Q1
U 1 1 63A2FB53
P 5100 12900
F 0 "Q1" H 5305 12946 50  0000 L CNN
F 1 "Q_NMOS_GSD" H 5305 12855 50  0000 L CNN
F 2 "Package_TO_SOT_SMD:SOT-323_SC-70" H 5300 13000 50  0001 C CNN
F 3 "~" H 5100 12900 50  0001 C CNN
F 4 "DMN3150LW-7" H 5100 12900 50  0001 C CNN "MPN"
F 5 "C397976" H 5100 12900 50  0001 C CNN "LCSC"
	1    5100 12900
	-1   0    0    -1  
$EndComp
$Comp
L Device:LED D1
U 1 1 63A7CB43
P 5000 12550
F 0 "D1" V 5100 12650 50  0000 L CNN
F 1 "LED" V 4900 12650 50  0000 L CNN
F 2 "LED_SMD:LED_0603_1608Metric_Pad1.05x0.95mm_HandSolder" H 5000 12550 50  0001 C CNN
F 3 "~" H 5000 12550 50  0001 C CNN
F 4 "0603" V 5000 12650 50  0000 L CNN "Package"
F 5 "19-217/GHC-YR1S2/3T" V 5000 12550 50  0001 C CNN "MPN"
F 6 "C72043" V 5000 12550 50  0001 C CNN "LCSC"
	1    5000 12550
	0    1    -1   0   
$EndComp
$Comp
L power:GND #PWR017
U 1 1 63B5C52E
P 5000 13100
F 0 "#PWR017" H 5000 12850 50  0001 C CNN
F 1 "GND" H 5000 12950 50  0000 C CNN
F 2 "" H 5000 13100 50  0001 C CNN
F 3 "" H 5000 13100 50  0001 C CNN
	1    5000 13100
	1    0    0    -1  
$EndComp
$Comp
L Device:R R2
U 1 1 63AC8F53
P 5000 12250
F 0 "R2" V 4900 12250 50  0000 C CNN
F 1 "1k" V 5000 12250 50  0000 C CNN
F 2 "Resistor_SMD:R_0402_1005Metric_Pad0.72x0.64mm_HandSolder" V 4930 12250 50  0001 C CNN
F 3 "~" H 5000 12250 50  0001 C CNN
F 4 "0402" V 5100 12250 50  0000 C CNN "Package"
F 5 "0402WGF1001TCE" V 5000 12250 50  0001 C CNN "MPN"
F 6 "C11702" V 5000 12250 50  0001 C CNN "LCSC"
	1    5000 12250
	1    0    0    -1  
$EndComp
$Comp
L Mechanical:MountingHole H1
U 1 1 5FD74EBF
P 2800 2200
F 0 "H1" H 2900 2246 50  0000 L CNN
F 1 "MountingHole" H 2900 2155 50  0000 L CNN
F 2 "MountingHole:MountingHole_4.3mm_M4_Pad" H 2800 2200 50  0001 C CNN
F 3 "~" H 2800 2200 50  0001 C CNN
	1    2800 2200
	1    0    0    -1  
$EndComp
Text Label 5300 18300 0    50   ~ 0
PSOC_EXT_REF_STATUS_LED
$Comp
L Device:Q_NMOS_GSD Q2
U 1 1 60045ADF
P 5100 18300
F 0 "Q2" H 5305 18346 50  0000 L CNN
F 1 "Q_NMOS_GSD" H 5305 18255 50  0000 L CNN
F 2 "Package_TO_SOT_SMD:SOT-323_SC-70" H 5300 18400 50  0001 C CNN
F 3 "~" H 5100 18300 50  0001 C CNN
F 4 "DMN3150LW-7" H 5100 18300 50  0001 C CNN "MPN"
F 5 "C397976" H 5100 18300 50  0001 C CNN "LCSC"
	1    5100 18300
	-1   0    0    -1  
$EndComp
$Comp
L Device:LED D2
U 1 1 60045AE5
P 5000 17950
F 0 "D2" V 5100 18050 50  0000 L CNN
F 1 "LED" V 4900 18050 50  0000 L CNN
F 2 "LED_SMD:LED_0603_1608Metric_Pad1.05x0.95mm_HandSolder" H 5000 17950 50  0001 C CNN
F 3 "~" H 5000 17950 50  0001 C CNN
F 4 "0603" V 5000 18050 50  0000 L CNN "Package"
F 5 "19-217/GHC-YR1S2/3T" V 5000 17950 50  0001 C CNN "MPN"
F 6 "C72043" V 5000 17950 50  0001 C CNN "LCSC"
	1    5000 17950
	0    1    -1   0   
$EndComp
$Comp
L power:GND #PWR019
U 1 1 60045AEB
P 5000 18500
F 0 "#PWR019" H 5000 18250 50  0001 C CNN
F 1 "GND" H 5000 18350 50  0000 C CNN
F 2 "" H 5000 18500 50  0001 C CNN
F 3 "" H 5000 18500 50  0001 C CNN
	1    5000 18500
	1    0    0    -1  
$EndComp
$Comp
L Device:R R3
U 1 1 60045AF3
P 5000 17650
F 0 "R3" V 4900 17650 50  0000 C CNN
F 1 "1k" V 5000 17650 50  0000 C CNN
F 2 "Resistor_SMD:R_0402_1005Metric_Pad0.72x0.64mm_HandSolder" V 4930 17650 50  0001 C CNN
F 3 "~" H 5000 17650 50  0001 C CNN
F 4 "0402" V 5100 17650 50  0000 C CNN "Package"
F 5 "0402WGF1001TCE" V 5000 17650 50  0001 C CNN "MPN"
F 6 "C11702" V 5000 17650 50  0001 C CNN "LCSC"
	1    5000 17650
	1    0    0    -1  
$EndComp
Text Label 5300 12900 0    50   ~ 0
PSOC_OCXO_STATUS_LED
$Comp
L power:+3.3VP #PWR018
U 1 1 60045AFA
P 5000 17500
F 0 "#PWR018" H 5150 17450 50  0001 C CNN
F 1 "+3.3VP" H 5015 17673 50  0000 C CNN
F 2 "" H 5000 17500 50  0001 C CNN
F 3 "" H 5000 17500 50  0001 C CNN
	1    5000 17500
	-1   0    0    -1  
$EndComp
Text Label 3800 17950 0    50   ~ 0
EXT_REF_CLK
$Comp
L Device:R R1
U 1 1 60E19E46
P 3500 17950
F 0 "R1" V 3400 17950 50  0000 C CNN
F 1 "10" V 3500 17950 50  0000 C CNN
F 2 "Resistor_SMD:R_0402_1005Metric_Pad0.72x0.64mm_HandSolder" V 3430 17950 50  0001 C CNN
F 3 "~" H 3500 17950 50  0001 C CNN
F 4 "0402WGF100JTCE" V 3500 17950 50  0001 C CNN "MPN"
F 5 "0402" V 3600 17950 50  0000 C CNN "Package"
	1    3500 17950
	0    1    1    0   
$EndComp
Wire Wire Line
	3350 17950 3200 17950
Wire Notes Line
	1500 15000 1500 11500
$Comp
L Sundial:MECF-08-01-L-DV_02x08 J2
U 1 1 61CB2A5B
P 2950 12550
F 0 "J2" H 3000 13000 50  0000 C CNN
F 1 "MECF-08-01-L-DV_02x08" H 2950 12000 50  0000 C CNN
F 2 "Connector_PCBEdge:Samtec_MECF-08-01-L-DV-WT_2x08_P1.27mm_Polarized_Socket_Horizontal" H 2950 12550 50  0001 C CNN
F 3 "" H 2950 12550 50  0001 C CNN
	1    2950 12550
	1    0    0    -1  
$EndComp
Text Label 2750 12950 2    50   ~ 0
OCXO_CLK+_OUT
$Comp
L Connector:Conn_Coaxial J1
U 1 1 620CFBD1
P 2400 18050
F 0 "J1" H 2500 18025 50  0000 L CNN
F 1 "Conn_Coaxial" H 2500 17934 50  0000 L CNN
F 2 "Connector_Coaxial:SMA_Amphenol_132134-16_Vertical" H 2400 18050 50  0001 C CNN
F 3 " ~" H 2400 18050 50  0001 C CNN
	1    2400 18050
	-1   0    0    -1  
$EndComp
$Comp
L power:GND #PWR01
U 1 1 620D12B4
P 2400 18250
F 0 "#PWR01" H 2400 18000 50  0001 C CNN
F 1 "GND" H 2400 18100 50  0000 C CNN
F 2 "" H 2400 18250 50  0001 C CNN
F 3 "" H 2400 18250 50  0001 C CNN
	1    2400 18250
	-1   0    0    -1  
$EndComp
$Comp
L Sundial:74x1G126 U1
U 1 1 62297A7E
P 2900 17950
F 0 "U1" H 3050 17700 50  0000 L CNN
F 1 "74LVC1G126" H 3050 17600 50  0000 L CNN
F 2 "Package_TO_SOT_SMD:SOT-353_SC-70-5" H 2900 17950 50  0001 C CNN
F 3 "" H 2900 17950 50  0001 C CNN
F 4 "SC-70-5" H 3050 17500 50  0000 L CNN "Package"
F 5 "SN74LVC1G126DCKR" H 2900 17950 50  0001 C CNN "MPN"
F 6 "C88039" H 2900 17950 50  0001 C CNN "LCSC"
	1    2900 17950
	1    0    0    -1  
$EndComp
$Comp
L Device:C C1
U 1 1 6237C2DE
P 3250 17550
F 0 "C1" V 3350 17650 50  0000 L CNN
F 1 "0.1u" V 3350 17450 50  0000 R CNN
F 2 "Capacitor_SMD:C_0402_1005Metric_Pad0.74x0.62mm_HandSolder" H 3288 17400 50  0001 C CNN
F 3 "~" H 3250 17550 50  0001 C CNN
F 4 "0402" V 3100 17550 50  0000 C CNN "Package"
F 5 "CL05B104KO5NNNC" H 3250 17550 50  0001 C CNN "MPN"
F 6 "C1525" V 3250 17550 50  0001 C CNN "LCSC"
	1    3250 17550
	0    -1   -1   0   
$EndComp
Wire Wire Line
	3100 17550 2900 17550
Wire Wire Line
	2750 17550 2900 17550
Connection ~ 2900 17550
Wire Wire Line
	2900 17550 2900 17750
$Comp
L power:GND #PWR010
U 1 1 6237C2E8
P 3400 17550
F 0 "#PWR010" H 3400 17300 50  0001 C CNN
F 1 "GND" V 3400 17350 50  0000 C CNN
F 2 "" H 3400 17550 50  0001 C CNN
F 3 "" H 3400 17550 50  0001 C CNN
	1    3400 17550
	0    -1   -1   0   
$EndComp
$Comp
L power:+3.3VP #PWR04
U 1 1 6237C2EE
P 2750 17550
F 0 "#PWR04" H 2900 17500 50  0001 C CNN
F 1 "+3.3VP" V 2750 17800 50  0000 C CNN
F 2 "" H 2750 17550 50  0001 C CNN
F 3 "" H 2750 17550 50  0001 C CNN
	1    2750 17550
	0    -1   -1   0   
$EndComp
$Comp
L power:GND #PWR05
U 1 1 62390962
P 2900 18150
F 0 "#PWR05" H 2900 17900 50  0001 C CNN
F 1 "GND" H 2900 18000 50  0000 C CNN
F 2 "" H 2900 18150 50  0001 C CNN
F 3 "" H 2900 18150 50  0001 C CNN
	1    2900 18150
	1    0    0    -1  
$EndComp
Text Label 2600 17850 2    50   ~ 0
EXT_REF_CLK_EN
Text Notes 3000 16800 0    250  ~ 0
EXT_REF
Wire Notes Line
	1500 17000 6500 17000
Wire Notes Line
	6500 17000 6500 19000
Wire Notes Line
	1500 19000 1500 17000
Wire Notes Line
	1500 19000 6500 19000
Wire Notes Line
	7500 20500 22500 20500
Text Label 2750 12550 2    50   ~ 0
OCXO_HSENSE2
Text Label 3250 12550 0    50   ~ 0
OCXO_HSENSE1
Text Label 3250 12350 0    50   ~ 0
OCXO_HSET1
Text Label 2750 12350 2    50   ~ 0
OCXO_HSET2
Text Label 3250 12750 0    50   ~ 0
OCXO_SPI_MISO
Text Label 2750 12650 2    50   ~ 0
OCXO_SPI_MOSI
Text Label 2750 12750 2    50   ~ 0
OCXO_SPI_CLK
Text Label 3250 12650 0    50   ~ 0
~OCXO_SPI_SS
$Comp
L power:+5V #PWR08
U 1 1 632AB0E9
P 3250 12250
F 0 "#PWR08" H 3250 12100 50  0001 C CNN
F 1 "+5V" V 3250 12450 50  0000 C CNN
F 2 "" H 3250 12250 50  0001 C CNN
F 3 "" H 3250 12250 50  0001 C CNN
	1    3250 12250
	0    1    -1   0   
$EndComp
$Comp
L power:+5V #PWR02
U 1 1 6332D430
P 2750 12250
F 0 "#PWR02" H 2750 12100 50  0001 C CNN
F 1 "+5V" V 2750 12450 50  0000 C CNN
F 2 "" H 2750 12250 50  0001 C CNN
F 3 "" H 2750 12250 50  0001 C CNN
	1    2750 12250
	0    -1   1    0   
$EndComp
$Comp
L power:GND #PWR03
U 1 1 63343248
P 2750 12850
F 0 "#PWR03" H 2750 12600 50  0001 C CNN
F 1 "GND" V 2750 12650 50  0000 C CNN
F 2 "" H 2750 12850 50  0001 C CNN
F 3 "" H 2750 12850 50  0001 C CNN
	1    2750 12850
	0    1    1    0   
$EndComp
$Comp
L power:GND #PWR09
U 1 1 63358F5B
P 3250 12850
F 0 "#PWR09" H 3250 12600 50  0001 C CNN
F 1 "GND" V 3250 12650 50  0000 C CNN
F 2 "" H 3250 12850 50  0001 C CNN
F 3 "" H 3250 12850 50  0001 C CNN
	1    3250 12850
	0    -1   -1   0   
$EndComp
Wire Wire Line
	3800 17950 3650 17950
Wire Notes Line
	8500 19750 15500 19750
Text Label 16300 8300 2    50   ~ 0
TDC_CLK_REF
Wire Wire Line
	12050 7200 16300 7200
Text Label 16300 9100 2    50   ~ 0
~PSOC_PHASE_CMP_RESET
Wire Notes Line
	10250 5500 13250 5500
Text Notes 10750 3350 0    250  ~ 0
REGULATOR
Wire Notes Line
	10250 5500 10250 3500
Wire Notes Line
	13250 3500 13250 5500
Wire Notes Line
	10250 3500 13250 3500
Text Notes 10900 6150 0    250  ~ 0
32 kHz RTC
Wire Notes Line
	22500 20500 22500 2500
Wire Notes Line
	7500 20500 7500 2500
Text Notes 16950 2350 2    250  ~ 0
DIGITAL VOLTAGE DOMAIN
Wire Notes Line
	7500 2500 22500 2500
Text Label 16300 8500 2    50   ~ 0
OCXO_CLK+_OUT
Text Label 16300 5100 2    50   ~ 0
EXT_REF_CLK_EN
Text Label 16300 9400 2    50   ~ 0
EXT_REF_CLK
$Comp
L power:+5V #PWR035
U 1 1 61BEFF69
P 11150 4950
F 0 "#PWR035" H 11150 4800 50  0001 C CNN
F 1 "+5V" H 11150 5100 50  0000 C CNN
F 2 "" H 11150 4950 50  0001 C CNN
F 3 "" H 11150 4950 50  0001 C CNN
	1    11150 4950
	1    0    0    1   
$EndComp
Wire Wire Line
	11300 4500 11150 4500
$Comp
L Device:R R7
U 1 1 61BEFF62
P 11150 4800
F 0 "R7" V 11050 4800 50  0000 C CNN
F 1 "10k" V 11150 4800 50  0000 C CNN
F 2 "Resistor_SMD:R_0402_1005Metric_Pad0.72x0.64mm_HandSolder" V 11080 4800 50  0001 C CNN
F 3 "~" H 11150 4800 50  0001 C CNN
F 4 "0402" V 11250 4800 50  0000 C CNN "Package"
F 5 "0402WGF1002TCE" V 11150 4800 50  0001 C CNN "MPN"
F 6 "C25744" V 11150 4800 50  0001 C CNN "LCSC"
	1    11150 4800
	1    0    0    -1  
$EndComp
Wire Wire Line
	11150 4650 11150 4500
Wire Wire Line
	12250 4500 12250 4650
Wire Wire Line
	12100 4500 12250 4500
$Comp
L power:GND #PWR046
U 1 1 61AB0FFB
P 12250 4950
F 0 "#PWR046" H 12250 4700 50  0001 C CNN
F 1 "GND" H 12250 4800 50  0000 C CNN
F 2 "" H 12250 4950 50  0001 C CNN
F 3 "" H 12250 4950 50  0001 C CNN
	1    12250 4950
	1    0    0    -1  
$EndComp
$Comp
L Device:C C10
U 1 1 61AB0FF5
P 12250 4800
F 0 "C10" H 12365 4891 50  0000 L CNN
F 1 "10n" H 12365 4800 50  0000 L CNN
F 2 "Capacitor_SMD:C_0402_1005Metric_Pad0.74x0.62mm_HandSolder" H 12288 4650 50  0001 C CNN
F 3 "~" H 12250 4800 50  0001 C CNN
F 4 "0402" H 12365 4709 50  0000 L CNN "Package"
F 5 "CL05B103KB5NNNC" H 12250 4800 50  0001 C CNN "MPN"
F 6 "C15195" H 12250 4800 50  0001 C CNN "LCSC"
	1    12250 4800
	-1   0    0    -1  
$EndComp
Wire Wire Line
	10850 4200 11300 4200
$Comp
L Sundial:MIC5219YM5 U7
U 1 1 6199C7BD
P 11700 4350
F 0 "U7" H 11700 4787 60  0000 C CNN
F 1 "MIC5219YM5" H 11700 4681 60  0000 C CNN
F 2 "Package_TO_SOT_SMD:SOT-23-5" H 11700 4200 60  0001 C CNN
F 3 "" H 11700 4200 60  0001 C CNN
F 4 "SOT-23-5" H 11700 4000 50  0000 C CNN "Package"
F 5 "MIC5219-3.3YM5" H 11700 4350 50  0001 C CNN "MPN"
F 6 "C29613" H 11700 4350 50  0001 C CNN "LCSC"
	1    11700 4350
	1    0    0    -1  
$EndComp
$Comp
L power:+5V #PWR030
U 1 1 60212BD3
P 10850 4100
F 0 "#PWR030" H 10850 3950 50  0001 C CNN
F 1 "+5V" H 10850 4250 50  0000 C CNN
F 2 "" H 10850 4100 50  0001 C CNN
F 3 "" H 10850 4100 50  0001 C CNN
	1    10850 4100
	-1   0    0    -1  
$EndComp
Text Label 16300 7900 2    50   ~ 0
PSOC_EXT_REF_STATUS_LED
Text Label 16300 5700 2    50   ~ 0
PSOC_PLL_STATUS_LED
Text Label 16300 6300 2    50   ~ 0
PSOC_FLL_STATUS_LED
Text Label 20050 9550 0    50   ~ 0
PSOC_FLL_STATUS_LED
Wire Wire Line
	15000 7800 14850 7800
Connection ~ 15000 7800
Wire Wire Line
	15000 7900 15000 7800
Wire Wire Line
	16300 7800 15000 7800
Text Label 16300 6200 2    50   ~ 0
PSOC_OCXO_STATUS_LED
Text Label 20050 7700 0    50   ~ 0
PSOC_PLL_STATUS_LED
$Comp
L Device:R R12
U 1 1 63D31B08
P 19750 7050
F 0 "R12" V 19650 7050 50  0000 C CNN
F 1 "1k" V 19750 7050 50  0000 C CNN
F 2 "Resistor_SMD:R_0402_1005Metric_Pad0.72x0.64mm_HandSolder" V 19680 7050 50  0001 C CNN
F 3 "~" H 19750 7050 50  0001 C CNN
F 4 "0402" V 19850 7050 50  0000 C CNN "Package"
F 5 "0402WGF1001TCE" V 19750 7050 50  0001 C CNN "MPN"
F 6 "C11702" V 19750 7050 50  0001 C CNN "LCSC"
	1    19750 7050
	1    0    0    -1  
$EndComp
$Comp
L power:GND #PWR081
U 1 1 63D31B00
P 19750 7900
F 0 "#PWR081" H 19750 7650 50  0001 C CNN
F 1 "GND" H 19750 7750 50  0000 C CNN
F 2 "" H 19750 7900 50  0001 C CNN
F 3 "" H 19750 7900 50  0001 C CNN
	1    19750 7900
	1    0    0    -1  
$EndComp
$Comp
L Device:LED D4
U 1 1 63D31AF4
P 19750 7350
F 0 "D4" V 19850 7450 50  0000 L CNN
F 1 "LED" V 19650 7450 50  0000 L CNN
F 2 "LED_SMD:LED_0603_1608Metric_Pad1.05x0.95mm_HandSolder" H 19750 7350 50  0001 C CNN
F 3 "~" H 19750 7350 50  0001 C CNN
F 4 "0603" V 19750 7450 50  0000 L CNN "Package"
F 5 "19-217/GHC-YR1S2/3T" V 19750 7350 50  0001 C CNN "MPN"
F 6 "C72043" V 19750 7350 50  0001 L CNN "LCSC"
	1    19750 7350
	0    1    -1   0   
$EndComp
$Comp
L Device:Q_NMOS_GSD Q4
U 1 1 63D31AEE
P 19850 7700
F 0 "Q4" H 20055 7746 50  0000 L CNN
F 1 "Q_NMOS_GSD" H 20055 7655 50  0000 L CNN
F 2 "Package_TO_SOT_SMD:SOT-323_SC-70" H 20050 7800 50  0001 C CNN
F 3 "~" H 19850 7700 50  0001 C CNN
F 4 "DMN3150LW-7" H 19850 7700 50  0001 C CNN "MPN"
F 5 "C397976" H 19850 7700 50  0001 C CNN "LCSC"
	1    19850 7700
	-1   0    0    -1  
$EndComp
$Comp
L Device:R R13
U 1 1 63CE11B6
P 19750 8900
F 0 "R13" V 19650 8900 50  0000 C CNN
F 1 "1k" V 19750 8900 50  0000 C CNN
F 2 "Resistor_SMD:R_0402_1005Metric_Pad0.72x0.64mm_HandSolder" V 19680 8900 50  0001 C CNN
F 3 "~" H 19750 8900 50  0001 C CNN
F 4 "0402" V 19850 8900 50  0000 C CNN "Package"
F 5 "0402WGF1001TCE" V 19750 8900 50  0001 C CNN "MPN"
F 6 "C11702" V 19750 8900 50  0001 C CNN "LCSC"
	1    19750 8900
	1    0    0    -1  
$EndComp
$Comp
L power:GND #PWR083
U 1 1 63CE11AE
P 19750 9750
F 0 "#PWR083" H 19750 9500 50  0001 C CNN
F 1 "GND" H 19750 9600 50  0000 C CNN
F 2 "" H 19750 9750 50  0001 C CNN
F 3 "" H 19750 9750 50  0001 C CNN
	1    19750 9750
	1    0    0    -1  
$EndComp
$Comp
L Device:LED D5
U 1 1 63CE11A2
P 19750 9200
F 0 "D5" V 19850 9300 50  0000 L CNN
F 1 "LED" V 19650 9300 50  0000 L CNN
F 2 "LED_SMD:LED_0603_1608Metric_Pad1.05x0.95mm_HandSolder" H 19750 9200 50  0001 C CNN
F 3 "~" H 19750 9200 50  0001 C CNN
F 4 "0603" V 19750 9300 50  0000 L CNN "Package"
F 5 "19-217/GHC-YR1S2/3T" V 19750 9200 50  0001 C CNN "MPN"
F 6 "C72043" V 19750 9200 50  0001 C CNN "LCSC"
	1    19750 9200
	0    1    -1   0   
$EndComp
$Comp
L Device:Q_NMOS_GSD Q5
U 1 1 63CE119C
P 19850 9550
F 0 "Q5" H 20055 9596 50  0000 L CNN
F 1 "Q_NMOS_GSD" H 20055 9505 50  0000 L CNN
F 2 "Package_TO_SOT_SMD:SOT-323_SC-70" H 20050 9650 50  0001 C CNN
F 3 "~" H 19850 9550 50  0001 C CNN
F 4 "DMN3150LW-7" H 19850 9550 50  0001 C CNN "MPN"
F 5 "C397976" H 19850 9550 50  0001 C CNN "LCSC"
	1    19850 9550
	-1   0    0    -1  
$EndComp
$Comp
L power:+3.3VP #PWR039
U 1 1 621B7926
P 11600 6750
F 0 "#PWR039" H 11750 6700 50  0001 C CNN
F 1 "+3.3VP" H 11615 6923 50  0000 C CNN
F 2 "" H 11600 6750 50  0001 C CNN
F 3 "" H 11600 6750 50  0001 C CNN
	1    11600 6750
	0    -1   -1   0   
$EndComp
$Comp
L power:+3.3VP #PWR054
U 1 1 60751D4D
P 14850 7800
F 0 "#PWR054" H 15000 7750 50  0001 C CNN
F 1 "+3.3VP" V 14850 8050 50  0000 C CNN
F 2 "" H 14850 7800 50  0001 C CNN
F 3 "" H 14850 7800 50  0001 C CNN
	1    14850 7800
	0    -1   1    0   
$EndComp
$Comp
L power:+3.3VP #PWR053
U 1 1 6072F834
P 14850 6900
F 0 "#PWR053" H 15000 6850 50  0001 C CNN
F 1 "+3.3VP" V 14850 7150 50  0000 C CNN
F 2 "" H 14850 6900 50  0001 C CNN
F 3 "" H 14850 6900 50  0001 C CNN
	1    14850 6900
	0    -1   1    0   
$EndComp
$Comp
L power:+3.3VP #PWR052
U 1 1 6070D375
P 14850 6100
F 0 "#PWR052" H 15000 6050 50  0001 C CNN
F 1 "+3.3VP" V 14850 6350 50  0000 C CNN
F 2 "" H 14850 6100 50  0001 C CNN
F 3 "" H 14850 6100 50  0001 C CNN
	1    14850 6100
	0    -1   1    0   
$EndComp
$Comp
L power:+3.3VP #PWR051
U 1 1 606EB03B
P 14850 5400
F 0 "#PWR051" H 15000 5350 50  0001 C CNN
F 1 "+3.3VP" V 14850 5650 50  0000 C CNN
F 2 "" H 14850 5400 50  0001 C CNN
F 3 "" H 14850 5400 50  0001 C CNN
	1    14850 5400
	0    -1   1    0   
$EndComp
$Comp
L power:+3.3VP #PWR050
U 1 1 606C8BFE
P 14850 4600
F 0 "#PWR050" H 15000 4550 50  0001 C CNN
F 1 "+3.3VP" V 14850 4850 50  0000 C CNN
F 2 "" H 14850 4600 50  0001 C CNN
F 3 "" H 14850 4600 50  0001 C CNN
	1    14850 4600
	0    -1   1    0   
$EndComp
$Comp
L power:+3.3VP #PWR088
U 1 1 606845A8
P 20250 5100
F 0 "#PWR088" H 20400 5050 50  0001 C CNN
F 1 "+3.3VP" V 20250 5350 50  0000 C CNN
F 2 "" H 20250 5100 50  0001 C CNN
F 3 "" H 20250 5100 50  0001 C CNN
	1    20250 5100
	0    1    -1   0   
$EndComp
$Comp
L power:+3.3VP #PWR087
U 1 1 6063FEA2
P 20250 5000
F 0 "#PWR087" H 20400 4950 50  0001 C CNN
F 1 "+3.3VP" V 20250 5250 50  0000 C CNN
F 2 "" H 20250 5000 50  0001 C CNN
F 3 "" H 20250 5000 50  0001 C CNN
	1    20250 5000
	0    1    -1   0   
$EndComp
$Comp
L power:+3.3VP #PWR048
U 1 1 6061BF65
P 12600 4100
F 0 "#PWR048" H 12750 4050 50  0001 C CNN
F 1 "+3.3VP" H 12615 4273 50  0000 C CNN
F 2 "" H 12600 4100 50  0001 C CNN
F 3 "" H 12600 4100 50  0001 C CNN
	1    12600 4100
	1    0    0    -1  
$EndComp
Connection ~ 10850 4200
Wire Wire Line
	10850 4200 10850 4350
$Comp
L power:GND #PWR031
U 1 1 6052352A
P 10850 4650
F 0 "#PWR031" H 10850 4400 50  0001 C CNN
F 1 "GND" H 10850 4500 50  0000 C CNN
F 2 "" H 10850 4650 50  0001 C CNN
F 3 "" H 10850 4650 50  0001 C CNN
	1    10850 4650
	1    0    0    -1  
$EndComp
$Comp
L Device:C C4
U 1 1 60523524
P 10850 4500
F 0 "C4" H 10965 4591 50  0000 L CNN
F 1 "1u" H 10965 4500 50  0000 L CNN
F 2 "Capacitor_SMD:C_0603_1608Metric_Pad1.05x0.95mm_HandSolder" H 10888 4350 50  0001 C CNN
F 3 "~" H 10850 4500 50  0001 C CNN
F 4 "0603" H 10965 4409 50  0000 L CNN "Package"
F 5 "CL10A105KB8NNNC" H 10850 4500 50  0001 C CNN "MPN"
F 6 "C15849" H 10850 4500 50  0001 C CNN "LCSC"
	1    10850 4500
	-1   0    0    -1  
$EndComp
Wire Wire Line
	12600 4200 12600 4350
Connection ~ 12600 4200
Wire Wire Line
	12600 4100 12600 4200
Wire Wire Line
	12100 4200 12600 4200
$Comp
L power:GND #PWR049
U 1 1 60523513
P 12600 4650
F 0 "#PWR049" H 12600 4400 50  0001 C CNN
F 1 "GND" H 12600 4500 50  0000 C CNN
F 2 "" H 12600 4650 50  0001 C CNN
F 3 "" H 12600 4650 50  0001 C CNN
	1    12600 4650
	1    0    0    -1  
$EndComp
$Comp
L Device:C C11
U 1 1 6052350D
P 12600 4500
F 0 "C11" H 12715 4591 50  0000 L CNN
F 1 "2.2u" H 12715 4500 50  0000 L CNN
F 2 "Capacitor_SMD:C_0805_2012Metric_Pad1.15x1.40mm_HandSolder" H 12638 4350 50  0001 C CNN
F 3 "~" H 12600 4500 50  0001 C CNN
F 4 "0805" H 12715 4409 50  0000 L CNN "Package"
F 5 "0805F225M500NT" H 12600 4500 50  0001 C CNN "MPN"
F 6 "C49217" H 12600 4500 50  0001 C CNN "LCSC"
	1    12600 4500
	1    0    0    -1  
$EndComp
Wire Wire Line
	10850 4200 10850 4100
$Comp
L power:GND #PWR036
U 1 1 605234FF
P 11300 4350
F 0 "#PWR036" H 11300 4100 50  0001 C CNN
F 1 "GND" V 11300 4150 50  0000 C CNN
F 2 "" H 11300 4350 50  0001 C CNN
F 3 "" H 11300 4350 50  0001 C CNN
	1    11300 4350
	0    1    -1   0   
$EndComp
$Comp
L Device:CP C2
U 1 1 605234EC
P 5500 2250
F 0 "C2" H 5400 2350 50  0000 R CNN
F 1 "22u" H 5400 2250 50  0000 R CNN
F 2 "Capacitor_Tantalum_SMD:CP_EIA-3528-15_AVX-H" H 5538 2100 50  0001 C CNN
F 3 "~" H 5500 2250 50  0001 C CNN
F 4 "3528" H 5400 2150 50  0000 R CNN "Package"
F 5 "" H 5500 2250 50  0001 C CNN "MPN"
F 6 "C8020" H 5500 2250 50  0001 C CNN "LCSC"
	1    5500 2250
	1    0    0    -1  
$EndComp
$Comp
L power:GND #PWR021
U 1 1 605234E4
P 5500 2400
F 0 "#PWR021" H 5500 2150 50  0001 C CNN
F 1 "GND" H 5500 2250 50  0000 C CNN
F 2 "" H 5500 2400 50  0001 C CNN
F 3 "" H 5500 2400 50  0001 C CNN
	1    5500 2400
	-1   0    0    -1  
$EndComp
$Comp
L power:GND #PWR065
U 1 1 62728540
P 16300 4400
F 0 "#PWR065" H 16300 4150 50  0001 C CNN
F 1 "GND" V 16300 4200 50  0000 C CNN
F 2 "" H 16300 4400 50  0001 C CNN
F 3 "" H 16300 4400 50  0001 C CNN
	1    16300 4400
	0    1    -1   0   
$EndComp
Wire Wire Line
	16300 5600 15650 5600
Wire Wire Line
	16300 7100 15650 7100
NoConn ~ 16300 4700
NoConn ~ 16300 9800
NoConn ~ 19100 4500
Wire Notes Line
	10750 7900 10750 6350
Wire Notes Line
	13250 7900 10750 7900
Wire Notes Line
	13250 6350 13250 7900
Wire Notes Line
	10750 6350 13250 6350
Text Notes 20200 3300 2    250  ~ 0
PSoC 5LP Microcontroller
Wire Notes Line
	14000 3500 21250 3500
Wire Notes Line
	14000 11000 14000 3500
Wire Notes Line
	21250 11000 14000 11000
Wire Notes Line
	21250 3500 21250 11000
Wire Wire Line
	19450 4900 19100 4900
Text Label 12200 7200 0    50   ~ 0
PSOC_32KHZ_RTC
$Comp
L power:GND #PWR047
U 1 1 60745E00
P 12250 6750
F 0 "#PWR047" H 12250 6500 50  0001 C CNN
F 1 "GND" V 12250 6550 50  0000 C CNN
F 2 "" H 12250 6750 50  0001 C CNN
F 3 "" H 12250 6750 50  0001 C CNN
	1    12250 6750
	0    -1   -1   0   
$EndComp
$Comp
L power:GND #PWR042
U 1 1 6073A395
P 11750 7500
F 0 "#PWR042" H 11750 7250 50  0001 C CNN
F 1 "GND" H 11750 7350 50  0000 C CNN
F 2 "" H 11750 7500 50  0001 C CNN
F 3 "" H 11750 7500 50  0001 C CNN
	1    11750 7500
	1    0    0    -1  
$EndComp
Wire Wire Line
	11750 6750 11750 6900
Connection ~ 11750 6750
Wire Wire Line
	11600 6750 11750 6750
Wire Wire Line
	11950 6750 11750 6750
$Comp
L Device:C C9
U 1 1 6070DA01
P 12100 6750
F 0 "C9" V 12200 6850 50  0000 L CNN
F 1 "0.1u" V 12200 6650 50  0000 R CNN
F 2 "Capacitor_SMD:C_0402_1005Metric_Pad0.74x0.62mm_HandSolder" H 12138 6600 50  0001 C CNN
F 3 "~" H 12100 6750 50  0001 C CNN
F 4 "0402" V 11950 6750 50  0000 C CNN "Package"
F 5 "CL05B104KO5NNNC" H 12100 6750 50  0001 C CNN "MPN"
F 6 "C1525" V 12100 6750 50  0001 C CNN "LCSC"
	1    12100 6750
	0    -1   -1   0   
$EndComp
$Comp
L Sundial:SIT1630 X1
U 1 1 6070BCC3
P 11750 7200
F 0 "X1" H 11520 7246 50  0000 R CNN
F 1 "SIT1630" H 11520 7155 50  0000 R CNN
F 2 "Package_TO_SOT_SMD:SOT-23-5" H 11750 6850 50  0001 C CNN
F 3 "https://support.epson.biz/td/api/doc_check.php?mode=dl&lang=en&Parts=SG-3030CM" H 11650 7200 50  0001 C CNN
	1    11750 7200
	1    0    0    -1  
$EndComp
Text Label 16300 8000 2    50   ~ 0
OCXO_HSENSE2
Text Label 16300 7700 2    50   ~ 0
OCXO_HSET2
Text Label 16300 6500 2    50   ~ 0
OCXO_HSET1
Text Label 16300 5900 2    50   ~ 0
OCXO_HSENSE1
Text Label 16300 5000 2    50   ~ 0
~OCXO_SPI_SS
Text Label 16300 4900 2    50   ~ 0
OCXO_SPI_MISO
Text Label 16300 9900 2    50   ~ 0
OCXO_SPI_MOSI
Text Label 16300 10000 2    50   ~ 0
OCXO_SPI_CLK
Text Label 19450 4900 0    50   ~ 0
~PSOC_XRES
Text Label 16300 9700 2    50   ~ 0
PSOC_SWDIO
Text Label 16300 9600 2    50   ~ 0
PSOC_SWCLK
Text Label 16300 7500 2    50   ~ 0
PSOC_I2CS_SCL
Text Label 16300 7400 2    50   ~ 0
PSOC_I2CS_SDA
Text Label 16300 9200 2    50   ~ 0
TDC_TRIGGER
Text Label 16300 9300 2    50   ~ 0
TDC_ENABLE
Text Label 16300 8900 2    50   ~ 0
TDC_SPI_CLK
Text Label 16300 10200 2    50   ~ 0
~TDC_SPI_CS
Text Label 16300 9000 2    50   ~ 0
TDC_SPI_MOSI
Text Label 16300 10100 2    50   ~ 0
TDC_SPI_MISO
Text Label 16300 8200 2    50   ~ 0
~TDC_INTB
$Comp
L Device:C C18
U 1 1 5F4BB5C6
P 15500 7100
F 0 "C18" V 15400 7200 50  0000 L CNN
F 1 "1u" V 15400 7000 50  0000 R CNN
F 2 "Capacitor_SMD:C_0603_1608Metric_Pad1.05x0.95mm_HandSolder" H 15538 6950 50  0001 C CNN
F 3 "~" H 15500 7100 50  0001 C CNN
F 4 "0603" V 15350 7100 50  0000 C CNN "Package"
F 5 "CL10A105KB8NNNC" H 15500 7100 50  0001 C CNN "MPN"
F 6 "C15849" V 15500 7100 50  0001 C CNN "LCSC"
	1    15500 7100
	0    1    1    0   
$EndComp
$Comp
L power:GND #PWR062
U 1 1 5F4BB5BE
P 15350 7100
F 0 "#PWR062" H 15350 6850 50  0001 C CNN
F 1 "GND" H 15350 6950 50  0000 C CNN
F 2 "" H 15350 7100 50  0001 C CNN
F 3 "" H 15350 7100 50  0001 C CNN
	1    15350 7100
	0    1    -1   0   
$EndComp
$Comp
L Device:C C17
U 1 1 5F4B6B6E
P 15500 5600
F 0 "C17" V 15400 5700 50  0000 L CNN
F 1 "1u" V 15400 5500 50  0000 R CNN
F 2 "Capacitor_SMD:C_0603_1608Metric_Pad1.05x0.95mm_HandSolder" H 15538 5450 50  0001 C CNN
F 3 "~" H 15500 5600 50  0001 C CNN
F 4 "0603" V 15350 5600 50  0000 C CNN "Package"
F 5 "CL10A105KB8NNNC" H 15500 5600 50  0001 C CNN "MPN"
F 6 "C15849" V 15500 5600 50  0001 C CNN "LCSC"
	1    15500 5600
	0    1    1    0   
$EndComp
$Comp
L power:GND #PWR061
U 1 1 5F4B6B66
P 15350 5600
F 0 "#PWR061" H 15350 5350 50  0001 C CNN
F 1 "GND" H 15350 5450 50  0000 C CNN
F 2 "" H 15350 5600 50  0001 C CNN
F 3 "" H 15350 5600 50  0001 C CNN
	1    15350 5600
	0    1    -1   0   
$EndComp
$Comp
L power:GND #PWR068
U 1 1 5F4AB577
P 16300 7000
F 0 "#PWR068" H 16300 6750 50  0001 C CNN
F 1 "GND" V 16300 6800 50  0000 C CNN
F 2 "" H 16300 7000 50  0001 C CNN
F 3 "" H 16300 7000 50  0001 C CNN
	1    16300 7000
	0    1    -1   0   
$EndComp
$Comp
L power:GND #PWR067
U 1 1 5F4AA30A
P 16300 6800
F 0 "#PWR067" H 16300 6550 50  0001 C CNN
F 1 "GND" V 16300 6600 50  0000 C CNN
F 2 "" H 16300 6800 50  0001 C CNN
F 3 "" H 16300 6800 50  0001 C CNN
	1    16300 6800
	0    1    -1   0   
$EndComp
$Comp
L power:GND #PWR066
U 1 1 5F4A9058
P 16300 5500
F 0 "#PWR066" H 16300 5250 50  0001 C CNN
F 1 "GND" V 16300 5300 50  0000 C CNN
F 2 "" H 16300 5500 50  0001 C CNN
F 3 "" H 16300 5500 50  0001 C CNN
	1    16300 5500
	0    1    -1   0   
$EndComp
Wire Wire Line
	19100 5300 19250 5300
Wire Wire Line
	19250 5450 19250 5300
$Comp
L power:GND #PWR079
U 1 1 5F4A2A11
P 19250 5750
F 0 "#PWR079" H 19250 5500 50  0001 C CNN
F 1 "GND" H 19255 5577 50  0000 C CNN
F 2 "" H 19250 5750 50  0001 C CNN
F 3 "" H 19250 5750 50  0001 C CNN
	1    19250 5750
	-1   0    0    -1  
$EndComp
$Comp
L Device:C C21
U 1 1 5F4A2A0B
P 19250 5600
F 0 "C21" H 19365 5691 50  0000 L CNN
F 1 "1u" H 19365 5600 50  0000 L CNN
F 2 "Capacitor_SMD:C_0603_1608Metric_Pad1.05x0.95mm_HandSolder" H 19288 5450 50  0001 C CNN
F 3 "~" H 19250 5600 50  0001 C CNN
F 4 "0603" H 19365 5509 50  0000 L CNN "Package"
F 5 "CL10A105KB8NNNC" H 19250 5600 50  0001 C CNN "MPN"
F 6 "C15849" H 19250 5600 50  0001 C CNN "LCSC"
	1    19250 5600
	-1   0    0    -1  
$EndComp
$Comp
L power:GND #PWR077
U 1 1 5F4A03C7
P 19100 5200
F 0 "#PWR077" H 19100 4950 50  0001 C CNN
F 1 "GND" V 19100 5000 50  0000 C CNN
F 2 "" H 19100 5200 50  0001 C CNN
F 3 "" H 19100 5200 50  0001 C CNN
	1    19100 5200
	0    -1   1    0   
$EndComp
$Comp
L power:GND #PWR074
U 1 1 5F49EAB6
P 19100 4600
F 0 "#PWR074" H 19100 4350 50  0001 C CNN
F 1 "GND" V 19100 4400 50  0000 C CNN
F 2 "" H 19100 4600 50  0001 C CNN
F 3 "" H 19100 4600 50  0001 C CNN
	1    19100 4600
	0    -1   1    0   
$EndComp
$Comp
L power:GND #PWR075
U 1 1 5F49D7DA
P 19100 4700
F 0 "#PWR075" H 19100 4450 50  0001 C CNN
F 1 "GND" V 19100 4500 50  0000 C CNN
F 2 "" H 19100 4700 50  0001 C CNN
F 3 "" H 19100 4700 50  0001 C CNN
	1    19100 4700
	0    -1   1    0   
$EndComp
$Comp
L power:GND #PWR076
U 1 1 5F49C24E
P 19100 4800
F 0 "#PWR076" H 19100 4550 50  0001 C CNN
F 1 "GND" V 19100 4600 50  0000 C CNN
F 2 "" H 19100 4800 50  0001 C CNN
F 3 "" H 19100 4800 50  0001 C CNN
	1    19100 4800
	0    -1   1    0   
$EndComp
$Comp
L power:GND #PWR073
U 1 1 5F49B126
P 19100 4400
F 0 "#PWR073" H 19100 4150 50  0001 C CNN
F 1 "GND" V 19100 4200 50  0000 C CNN
F 2 "" H 19100 4400 50  0001 C CNN
F 3 "" H 19100 4400 50  0001 C CNN
	1    19100 4400
	0    -1   1    0   
$EndComp
Wire Wire Line
	20100 5100 20250 5100
Connection ~ 20100 5100
Wire Wire Line
	19100 5100 20100 5100
Wire Wire Line
	20100 5250 20100 5100
$Comp
L power:GND #PWR086
U 1 1 5F499D6B
P 20100 5550
F 0 "#PWR086" H 20100 5300 50  0001 C CNN
F 1 "GND" H 20105 5377 50  0000 C CNN
F 2 "" H 20100 5550 50  0001 C CNN
F 3 "" H 20100 5550 50  0001 C CNN
	1    20100 5550
	-1   0    0    -1  
$EndComp
$Comp
L Device:C C24
U 1 1 5F499D65
P 20100 5400
F 0 "C24" H 20215 5491 50  0000 L CNN
F 1 "0.1u" H 20215 5400 50  0000 L CNN
F 2 "Capacitor_SMD:C_0402_1005Metric_Pad0.74x0.62mm_HandSolder" H 20138 5250 50  0001 C CNN
F 3 "~" H 20100 5400 50  0001 C CNN
F 4 "0402" H 20215 5309 50  0000 L CNN "Package"
F 5 "CL05B104KO5NNNC" H 20100 5400 50  0001 C CNN "MPN"
F 6 "C1525" H 20100 5400 50  0001 C CNN "LCSC"
	1    20100 5400
	1    0    0    -1  
$EndComp
Wire Wire Line
	20100 5000 20250 5000
Connection ~ 20100 5000
Wire Wire Line
	19100 5000 20100 5000
Wire Wire Line
	20100 4850 20100 5000
$Comp
L power:GND #PWR085
U 1 1 5F49847B
P 20100 4550
F 0 "#PWR085" H 20100 4300 50  0001 C CNN
F 1 "GND" H 20105 4377 50  0000 C CNN
F 2 "" H 20100 4550 50  0001 C CNN
F 3 "" H 20100 4550 50  0001 C CNN
	1    20100 4550
	-1   0    0    1   
$EndComp
$Comp
L Device:C C23
U 1 1 5F498475
P 20100 4700
F 0 "C23" H 20215 4791 50  0000 L CNN
F 1 "0.1u" H 20215 4700 50  0000 L CNN
F 2 "Capacitor_SMD:C_0402_1005Metric_Pad0.74x0.62mm_HandSolder" H 20138 4550 50  0001 C CNN
F 3 "~" H 20100 4700 50  0001 C CNN
F 4 "0402" H 20215 4609 50  0000 L CNN "Package"
F 5 "CL05B104KO5NNNC" H 20100 4700 50  0001 C CNN "MPN"
F 6 "C1525" H 20100 4700 50  0001 C CNN "LCSC"
	1    20100 4700
	1    0    0    -1  
$EndComp
$Comp
L power:GND #PWR059
U 1 1 5F4955A7
P 15000 8200
F 0 "#PWR059" H 15000 7950 50  0001 C CNN
F 1 "GND" H 15005 8027 50  0000 C CNN
F 2 "" H 15000 8200 50  0001 C CNN
F 3 "" H 15000 8200 50  0001 C CNN
	1    15000 8200
	-1   0    0    -1  
$EndComp
$Comp
L Device:C C16
U 1 1 5F4955A1
P 15000 8050
F 0 "C16" H 15115 8141 50  0000 L CNN
F 1 "0.1u" H 15115 8050 50  0000 L CNN
F 2 "Capacitor_SMD:C_0402_1005Metric_Pad0.74x0.62mm_HandSolder" H 15038 7900 50  0001 C CNN
F 3 "~" H 15000 8050 50  0001 C CNN
F 4 "0402" H 15115 7959 50  0000 L CNN "Package"
F 5 "CL05B104KO5NNNC" H 15000 8050 50  0001 C CNN "MPN"
F 6 "C1525" H 15000 8050 50  0001 C CNN "LCSC"
	1    15000 8050
	-1   0    0    -1  
$EndComp
Wire Wire Line
	15000 6900 14850 6900
Connection ~ 15000 6900
Wire Wire Line
	16300 6900 15000 6900
Wire Wire Line
	15000 6750 15000 6900
$Comp
L power:GND #PWR058
U 1 1 5F493F80
P 15000 6450
F 0 "#PWR058" H 15000 6200 50  0001 C CNN
F 1 "GND" H 15005 6277 50  0000 C CNN
F 2 "" H 15000 6450 50  0001 C CNN
F 3 "" H 15000 6450 50  0001 C CNN
	1    15000 6450
	1    0    0    1   
$EndComp
$Comp
L Device:C C15
U 1 1 5F493F7A
P 15000 6600
F 0 "C15" H 15115 6691 50  0000 L CNN
F 1 "0.1u" H 15115 6600 50  0000 L CNN
F 2 "Capacitor_SMD:C_0402_1005Metric_Pad0.74x0.62mm_HandSolder" H 15038 6450 50  0001 C CNN
F 3 "~" H 15000 6600 50  0001 C CNN
F 4 "0402" H 15115 6509 50  0000 L CNN "Package"
F 5 "CL05B104KO5NNNC" H 15000 6600 50  0001 C CNN "MPN"
F 6 "C1525" H 15000 6600 50  0001 C CNN "LCSC"
	1    15000 6600
	-1   0    0    -1  
$EndComp
Wire Wire Line
	15000 6100 14850 6100
Connection ~ 15000 6100
Wire Wire Line
	16300 6100 15000 6100
Wire Wire Line
	15000 5950 15000 6100
$Comp
L power:GND #PWR057
U 1 1 5F4926DA
P 15000 5650
F 0 "#PWR057" H 15000 5400 50  0001 C CNN
F 1 "GND" H 15005 5477 50  0000 C CNN
F 2 "" H 15000 5650 50  0001 C CNN
F 3 "" H 15000 5650 50  0001 C CNN
	1    15000 5650
	1    0    0    1   
$EndComp
$Comp
L Device:C C14
U 1 1 5F4926D4
P 15000 5800
F 0 "C14" H 15115 5891 50  0000 L CNN
F 1 "0.1u" H 15115 5800 50  0000 L CNN
F 2 "Capacitor_SMD:C_0402_1005Metric_Pad0.74x0.62mm_HandSolder" H 15038 5650 50  0001 C CNN
F 3 "~" H 15000 5800 50  0001 C CNN
F 4 "0402" H 15115 5709 50  0000 L CNN "Package"
F 5 "CL05B104KO5NNNC" H 15000 5800 50  0001 C CNN "MPN"
F 6 "C1525" H 15000 5800 50  0001 C CNN "LCSC"
	1    15000 5800
	-1   0    0    -1  
$EndComp
Wire Wire Line
	15000 5400 14850 5400
Connection ~ 15000 5400
Wire Wire Line
	16300 5400 15000 5400
Wire Wire Line
	15000 5250 15000 5400
$Comp
L power:GND #PWR056
U 1 1 5F491662
P 15000 4950
F 0 "#PWR056" H 15000 4700 50  0001 C CNN
F 1 "GND" H 15005 4777 50  0000 C CNN
F 2 "" H 15000 4950 50  0001 C CNN
F 3 "" H 15000 4950 50  0001 C CNN
	1    15000 4950
	1    0    0    1   
$EndComp
$Comp
L Device:C C13
U 1 1 5F49165C
P 15000 5100
F 0 "C13" H 15115 5191 50  0000 L CNN
F 1 "0.1u" H 15115 5100 50  0000 L CNN
F 2 "Capacitor_SMD:C_0402_1005Metric_Pad0.74x0.62mm_HandSolder" H 15038 4950 50  0001 C CNN
F 3 "~" H 15000 5100 50  0001 C CNN
F 4 "0402" H 15115 5009 50  0000 L CNN "Package"
F 5 "CL05B104KO5NNNC" H 15000 5100 50  0001 C CNN "MPN"
F 6 "C1525" H 15000 5100 50  0001 C CNN "LCSC"
	1    15000 5100
	-1   0    0    -1  
$EndComp
Wire Wire Line
	15000 4600 14850 4600
Connection ~ 15000 4600
Wire Wire Line
	16300 4600 15000 4600
Wire Wire Line
	15000 4450 15000 4600
$Comp
L power:GND #PWR055
U 1 1 5F48E89D
P 15000 4150
F 0 "#PWR055" H 15000 3900 50  0001 C CNN
F 1 "GND" H 15005 3977 50  0000 C CNN
F 2 "" H 15000 4150 50  0001 C CNN
F 3 "" H 15000 4150 50  0001 C CNN
	1    15000 4150
	1    0    0    1   
$EndComp
$Comp
L Device:C C12
U 1 1 5F48E897
P 15000 4300
F 0 "C12" H 15115 4391 50  0000 L CNN
F 1 "0.1u" H 15115 4300 50  0000 L CNN
F 2 "Capacitor_SMD:C_0402_1005Metric_Pad0.74x0.62mm_HandSolder" H 15038 4150 50  0001 C CNN
F 3 "~" H 15000 4300 50  0001 C CNN
F 4 "0402" H 15115 4209 50  0000 L CNN "Package"
F 5 "CL05B104KO5NNNC" H 15000 4300 50  0001 C CNN "MPN"
F 6 "C1525" H 15000 4300 50  0001 C CNN "LCSC"
	1    15000 4300
	-1   0    0    -1  
$EndComp
$Comp
L Sundial:CY8C5866LTI-LP022 U10
U 1 1 5F458528
P 19100 4400
F 0 "U10" H 20500 4788 60  0000 C CNN
F 1 "CY8C5866LTI-LP022" H 20500 4682 60  0000 C CNN
F 2 "Package_DFN_QFN:QFN-68-1EP_8x8mm_P0.4mm_EP5.2x5.2mm" H 20500 4640 60  0001 C CNN
F 3 "" H 19100 4400 60  0000 C CNN
	1    19100 4400
	-1   0    0    -1  
$EndComp
$Comp
L power:+5V #PWR020
U 1 1 64DF738B
P 5500 2100
F 0 "#PWR020" H 5500 1950 50  0001 C CNN
F 1 "+5V" H 5500 2250 50  0000 C CNN
F 2 "" H 5500 2100 50  0001 C CNN
F 3 "" H 5500 2100 50  0001 C CNN
	1    5500 2100
	-1   0    0    -1  
$EndComp
$Comp
L power:+3.3VP #PWR0101
U 1 1 650ED639
P 5000 12100
F 0 "#PWR0101" H 5150 12050 50  0001 C CNN
F 1 "+3.3VP" H 5015 12273 50  0000 C CNN
F 2 "" H 5000 12100 50  0001 C CNN
F 3 "" H 5000 12100 50  0001 C CNN
	1    5000 12100
	1    0    0    -1  
$EndComp
$Comp
L power:+3.3VP #PWR0102
U 1 1 65104C41
P 19750 8750
F 0 "#PWR0102" H 19900 8700 50  0001 C CNN
F 1 "+3.3VP" H 19765 8923 50  0000 C CNN
F 2 "" H 19750 8750 50  0001 C CNN
F 3 "" H 19750 8750 50  0001 C CNN
	1    19750 8750
	1    0    0    -1  
$EndComp
$Comp
L power:+3.3VP #PWR0103
U 1 1 6511C114
P 19750 6900
F 0 "#PWR0103" H 19900 6850 50  0001 C CNN
F 1 "+3.3VP" H 19765 7073 50  0000 C CNN
F 2 "" H 19750 6900 50  0001 C CNN
F 3 "" H 19750 6900 50  0001 C CNN
	1    19750 6900
	1    0    0    -1  
$EndComp
Wire Notes Line
	15500 19750 15500 17000
Wire Notes Line
	8500 19750 8500 17000
Wire Notes Line
	8500 17000 15500 17000
Text Notes 10750 16850 0    250  ~ 0
CLOCK_DIVIDER
Text Label 14000 18700 0    50   ~ 0
OCXO_CLK+_RETIMER_OUT
Wire Wire Line
	14000 18700 13850 18700
$Comp
L power:GND #PWR041
U 1 1 64A5A5BB
P 13600 19050
F 0 "#PWR041" H 13600 18800 50  0001 C CNN
F 1 "GND" H 13600 18900 50  0000 C CNN
F 2 "" H 13600 19050 50  0001 C CNN
F 3 "" H 13600 19050 50  0001 C CNN
	1    13600 19050
	1    0    0    -1  
$EndComp
$Comp
L power:+3.3VP #PWR040
U 1 1 64A73104
P 13600 18250
F 0 "#PWR040" H 13750 18200 50  0001 C CNN
F 1 "+3.3VP" H 13600 18400 50  0000 C CNN
F 2 "" H 13600 18250 50  0001 C CNN
F 3 "" H 13600 18250 50  0001 C CNN
	1    13600 18250
	1    0    0    -1  
$EndComp
$Comp
L power:GND #PWR043
U 1 1 64A7310A
P 14100 18400
F 0 "#PWR043" H 14100 18150 50  0001 C CNN
F 1 "GND" V 14100 18200 50  0000 C CNN
F 2 "" H 14100 18400 50  0001 C CNN
F 3 "" H 14100 18400 50  0001 C CNN
	1    14100 18400
	0    -1   -1   0   
$EndComp
Wire Wire Line
	13600 18400 13600 18550
Connection ~ 13600 18400
Wire Wire Line
	13600 18250 13600 18400
Wire Wire Line
	13800 18400 13600 18400
$Comp
L Device:C C8
U 1 1 64A73116
P 13950 18400
F 0 "C8" V 14050 18500 50  0000 L CNN
F 1 "0.1u" V 14050 18300 50  0000 R CNN
F 2 "Capacitor_SMD:C_0402_1005Metric_Pad0.74x0.62mm_HandSolder" H 13988 18250 50  0001 C CNN
F 3 "~" H 13950 18400 50  0001 C CNN
F 4 "0402" V 13800 18400 50  0000 C CNN "Package"
F 5 "CL05B104KO5NNNC" H 13950 18400 50  0001 C CNN "MPN"
F 6 "C1525" V 13950 18400 50  0001 C CNN "LCSC"
	1    13950 18400
	0    -1   -1   0   
$EndComp
$Comp
L Sundial:74x1G79 U6
U 1 1 60670B7C
P 13600 18800
F 0 "U6" H 13850 18800 50  0000 L CNN
F 1 "74x1G79" H 13850 18700 50  0000 L CNN
F 2 "Package_TO_SOT_SMD:SOT-353_SC-70-5" H 13600 18800 50  0001 C CNN
F 3 "" H 13600 18800 50  0001 C CNN
F 4 "SC-70-5" H 13850 18600 50  0000 L CNN "Package"
F 5 "SN74LVC1G79DBVR" H 13600 18800 50  0001 C CNN "MPN"
F 6 "C42878" H 13600 18800 50  0001 C CNN "LCSC"
	1    13600 18800
	1    0    0    -1  
$EndComp
$Comp
L Sundial:74LVC1G3157 U11
U 1 1 600C8BBE
P 11500 18700
F 0 "U11" H 11300 18350 50  0000 R CNN
F 1 "74LVC1G3157" H 11300 18250 50  0000 R CNN
F 2 "Package_TO_SOT_SMD:SOT-363_SC-70-6" H 11500 18700 50  0001 C CNN
F 3 "" H 11500 18700 50  0001 C CNN
F 4 "SC-70-6" H 11300 18150 50  0000 R CNN "Package"
F 5 "SN74LVC1G3157DCKR" H 11500 18700 50  0001 C CNN "MPN"
F 6 "C38663" H 11500 18700 50  0001 C CNN "LCSC"
	1    11500 18700
	-1   0    0    -1  
$EndComp
Text Label 13350 18900 2    50   ~ 0
OCXO_CLK+_OUT
NoConn ~ 10700 18800
$Comp
L 4xxx:4017 U3
U 1 1 644FFDAE
P 10200 18400
F 0 "U3" H 9800 18300 50  0000 R CNN
F 1 "4017" H 9800 18200 50  0000 R CNN
F 2 "Package_SO:TSSOP-16_4.4x5mm_P0.65mm" H 10200 18400 50  0001 C CNN
F 3 "http://www.intersil.com/content/dam/Intersil/documents/cd40/cd4017bms-22bms.pdf" H 10200 18400 50  0001 C CNN
F 4 "TSSOP-16" H 9800 18100 50  0000 R CNN "Package"
	1    10200 18400
	1    0    0    -1  
$EndComp
Text Label 9700 17900 2    50   ~ 0
OCXO_CLK+_OUT
$Comp
L power:GND #PWR023
U 1 1 645F5C93
P 9700 18000
F 0 "#PWR023" H 9700 17750 50  0001 C CNN
F 1 "GND" V 9700 17800 50  0000 C CNN
F 2 "" H 9700 18000 50  0001 C CNN
F 3 "" H 9700 18000 50  0001 C CNN
	1    9700 18000
	0    1    1    0   
$EndComp
$Comp
L power:GND #PWR026
U 1 1 6460CB51
P 10200 19300
F 0 "#PWR026" H 10200 19050 50  0001 C CNN
F 1 "GND" H 10200 19150 50  0000 C CNN
F 2 "" H 10200 19300 50  0001 C CNN
F 3 "" H 10200 19300 50  0001 C CNN
	1    10200 19300
	1    0    0    -1  
$EndComp
$Comp
L Device:C C5
U 1 1 64624837
P 10550 17400
F 0 "C5" V 10650 17500 50  0000 L CNN
F 1 "0.1u" V 10650 17300 50  0000 R CNN
F 2 "Capacitor_SMD:C_0402_1005Metric_Pad0.74x0.62mm_HandSolder" H 10588 17250 50  0001 C CNN
F 3 "~" H 10550 17400 50  0001 C CNN
F 4 "0402" V 10400 17400 50  0000 C CNN "Package"
F 5 "CL05B104KO5NNNC" H 10550 17400 50  0001 C CNN "MPN"
F 6 "C1525" V 10550 17400 50  0001 C CNN "LCSC"
	1    10550 17400
	0    -1   -1   0   
$EndComp
Wire Wire Line
	10400 17400 10200 17400
Wire Wire Line
	10050 17400 10200 17400
Connection ~ 10200 17400
Wire Wire Line
	10200 17400 10200 17600
$Comp
L power:GND #PWR034
U 1 1 64624841
P 10700 17400
F 0 "#PWR034" H 10700 17150 50  0001 C CNN
F 1 "GND" V 10700 17200 50  0000 C CNN
F 2 "" H 10700 17400 50  0001 C CNN
F 3 "" H 10700 17400 50  0001 C CNN
	1    10700 17400
	0    -1   -1   0   
$EndComp
$Comp
L power:+3.3VP #PWR025
U 1 1 64624847
P 10050 17400
F 0 "#PWR025" H 10200 17350 50  0001 C CNN
F 1 "+3.3VP" V 10050 17650 50  0000 C CNN
F 2 "" H 10050 17400 50  0001 C CNN
F 3 "" H 10050 17400 50  0001 C CNN
	1    10050 17400
	0    -1   -1   0   
$EndComp
NoConn ~ 10700 17900
NoConn ~ 10700 18000
NoConn ~ 10700 18100
NoConn ~ 10700 18200
NoConn ~ 10700 18500
NoConn ~ 10700 18600
NoConn ~ 10700 18700
Text Label 9700 18200 2    50   ~ 0
OCXO_CLK+_DIV_OUT
NoConn ~ 10700 18300
Text Label 9850 15000 2    50   ~ 0
EXT_REF_CLK
Wire Wire Line
	11800 10100 11650 10100
Text Label 11800 10100 0    50   ~ 0
TDC_STOP_PULSE
Text Label 10600 10000 2    50   ~ 0
TDC_STOP_PULSE_EN
$Comp
L power:GND #PWR032
U 1 1 63B3E5E3
P 10900 10300
F 0 "#PWR032" H 10900 10050 50  0001 C CNN
F 1 "GND" H 10900 10150 50  0000 C CNN
F 2 "" H 10900 10300 50  0001 C CNN
F 3 "" H 10900 10300 50  0001 C CNN
	1    10900 10300
	1    0    0    -1  
$EndComp
$Comp
L power:+3.3VP #PWR028
U 1 1 63B3E5DD
P 10750 9700
F 0 "#PWR028" H 10900 9650 50  0001 C CNN
F 1 "+3.3VP" V 10750 9950 50  0000 C CNN
F 2 "" H 10750 9700 50  0001 C CNN
F 3 "" H 10750 9700 50  0001 C CNN
	1    10750 9700
	0    -1   -1   0   
$EndComp
$Comp
L power:GND #PWR037
U 1 1 63B3E5D7
P 11400 9700
F 0 "#PWR037" H 11400 9450 50  0001 C CNN
F 1 "GND" V 11400 9500 50  0000 C CNN
F 2 "" H 11400 9700 50  0001 C CNN
F 3 "" H 11400 9700 50  0001 C CNN
	1    11400 9700
	0    -1   -1   0   
$EndComp
Wire Wire Line
	10900 9700 10900 9900
Connection ~ 10900 9700
Wire Wire Line
	10750 9700 10900 9700
Wire Wire Line
	11100 9700 10900 9700
$Comp
L Device:C C6
U 1 1 63B3E5CD
P 11250 9700
F 0 "C6" V 11350 9800 50  0000 L CNN
F 1 "0.1u" V 11350 9600 50  0000 R CNN
F 2 "Capacitor_SMD:C_0402_1005Metric_Pad0.74x0.62mm_HandSolder" H 11288 9550 50  0001 C CNN
F 3 "~" H 11250 9700 50  0001 C CNN
F 4 "0402" V 11100 9700 50  0000 C CNN "Package"
F 5 "CL05B104KO5NNNC" H 11250 9700 50  0001 C CNN "MPN"
F 6 "C1525" V 11250 9700 50  0001 C CNN "LCSC"
	1    11250 9700
	0    -1   -1   0   
$EndComp
$Comp
L Sundial:74x1G126 U4
U 1 1 63B3E5C4
P 10900 10100
F 0 "U4" H 11050 9900 50  0000 L CNN
F 1 "74LVC1G126" H 11050 9800 50  0000 L CNN
F 2 "Package_TO_SOT_SMD:SOT-353_SC-70-5" H 10900 10100 50  0001 C CNN
F 3 "" H 10900 10100 50  0001 C CNN
F 4 "SC-70-5" H 11050 9700 50  0000 L CNN "Package"
F 5 "SN74LVC1G126DCKR" H 10900 10100 50  0001 C CNN "MPN"
F 6 "C88039" H 10900 10100 50  0001 C CNN "LCSC"
	1    10900 10100
	1    0    0    -1  
$EndComp
Wire Wire Line
	11350 10100 11200 10100
Text Label 10500 12250 2    50   ~ 0
OCXO_CLK+_OUT
Text Label 11250 13400 0    50   ~ 0
~CLK_PULSE_RESET
Wire Wire Line
	11050 13400 11250 13400
Wire Wire Line
	10550 13400 10750 13400
$Comp
L Device:R R6
U 1 1 62E88B2C
P 10900 13400
F 0 "R6" V 10800 13400 50  0000 C CNN
F 1 "0" V 10900 13400 50  0000 C CNN
F 2 "Resistor_SMD:R_0402_1005Metric_Pad0.72x0.64mm_HandSolder" V 10830 13400 50  0001 C CNN
F 3 "~" H 10900 13400 50  0001 C CNN
F 4 "0402" V 11000 13400 50  0000 C CNN "Package"
F 5 "0402WGF0000TCE" V 10900 13400 50  0001 C CNN "MPN"
F 6 "C17168" V 10900 13400 50  0001 C CNN "LCSC"
	1    10900 13400
	0    1    1    0   
$EndComp
Text Label 10550 13400 2    50   ~ 0
~PSOC_PHASE_CMP_RESET
Text Label 11250 13100 0    50   ~ 0
~CLK_PULSE_RESET
Wire Wire Line
	11050 13100 11250 13100
Wire Wire Line
	10550 13100 10750 13100
$Comp
L Device:R R5
U 1 1 62E5A13E
P 10900 13100
F 0 "R5" V 10800 13100 50  0000 C CNN
F 1 "0" V 10900 13100 50  0000 C CNN
F 2 "Resistor_SMD:R_0402_1005Metric_Pad0.72x0.64mm_HandSolder" V 10830 13100 50  0001 C CNN
F 3 "~" H 10900 13100 50  0001 C CNN
F 4 "0402" V 11000 13100 50  0000 C CNN "Package"
F 5 "0402WGF0000TCE" V 10900 13100 50  0001 C CNN "MPN"
F 6 "C17168" V 10900 13100 50  0001 C CNN "LCSC"
	1    10900 13100
	0    1    1    0   
$EndComp
Text Label 10500 11750 2    50   ~ 0
~CLK_PULSE_RESET
Text Label 9700 15350 2    50   ~ 0
~CLK_PULSE_RESET
Text Label 10500 12050 2    50   ~ 0
TDC_START_PULSE
Text Label 10500 11950 2    50   ~ 0
TDC_START_PULSE
Wire Notes Line
	8500 16000 13250 16000
Wire Notes Line
	8500 16000 8500 9000
Wire Notes Line
	13250 9000 13250 16000
Wire Notes Line
	8500 9000 13250 9000
Text Notes 9100 8850 0    250  ~ 0
START/STOP PULSE
$Comp
L power:+3.3VP #PWR024
U 1 1 6186F15F
P 10100 14300
F 0 "#PWR024" H 10250 14250 50  0001 C CNN
F 1 "+3.3VP" H 10100 14450 50  0000 C CNN
F 2 "" H 10100 14300 50  0001 C CNN
F 3 "" H 10100 14300 50  0001 C CNN
	1    10100 14300
	1    0    0    -1  
$EndComp
$Comp
L power:GND #PWR027
U 1 1 6186F159
P 10600 14450
F 0 "#PWR027" H 10600 14200 50  0001 C CNN
F 1 "GND" V 10600 14250 50  0000 C CNN
F 2 "" H 10600 14450 50  0001 C CNN
F 3 "" H 10600 14450 50  0001 C CNN
	1    10600 14450
	0    -1   -1   0   
$EndComp
Connection ~ 10100 14450
Wire Wire Line
	10100 14300 10100 14450
Wire Wire Line
	10300 14450 10100 14450
$Comp
L Device:C C3
U 1 1 6186F14F
P 10450 14450
F 0 "C3" V 10550 14550 50  0000 L CNN
F 1 "0.1u" V 10550 14350 50  0000 R CNN
F 2 "Capacitor_SMD:C_0402_1005Metric_Pad0.74x0.62mm_HandSolder" H 10488 14300 50  0001 C CNN
F 3 "~" H 10450 14450 50  0001 C CNN
F 4 "0402" V 10300 14450 50  0000 C CNN "Package"
F 5 "CL05B104KO5NNNC" H 10450 14450 50  0001 C CNN "MPN"
F 6 "C1525" V 10450 14450 50  0001 C CNN "LCSC"
	1    10450 14450
	0    -1   -1   0   
$EndComp
$Comp
L power:GND #PWR022
U 1 1 6167388A
P 9950 15050
F 0 "#PWR022" H 9950 14800 50  0001 C CNN
F 1 "GND" H 9950 14900 50  0000 C CNN
F 2 "" H 9950 15050 50  0001 C CNN
F 3 "" H 9950 15050 50  0001 C CNN
	1    9950 15050
	1    0    0    -1  
$EndComp
NoConn ~ 10350 15000
Connection ~ 9950 14450
Wire Wire Line
	9700 14800 9850 14800
Wire Wire Line
	9700 14450 9700 14800
Wire Wire Line
	9950 14450 9700 14450
Wire Wire Line
	10100 14450 10100 14650
Wire Wire Line
	9950 14450 10100 14450
Wire Wire Line
	9950 14750 9950 14450
$Comp
L power:+3.3VP #PWR029
U 1 1 615F49BA
P 10750 11250
F 0 "#PWR029" H 10900 11200 50  0001 C CNN
F 1 "+3.3VP" V 10750 11500 50  0000 C CNN
F 2 "" H 10750 11250 50  0001 C CNN
F 3 "" H 10750 11250 50  0001 C CNN
	1    10750 11250
	0    -1   -1   0   
$EndComp
$Comp
L power:+3.3VP #PWR044
U 1 1 61466140
P 12100 14000
F 0 "#PWR044" H 12250 13950 50  0001 C CNN
F 1 "+3.3VP" H 12115 14173 50  0000 C CNN
F 2 "" H 12100 14000 50  0001 C CNN
F 3 "" H 12100 14000 50  0001 C CNN
	1    12100 14000
	1    0    0    -1  
$EndComp
$Comp
L Device:R R9
U 1 1 61466139
P 12100 14150
F 0 "R9" V 12000 14150 50  0000 C CNN
F 1 "1k" V 12100 14150 50  0000 C CNN
F 2 "Resistor_SMD:R_0402_1005Metric_Pad0.72x0.64mm_HandSolder" V 12030 14150 50  0001 C CNN
F 3 "~" H 12100 14150 50  0001 C CNN
F 4 "0402" V 12200 14150 50  0000 C CNN "Package"
F 5 "0402WGF1001TCE" V 12100 14150 50  0001 C CNN "MPN"
F 6 "C11702" V 12100 14150 50  0001 C CNN "LCSC"
	1    12100 14150
	1    0    0    -1  
$EndComp
$Comp
L power:GND #PWR045
U 1 1 61466131
P 12100 15000
F 0 "#PWR045" H 12100 14750 50  0001 C CNN
F 1 "GND" H 12100 14850 50  0000 C CNN
F 2 "" H 12100 15000 50  0001 C CNN
F 3 "" H 12100 15000 50  0001 C CNN
	1    12100 15000
	-1   0    0    -1  
$EndComp
$Comp
L Device:LED D3
U 1 1 6146612B
P 12100 14450
F 0 "D3" V 12200 14550 50  0000 L CNN
F 1 "LED" V 12000 14550 50  0000 L CNN
F 2 "LED_SMD:LED_0603_1608Metric_Pad1.05x0.95mm_HandSolder" H 12100 14450 50  0001 C CNN
F 3 "~" H 12100 14450 50  0001 C CNN
F 4 "0603" V 12100 14550 50  0000 L CNN "Package"
F 5 "19-217/GHC-YR1S2/3T" V 12100 14450 50  0001 C CNN "MPN"
F 6 "C72043" V 12100 14450 50  0001 C CNN "LCSC"
	1    12100 14450
	0    1    -1   0   
$EndComp
$Comp
L Device:Q_NMOS_GSD Q3
U 1 1 61466125
P 12000 14800
F 0 "Q3" H 12205 14846 50  0000 L CNN
F 1 "Q_NMOS_GSD" H 12205 14755 50  0000 L CNN
F 2 "Package_TO_SOT_SMD:SOT-323_SC-70" H 12200 14900 50  0001 C CNN
F 3 "~" H 12000 14800 50  0001 C CNN
F 4 "DMN3150LW-7" H 12000 14800 50  0001 C CNN "MPN"
F 5 "C397976" H 12000 14800 50  0001 C CNN "LCSC"
	1    12000 14800
	1    0    0    -1  
$EndComp
Text Label 11000 14800 0    50   ~ 0
TDC_START_PULSE
Wire Wire Line
	10850 14800 11800 14800
Wire Wire Line
	10350 14800 10550 14800
$Comp
L Device:R R4
U 1 1 609B6291
P 10700 14800
F 0 "R4" V 10600 14800 50  0000 C CNN
F 1 "10" V 10700 14800 50  0000 C CNN
F 2 "Resistor_SMD:R_0402_1005Metric_Pad0.72x0.64mm_HandSolder" V 10630 14800 50  0001 C CNN
F 3 "~" H 10700 14800 50  0001 C CNN
F 4 "0402" V 10800 14800 50  0000 C CNN "Package"
F 5 "0402WGF100JTCE" V 10700 14800 50  0001 C CNN "MPN"
F 6 "C25077" V 10700 14800 50  0001 C CNN "LCSC"
	1    10700 14800
	0    1    1    0   
$EndComp
Wire Wire Line
	10100 15350 9700 15350
Wire Wire Line
	10100 15150 10100 15350
$Comp
L 74xGxx:74AUP1G74 U2
U 1 1 60969320
P 10100 14900
F 0 "U2" H 10250 14650 50  0000 L CNN
F 1 "74AUP1G74" H 10250 14550 50  0000 L CNN
F 2 "Package_SO:VSSOP-8_2.3x2mm_P0.5mm" H 10100 14900 50  0001 C CNN
F 3 "http://www.ti.com/lit/sg/scyt129e/scyt129e.pdf" H 10100 14900 50  0001 C CNN
F 4 "VSSOP-8" H 10250 14450 50  0000 L CNN "Package"
F 5 "SN74LVC1G74DCUR" H 10100 14900 50  0001 C CNN "MPN"
F 6 "C70285" H 10100 14900 50  0001 C CNN "LCSC"
	1    10100 14900
	1    0    0    -1  
$EndComp
NoConn ~ 11300 12350
NoConn ~ 11300 12250
NoConn ~ 11300 12150
NoConn ~ 11300 11950
NoConn ~ 11300 11850
NoConn ~ 11300 11750
NoConn ~ 11300 11650
Text Label 11500 12050 0    50   ~ 0
TDC_STOP_PULSE_EN
Wire Wire Line
	11300 12050 11500 12050
$Comp
L Device:R R8
U 1 1 607E1EAA
P 11500 10100
F 0 "R8" V 11400 10100 50  0000 C CNN
F 1 "10" V 11500 10100 50  0000 C CNN
F 2 "Resistor_SMD:R_0402_1005Metric_Pad0.72x0.64mm_HandSolder" V 11430 10100 50  0001 C CNN
F 3 "~" H 11500 10100 50  0001 C CNN
F 4 "0402" V 11600 10100 50  0000 C CNN "Package"
F 5 "0402WGF100JTCE" V 11500 10100 50  0001 C CNN "MPN"
F 6 "C25077" V 11500 10100 50  0001 C CNN "LCSC"
	1    11500 10100
	0    1    1    0   
$EndComp
$Comp
L power:GND #PWR033
U 1 1 607741E7
P 10900 12550
F 0 "#PWR033" H 10900 12300 50  0001 C CNN
F 1 "GND" H 10900 12400 50  0000 C CNN
F 2 "" H 10900 12550 50  0001 C CNN
F 3 "" H 10900 12550 50  0001 C CNN
	1    10900 12550
	1    0    0    -1  
$EndComp
Text Label 10550 13100 2    50   ~ 0
~TDC_INTB
$Comp
L power:GND #PWR038
U 1 1 606F633C
P 11400 11250
F 0 "#PWR038" H 11400 11000 50  0001 C CNN
F 1 "GND" V 11400 11050 50  0000 C CNN
F 2 "" H 11400 11250 50  0001 C CNN
F 3 "" H 11400 11250 50  0001 C CNN
	1    11400 11250
	0    -1   -1   0   
$EndComp
Wire Wire Line
	10900 11250 10900 11450
Connection ~ 10900 11250
Wire Wire Line
	10750 11250 10900 11250
Wire Wire Line
	11100 11250 10900 11250
$Comp
L Device:C C7
U 1 1 606F6332
P 11250 11250
F 0 "C7" V 11350 11350 50  0000 L CNN
F 1 "0.1u" V 11350 11150 50  0000 R CNN
F 2 "Capacitor_SMD:C_0402_1005Metric_Pad0.74x0.62mm_HandSolder" H 11288 11100 50  0001 C CNN
F 3 "~" H 11250 11250 50  0001 C CNN
F 4 "0402" V 11100 11250 50  0000 C CNN "Package"
F 5 "CL05B104KO5NNNC" H 11250 11250 50  0001 C CNN "MPN"
F 6 "C1525" V 11250 11250 50  0001 C CNN "LCSC"
	1    11250 11250
	0    -1   -1   0   
$EndComp
$Comp
L 74xx:74HCT164 U5
U 1 1 6065F156
P 10900 11950
F 0 "U5" H 11050 11350 50  0000 L CNN
F 1 "74HCT164" H 11050 11250 50  0000 L CNN
F 2 "Package_SO:TSSOP-14_4.4x5mm_P0.65mm" H 11800 11650 50  0001 C CNN
F 3 "https://assets.nexperia.com/documents/data-sheet/74HC_HCT164.pdf" H 11800 11650 50  0001 C CNN
F 4 "TSSOP-14" H 11050 11150 50  0000 L CNN "Package"
F 5 "C192259" H 10900 11950 50  0001 C CNN "LCSC"
	1    10900 11950
	1    0    0    -1  
$EndComp
$Comp
L power:+3.3VP #PWR064
U 1 1 615E04E4
P 16200 14400
F 0 "#PWR064" H 16350 14350 50  0001 C CNN
F 1 "+3.3VP" V 16200 14650 50  0000 C CNN
F 2 "" H 16200 14400 50  0001 C CNN
F 3 "" H 16200 14400 50  0001 C CNN
	1    16200 14400
	0    1    1    0   
$EndComp
$Comp
L power:+3.3VP #PWR078
U 1 1 615CBF67
P 19150 14250
F 0 "#PWR078" H 19300 14200 50  0001 C CNN
F 1 "+3.3VP" V 19150 14500 50  0000 C CNN
F 2 "" H 19150 14250 50  0001 C CNN
F 3 "" H 19150 14250 50  0001 C CNN
	1    19150 14250
	0    1    1    0   
$EndComp
$Comp
L power:+3.3VP #PWR089
U 1 1 614CC62D
P 20350 14350
F 0 "#PWR089" H 20500 14300 50  0001 C CNN
F 1 "+3.3VP" H 20365 14523 50  0000 C CNN
F 2 "" H 20350 14350 50  0001 C CNN
F 3 "" H 20350 14350 50  0001 C CNN
	1    20350 14350
	1    0    0    -1  
$EndComp
$Comp
L Device:R R14
U 1 1 614CC627
P 20350 14500
F 0 "R14" V 20250 14500 50  0000 C CNN
F 1 "1k" V 20350 14500 50  0000 C CNN
F 2 "Resistor_SMD:R_0402_1005Metric_Pad0.72x0.64mm_HandSolder" V 20280 14500 50  0001 C CNN
F 3 "~" H 20350 14500 50  0001 C CNN
F 4 "0402" V 20450 14500 50  0000 C CNN "Package"
F 5 "0402WGF1001TCE" V 20350 14500 50  0001 C CNN "MPN"
F 6 "C11702" V 20350 14500 50  0001 C CNN "LCSC"
	1    20350 14500
	1    0    0    -1  
$EndComp
$Comp
L power:GND #PWR090
U 1 1 614CC61F
P 20350 15350
F 0 "#PWR090" H 20350 15100 50  0001 C CNN
F 1 "GND" H 20350 15200 50  0000 C CNN
F 2 "" H 20350 15350 50  0001 C CNN
F 3 "" H 20350 15350 50  0001 C CNN
	1    20350 15350
	-1   0    0    -1  
$EndComp
$Comp
L Device:LED D6
U 1 1 614CC619
P 20350 14800
F 0 "D6" V 20450 14900 50  0000 L CNN
F 1 "LED" V 20250 14900 50  0000 L CNN
F 2 "LED_SMD:LED_0603_1608Metric_Pad1.05x0.95mm_HandSolder" H 20350 14800 50  0001 C CNN
F 3 "~" H 20350 14800 50  0001 C CNN
F 4 "0603" V 20350 14900 50  0000 L CNN "Package"
F 5 "19-217/GHC-YR1S2/3T" V 20350 14800 50  0001 C CNN "MPN"
F 6 "C72043" V 20350 14800 50  0001 C CNN "LCSC"
	1    20350 14800
	0    1    -1   0   
$EndComp
$Comp
L Device:Q_NMOS_GSD Q6
U 1 1 614CC613
P 20250 15150
F 0 "Q6" H 20455 15196 50  0000 L CNN
F 1 "Q_NMOS_GSD" H 20455 15105 50  0000 L CNN
F 2 "Package_TO_SOT_SMD:SOT-323_SC-70" H 20450 15250 50  0001 C CNN
F 3 "~" H 20250 15150 50  0001 C CNN
F 4 "DMN3150LW-7" H 20250 15150 50  0001 C CNN "MPN"
F 5 "C397976" H 20250 15150 50  0001 C CNN "LCSC"
	1    20250 15150
	1    0    0    -1  
$EndComp
Wire Wire Line
	15900 14850 17950 14850
NoConn ~ 15000 14850
NoConn ~ 15000 14550
NoConn ~ 15000 14400
NoConn ~ 15000 14250
NoConn ~ 15900 14250
NoConn ~ 15900 14700
NoConn ~ 15900 14550
$Comp
L Sundial:Elite_5032_10L_SPI U8
U 1 1 60507004
P 15450 14550
F 0 "U8" H 15450 15137 60  0000 C CNN
F 1 "Elite_5032_10L_SPI" H 15450 15031 60  0000 C CNN
F 2 "Sundial:Elite_TCXO_Ceramic_5032" H 15350 14600 60  0001 C CNN
F 3 "" H 15350 14600 60  0001 C CNN
	1    15450 14550
	1    0    0    -1  
$EndComp
$Comp
L power:GND #PWR060
U 1 1 6065AFBC
P 15000 14700
F 0 "#PWR060" H 15000 14450 50  0001 C CNN
F 1 "GND" H 15000 14550 50  0000 C CNN
F 2 "" H 15000 14700 50  0001 C CNN
F 3 "" H 15000 14700 50  0001 C CNN
	1    15000 14700
	0    1    1    0   
$EndComp
Wire Wire Line
	15900 14400 16050 14400
$Comp
L Device:C C19
U 1 1 6189B124
P 16050 14100
F 0 "C19" H 16165 14191 50  0000 L CNN
F 1 "0.1u" H 16165 14100 50  0000 L CNN
F 2 "Capacitor_SMD:C_0402_1005Metric_Pad0.74x0.62mm_HandSolder" H 16088 13950 50  0001 C CNN
F 3 "~" H 16050 14100 50  0001 C CNN
F 4 "0402" H 16165 14009 50  0000 L CNN "Package"
F 5 "CL05B104KO5NNNC" H 16050 14100 50  0001 C CNN "MPN"
F 6 "C1525" H 16050 14100 50  0001 C CNN "LCSC"
	1    16050 14100
	1    0    0    -1  
$EndComp
$Comp
L power:GND #PWR063
U 1 1 6189B12A
P 16050 13950
F 0 "#PWR063" H 16050 13700 50  0001 C CNN
F 1 "GND" H 16050 13800 50  0000 C CNN
F 2 "" H 16050 13950 50  0001 C CNN
F 3 "" H 16050 13950 50  0001 C CNN
	1    16050 13950
	-1   0    0    1   
$EndComp
Wire Wire Line
	16050 14250 16050 14400
Connection ~ 16050 14400
Wire Wire Line
	16050 14400 16200 14400
$Comp
L Device:C C20
U 1 1 5F48B355
P 19000 13950
F 0 "C20" H 19115 14041 50  0000 L CNN
F 1 "0.1u" H 19115 13950 50  0000 L CNN
F 2 "Capacitor_SMD:C_0402_1005Metric_Pad0.74x0.62mm_HandSolder" H 19038 13800 50  0001 C CNN
F 3 "~" H 19000 13950 50  0001 C CNN
F 4 "0402" H 19115 13859 50  0000 L CNN "Package"
F 5 "CL05B104KO5NNNC" H 19000 13950 50  0001 C CNN "MPN"
F 6 "C1525" H 19000 13950 50  0001 C CNN "LCSC"
	1    19000 13950
	1    0    0    -1  
$EndComp
$Comp
L power:GND #PWR071
U 1 1 5F48BB57
P 19000 13800
F 0 "#PWR071" H 19000 13550 50  0001 C CNN
F 1 "GND" H 19005 13627 50  0000 C CNN
F 2 "" H 19000 13800 50  0001 C CNN
F 3 "" H 19000 13800 50  0001 C CNN
	1    19000 13800
	-1   0    0    1   
$EndComp
Wire Wire Line
	19000 14100 19000 14250
Connection ~ 19000 14250
Wire Wire Line
	18850 14250 19000 14250
Wire Wire Line
	19000 14250 19150 14250
Text Label 17650 14250 2    50   ~ 0
TDC_ENABLE
Wire Wire Line
	17850 14250 17650 14250
Text Notes 14550 12750 0    250  ~ 0
Time-to-Digital Converter (TDC)
Wire Notes Line
	21500 13000 14000 13000
Wire Notes Line
	21500 16000 21500 13000
Wire Notes Line
	14000 16000 21500 16000
Wire Notes Line
	14000 13000 14000 16000
Wire Wire Line
	19000 15150 20050 15150
Connection ~ 19000 15150
Wire Wire Line
	19000 15250 19000 15150
Wire Wire Line
	18850 15150 19000 15150
$Comp
L Device:R R11
U 1 1 5FD0CFA3
P 19000 15400
F 0 "R11" V 18900 15400 50  0000 C CNN
F 1 "10k" V 19000 15400 50  0000 C CNN
F 2 "Resistor_SMD:R_0402_1005Metric_Pad0.72x0.64mm_HandSolder" V 18930 15400 50  0001 C CNN
F 3 "~" H 19000 15400 50  0001 C CNN
F 4 "0402" V 19100 15400 50  0000 C CNN "Package"
F 5 "0402WGF1002TCE" V 19000 15400 50  0001 C CNN "MPN"
F 6 "C25744" V 19000 15400 50  0001 C CNN "LCSC"
	1    19000 15400
	1    0    0    -1  
$EndComp
Connection ~ 17850 14250
Wire Wire Line
	17850 14100 17850 14250
$Comp
L power:GND #PWR069
U 1 1 5F486881
P 17850 13800
F 0 "#PWR069" H 17850 13550 50  0001 C CNN
F 1 "GND" H 17855 13627 50  0000 C CNN
F 2 "" H 17850 13800 50  0001 C CNN
F 3 "" H 17850 13800 50  0001 C CNN
	1    17850 13800
	-1   0    0    1   
$EndComp
$Comp
L Device:R R10
U 1 1 5F485F6C
P 17850 13950
F 0 "R10" V 17750 13950 50  0000 C CNN
F 1 "10k" V 17850 13950 50  0000 C CNN
F 2 "Resistor_SMD:R_0402_1005Metric_Pad0.72x0.64mm_HandSolder" V 17780 13950 50  0001 C CNN
F 3 "~" H 17850 13950 50  0001 C CNN
F 4 "0402" V 17950 13950 50  0000 C CNN "Package"
F 5 "0402WGF1002TCE" V 17850 13950 50  0001 C CNN "MPN"
F 6 "C25744" V 17850 13950 50  0001 C CNN "LCSC"
	1    17850 13950
	1    0    0    -1  
$EndComp
Wire Wire Line
	19500 14400 18850 14400
$Comp
L Device:C C22
U 1 1 5F483C36
P 19650 14400
F 0 "C22" V 19550 14500 50  0000 L CNN
F 1 "1u" V 19550 14300 50  0000 R CNN
F 2 "Capacitor_SMD:C_0603_1608Metric_Pad1.05x0.95mm_HandSolder" H 19688 14250 50  0001 C CNN
F 3 "~" H 19650 14400 50  0001 C CNN
F 4 "0603" V 19450 14400 50  0000 C CNN "Package"
F 5 "CL10A105KB8NNNC" H 19650 14400 50  0001 C CNN "MPN"
F 6 "C15849" V 19650 14400 50  0001 C CNN "LCSC"
	1    19650 14400
	0    -1   -1   0   
$EndComp
$Comp
L power:GND #PWR084
U 1 1 5F4829ED
P 19800 14400
F 0 "#PWR084" H 19800 14150 50  0001 C CNN
F 1 "GND" H 19800 14250 50  0000 C CNN
F 2 "" H 19800 14400 50  0001 C CNN
F 3 "" H 19800 14400 50  0001 C CNN
	1    19800 14400
	0    -1   -1   0   
$EndComp
Text Label 18850 14550 0    50   ~ 0
TDC_SPI_CLK
Text Label 18850 14700 0    50   ~ 0
~TDC_SPI_CS
Text Label 18850 14850 0    50   ~ 0
TDC_SPI_MOSI
Text Label 18850 15000 0    50   ~ 0
TDC_SPI_MISO
Text Label 19150 15150 0    50   ~ 0
~TDC_INTB
$Comp
L power:GND #PWR070
U 1 1 5F4806BF
P 17950 15150
F 0 "#PWR070" H 17950 14900 50  0001 C CNN
F 1 "GND" V 17950 14950 50  0000 C CNN
F 2 "" H 17950 15150 50  0001 C CNN
F 3 "" H 17950 15150 50  0001 C CNN
	1    17950 15150
	0    1    1    0   
$EndComp
NoConn ~ 17950 15000
Text Label 17950 14850 2    50   ~ 0
TDC_CLK_REF
Text Label 17950 14700 2    50   ~ 0
TDC_STOP_PULSE
Text Label 17950 14550 2    50   ~ 0
TDC_START_PULSE
Text Label 17950 14400 2    50   ~ 0
TDC_TRIGGER
Wire Wire Line
	17950 14250 17850 14250
$Comp
L Sundial:TDC7200PW U9
U 1 1 5F457643
P 18400 14700
F 0 "U9" H 18400 15505 50  0000 C CNN
F 1 "TDC7200PW" H 18400 15414 50  0000 C CNN
F 2 "Package_SO:TSSOP-14_4.4x5mm_P0.65mm" H 18450 14900 50  0001 C CNN
F 3 "http://www.ti.com/lit/ds/symlink/tdc7200.pdf" H 18450 14900 50  0001 C CNN
F 4 "TSSOP-14" H 18400 15323 50  0000 C CNN "Package"
	1    18400 14700
	1    0    0    -1  
$EndComp
$Comp
L power:GND #PWR015
U 1 1 6218AB45
P 4350 7300
F 0 "#PWR015" H 4350 7050 50  0001 C CNN
F 1 "GND" V 4350 7100 50  0000 C CNN
F 2 "" H 4350 7300 50  0001 C CNN
F 3 "" H 4350 7300 50  0001 C CNN
	1    4350 7300
	0    1    1    0   
$EndComp
$Comp
L power:+5V #PWR014
U 1 1 6218AB3F
P 4350 7200
F 0 "#PWR014" H 4350 7050 50  0001 C CNN
F 1 "+5V" V 4350 7400 50  0000 C CNN
F 2 "" H 4350 7200 50  0001 C CNN
F 3 "" H 4350 7200 50  0001 C CNN
	1    4350 7200
	0    -1   1    0   
$EndComp
$Comp
L Connector_Generic:Conn_01x02 J6
U 1 1 6218AB39
P 4550 7200
F 0 "J6" H 4630 7192 50  0000 L CNN
F 1 "Conn_01x02" H 4630 7101 50  0000 L CNN
F 2 "Connector_Molex:Molex_KK-254_AE-6410-02A_1x02_P2.54mm_Vertical" H 4550 7200 50  0001 C CNN
F 3 "~" H 4550 7200 50  0001 C CNN
	1    4550 7200
	1    0    0    -1  
$EndComp
$Comp
L power:GND #PWR07
U 1 1 62176361
P 2850 7300
F 0 "#PWR07" H 2850 7050 50  0001 C CNN
F 1 "GND" V 2850 7100 50  0000 C CNN
F 2 "" H 2850 7300 50  0001 C CNN
F 3 "" H 2850 7300 50  0001 C CNN
	1    2850 7300
	0    1    1    0   
$EndComp
$Comp
L power:+5V #PWR06
U 1 1 6214D7B5
P 2850 7200
F 0 "#PWR06" H 2850 7050 50  0001 C CNN
F 1 "+5V" V 2850 7400 50  0000 C CNN
F 2 "" H 2850 7200 50  0001 C CNN
F 3 "" H 2850 7200 50  0001 C CNN
	1    2850 7200
	0    -1   1    0   
$EndComp
$Comp
L Connector_Generic:Conn_01x02 J3
U 1 1 6214C5EF
P 3050 7200
F 0 "J3" H 3130 7192 50  0000 L CNN
F 1 "Conn_01x02" H 3130 7101 50  0000 L CNN
F 2 "Connector_Molex:Molex_KK-254_AE-6410-02A_1x02_P2.54mm_Vertical" H 3050 7200 50  0001 C CNN
F 3 "~" H 3050 7200 50  0001 C CNN
	1    3050 7200
	1    0    0    -1  
$EndComp
NoConn ~ 3600 6150
$Comp
L power:GND #PWR011
U 1 1 620923FB
P 3600 6250
F 0 "#PWR011" H 3600 6000 50  0001 C CNN
F 1 "GND" V 3600 6050 50  0000 C CNN
F 2 "" H 3600 6250 50  0001 C CNN
F 3 "" H 3600 6250 50  0001 C CNN
	1    3600 6250
	0    1    1    0   
$EndComp
$Comp
L Connector_Generic:Conn_01x05 J5
U 1 1 62063E2C
P 3800 6350
F 0 "J5" H 3880 6392 50  0000 L CNN
F 1 "Conn_01x05" H 3880 6301 50  0000 L CNN
F 2 "Connector_Molex:Molex_KK-254_AE-6410-05A_1x05_P2.54mm_Vertical" H 3800 6350 50  0001 C CNN
F 3 "~" H 3800 6350 50  0001 C CNN
	1    3800 6350
	1    0    0    -1  
$EndComp
NoConn ~ 4050 5250
$Comp
L power:GND #PWR013
U 1 1 61FD6AA7
P 4050 5450
F 0 "#PWR013" H 4050 5200 50  0001 C CNN
F 1 "GND" V 4050 5250 50  0000 C CNN
F 2 "" H 4050 5450 50  0001 C CNN
F 3 "" H 4050 5450 50  0001 C CNN
	1    4050 5450
	0    -1   -1   0   
$EndComp
NoConn ~ 4050 5150
$Comp
L Connector_Generic:Conn_02x05_Odd_Even J4
U 1 1 61F5AE38
P 3750 5250
F 0 "J4" H 3800 5550 50  0000 C CNN
F 1 "Conn_02x05_Odd_Even" H 3750 4900 50  0000 C CNN
F 2 "Connector_PinHeader_2.54mm:PinHeader_2x05_P2.54mm_Vertical" H 3750 5250 50  0001 C CNN
F 3 "~" H 3750 5250 50  0001 C CNN
	1    3750 5250
	1    0    0    -1  
$EndComp
Text Notes 2750 4250 0    250  ~ 0
Connectors
Text Label 2600 5050 2    50   ~ 0
PSOC_I2CS_SCL
Text Label 2600 5150 2    50   ~ 0
PSOC_I2CS_SDA
Text Label 3600 6550 2    50   ~ 0
PSOC_SWDIO
Text Label 3600 6350 2    50   ~ 0
~PSOC_XRES
Text Label 3600 6450 2    50   ~ 0
PSOC_SWCLK
Wire Notes Line
	6000 8000 6000 4500
Wire Notes Line
	6000 4500 1500 4500
Wire Notes Line
	1500 8000 6000 8000
Wire Notes Line
	1500 4500 1500 8000
$Comp
L power:GND #PWR012
U 1 1 61E2E0B5
P 4050 5050
F 0 "#PWR012" H 4050 4800 50  0001 C CNN
F 1 "GND" V 4050 4850 50  0000 C CNN
F 2 "" H 4050 5050 50  0001 C CNN
F 3 "" H 4050 5050 50  0001 C CNN
	1    4050 5050
	0    -1   -1   0   
$EndComp
Wire Wire Line
	10700 18400 11000 18400
Wire Wire Line
	11000 18400 11000 18600
Wire Wire Line
	11000 18600 11300 18600
Wire Wire Line
	10700 19000 11000 19000
Wire Wire Line
	11000 19000 11000 18800
Wire Wire Line
	11000 18800 11300 18800
$Comp
L power:+3.3VP #PWR0104
U 1 1 6033D81C
P 11500 18150
F 0 "#PWR0104" H 11650 18100 50  0001 C CNN
F 1 "+3.3VP" H 11500 18300 50  0000 C CNN
F 2 "" H 11500 18150 50  0001 C CNN
F 3 "" H 11500 18150 50  0001 C CNN
	1    11500 18150
	1    0    0    -1  
$EndComp
$Comp
L power:GND #PWR0105
U 1 1 6033D822
P 12000 18300
F 0 "#PWR0105" H 12000 18050 50  0001 C CNN
F 1 "GND" V 12000 18100 50  0000 C CNN
F 2 "" H 12000 18300 50  0001 C CNN
F 3 "" H 12000 18300 50  0001 C CNN
	1    12000 18300
	0    -1   -1   0   
$EndComp
Wire Wire Line
	11500 18300 11500 18450
Connection ~ 11500 18300
Wire Wire Line
	11500 18150 11500 18300
Wire Wire Line
	11700 18300 11500 18300
$Comp
L Device:C C25
U 1 1 6033D82E
P 11850 18300
F 0 "C25" V 11950 18400 50  0000 L CNN
F 1 "0.1u" V 11950 18200 50  0000 R CNN
F 2 "Capacitor_SMD:C_0402_1005Metric_Pad0.74x0.62mm_HandSolder" H 11888 18150 50  0001 C CNN
F 3 "~" H 11850 18300 50  0001 C CNN
F 4 "0402" V 11700 18300 50  0000 C CNN "Package"
F 5 "CL05B104KO5NNNC" H 11850 18300 50  0001 C CNN "MPN"
F 6 "C1525" V 11850 18300 50  0001 C CNN "LCSC"
	1    11850 18300
	0    -1   -1   0   
$EndComp
$Comp
L power:GND #PWR0106
U 1 1 6035596F
P 11500 18950
F 0 "#PWR0106" H 11500 18700 50  0001 C CNN
F 1 "GND" H 11500 18800 50  0000 C CNN
F 2 "" H 11500 18950 50  0001 C CNN
F 3 "" H 11500 18950 50  0001 C CNN
	1    11500 18950
	1    0    0    -1  
$EndComp
Text Label 11700 18900 0    50   ~ 0
OCXO_CLK+_DIV_SEL
Text Label 16300 6000 2    50   ~ 0
OCXO_CLK+_DIV_SEL
Text Label 10600 10200 2    50   ~ 0
OCXO_CLK+_RETIMER_OUT
Wire Wire Line
	4800 14200 4650 14200
$Comp
L power:GND #PWR0107
U 1 1 60631C7E
P 3900 14400
F 0 "#PWR0107" H 3900 14150 50  0001 C CNN
F 1 "GND" H 3900 14250 50  0000 C CNN
F 2 "" H 3900 14400 50  0001 C CNN
F 3 "" H 3900 14400 50  0001 C CNN
	1    3900 14400
	1    0    0    -1  
$EndComp
$Comp
L power:+3.3VP #PWR0108
U 1 1 60631C84
P 3300 13800
F 0 "#PWR0108" H 3450 13750 50  0001 C CNN
F 1 "+3.3VP" V 3300 14050 50  0000 C CNN
F 2 "" H 3300 13800 50  0001 C CNN
F 3 "" H 3300 13800 50  0001 C CNN
	1    3300 13800
	0    -1   -1   0   
$EndComp
$Comp
L power:GND #PWR0109
U 1 1 60631C8A
P 4400 13800
F 0 "#PWR0109" H 4400 13550 50  0001 C CNN
F 1 "GND" V 4400 13600 50  0000 C CNN
F 2 "" H 4400 13800 50  0001 C CNN
F 3 "" H 4400 13800 50  0001 C CNN
	1    4400 13800
	0    -1   -1   0   
$EndComp
Wire Wire Line
	3900 13800 3900 14000
Connection ~ 3900 13800
Wire Wire Line
	3300 13800 3400 13800
Wire Wire Line
	4100 13800 3900 13800
$Comp
L Device:C C26
U 1 1 60631C96
P 4250 13800
F 0 "C26" V 4350 13900 50  0000 L CNN
F 1 "0.1u" V 4350 13700 50  0000 R CNN
F 2 "Capacitor_SMD:C_0402_1005Metric_Pad0.74x0.62mm_HandSolder" H 4288 13650 50  0001 C CNN
F 3 "~" H 4250 13800 50  0001 C CNN
F 4 "0402" V 4100 13800 50  0000 C CNN "Package"
F 5 "CL05B104KO5NNNC" H 4250 13800 50  0001 C CNN "MPN"
F 6 "C1525" V 4250 13800 50  0001 C CNN "LCSC"
	1    4250 13800
	0    -1   -1   0   
$EndComp
$Comp
L Sundial:74x1G126 U12
U 1 1 60631C9D
P 3900 14200
F 0 "U12" H 4050 14000 50  0000 L CNN
F 1 "74LVC1G126" H 4050 13900 50  0000 L CNN
F 2 "Package_TO_SOT_SMD:SOT-353_SC-70-5" H 3900 14200 50  0001 C CNN
F 3 "" H 3900 14200 50  0001 C CNN
F 4 "SC-70-5" H 4050 13800 50  0000 L CNN "Package"
F 5 "SN74LVC1G126DCKR" H 3900 14200 50  0001 C CNN "MPN"
F 6 "C88039" H 3900 14200 50  0001 C CNN "LCSC"
	1    3900 14200
	1    0    0    -1  
$EndComp
Wire Wire Line
	4350 14200 4200 14200
$Comp
L Device:R R15
U 1 1 60631CA6
P 4500 14200
F 0 "R15" V 4400 14200 50  0000 C CNN
F 1 "10" V 4500 14200 50  0000 C CNN
F 2 "Resistor_SMD:R_0402_1005Metric_Pad0.72x0.64mm_HandSolder" V 4430 14200 50  0001 C CNN
F 3 "~" H 4500 14200 50  0001 C CNN
F 4 "0402" V 4600 14200 50  0000 C CNN "Package"
F 5 "0402WGF100JTCE" V 4500 14200 50  0001 C CNN "MPN"
F 6 "C25077" V 4500 14200 50  0001 C CNN "LCSC"
	1    4500 14200
	0    1    1    0   
$EndComp
Text Label 3600 14300 2    50   ~ 0
OCXO_CLK+_OUT
$Comp
L Connector:Conn_Coaxial J7
U 1 1 60663245
P 5000 14200
F 0 "J7" H 5100 14175 50  0000 L CNN
F 1 "Conn_Coaxial" H 5100 14084 50  0000 L CNN
F 2 "Connector_Coaxial:SMA_Amphenol_132134-16_Vertical" H 5000 14200 50  0001 C CNN
F 3 " ~" H 5000 14200 50  0001 C CNN
	1    5000 14200
	1    0    0    -1  
$EndComp
$Comp
L power:GND #PWR0110
U 1 1 6066324B
P 5000 14400
F 0 "#PWR0110" H 5000 14150 50  0001 C CNN
F 1 "GND" H 5000 14250 50  0000 C CNN
F 2 "" H 5000 14400 50  0001 C CNN
F 3 "" H 5000 14400 50  0001 C CNN
	1    5000 14400
	1    0    0    -1  
$EndComp
Wire Wire Line
	3600 14100 3400 14100
Wire Wire Line
	3400 14100 3400 13800
Connection ~ 3400 13800
Wire Wire Line
	3400 13800 3900 13800
$Comp
L Device:CP C27
U 1 1 606DF7FB
P 6000 2250
F 0 "C27" H 5900 2350 50  0000 R CNN
F 1 "47u" H 5900 2250 50  0000 R CNN
F 2 "Capacitor_Tantalum_SMD:CP_EIA-3528-15_AVX-H" H 6038 2100 50  0001 C CNN
F 3 "~" H 6000 2250 50  0001 C CNN
F 4 "3528" H 5900 2150 50  0000 R CNN "Package"
F 5 "" H 6000 2250 50  0001 C CNN "MPN"
F 6 "C8020" H 6000 2250 50  0001 C CNN "LCSC"
	1    6000 2250
	1    0    0    -1  
$EndComp
$Comp
L power:GND #PWR0111
U 1 1 606DF801
P 6000 2400
F 0 "#PWR0111" H 6000 2150 50  0001 C CNN
F 1 "GND" H 6000 2250 50  0000 C CNN
F 2 "" H 6000 2400 50  0001 C CNN
F 3 "" H 6000 2400 50  0001 C CNN
	1    6000 2400
	-1   0    0    -1  
$EndComp
$Comp
L power:+5V #PWR0112
U 1 1 606DF807
P 6000 2100
F 0 "#PWR0112" H 6000 1950 50  0001 C CNN
F 1 "+5V" H 6000 2250 50  0000 C CNN
F 2 "" H 6000 2100 50  0001 C CNN
F 3 "" H 6000 2100 50  0001 C CNN
	1    6000 2100
	-1   0    0    -1  
$EndComp
$Comp
L power:+3.3VP #PWR0113
U 1 1 607E38E5
P 19000 15550
F 0 "#PWR0113" H 19150 15500 50  0001 C CNN
F 1 "+3.3VP" H 19015 15723 50  0000 C CNN
F 2 "" H 19000 15550 50  0001 C CNN
F 3 "" H 19000 15550 50  0001 C CNN
	1    19000 15550
	-1   0    0    1   
$EndComp
$Comp
L Mechanical:MountingHole H2
U 1 1 6081120F
P 2800 2550
F 0 "H2" H 2900 2596 50  0000 L CNN
F 1 "MountingHole" H 2900 2505 50  0000 L CNN
F 2 "MountingHole:MountingHole_4.3mm_M4_Pad" H 2800 2550 50  0001 C CNN
F 3 "~" H 2800 2550 50  0001 C CNN
	1    2800 2550
	1    0    0    -1  
$EndComp
$Comp
L Mechanical:MountingHole H3
U 1 1 608299A6
P 2800 2900
F 0 "H3" H 2900 2946 50  0000 L CNN
F 1 "MountingHole" H 2900 2855 50  0000 L CNN
F 2 "MountingHole:MountingHole_4.3mm_M4_Pad" H 2800 2900 50  0001 C CNN
F 3 "~" H 2800 2900 50  0001 C CNN
	1    2800 2900
	1    0    0    -1  
$EndComp
$Comp
L Mechanical:MountingHole H4
U 1 1 608420C6
P 2800 3250
F 0 "H4" H 2900 3296 50  0000 L CNN
F 1 "MountingHole" H 2900 3205 50  0000 L CNN
F 2 "MountingHole:MountingHole_4.3mm_M4_Pad" H 2800 3250 50  0001 C CNN
F 3 "~" H 2800 3250 50  0001 C CNN
	1    2800 3250
	1    0    0    -1  
$EndComp
$Comp
L Device:R R16
U 1 1 60991C00
P 12600 18700
F 0 "R16" V 12500 18700 50  0000 C CNN
F 1 "10" V 12600 18700 50  0000 C CNN
F 2 "Resistor_SMD:R_0402_1005Metric_Pad0.72x0.64mm_HandSolder" V 12530 18700 50  0001 C CNN
F 3 "~" H 12600 18700 50  0001 C CNN
F 4 "0402" V 12700 18700 50  0000 C CNN "Package"
F 5 "0402WGF100JTCE" V 12600 18700 50  0001 C CNN "MPN"
F 6 "C25077" V 12600 18700 50  0001 C CNN "LCSC"
	1    12600 18700
	0    1    1    0   
$EndComp
Wire Wire Line
	12450 18700 11700 18700
Wire Wire Line
	13350 18700 13000 18700
$Comp
L Device:R R17
U 1 1 60A55351
P 13000 18250
F 0 "R17" V 12900 18250 50  0000 C CNN
F 1 "DNI" V 13000 18250 50  0000 C CNN
F 2 "Resistor_SMD:R_0402_1005Metric_Pad0.72x0.64mm_HandSolder" V 12930 18250 50  0001 C CNN
F 3 "~" H 13000 18250 50  0001 C CNN
F 4 "0402" V 13100 18250 50  0000 C CNN "Package"
F 5 "CRCW04023R92FKEDHP" V 13000 18250 50  0001 C CNN "MPN"
	1    13000 18250
	1    0    0    -1  
$EndComp
Wire Wire Line
	13000 18400 13000 18700
Connection ~ 13000 18700
Wire Wire Line
	13000 18700 12750 18700
Text Label 13000 17950 2    50   ~ 0
PSOC_OCXO_CLK_DIV
Wire Wire Line
	13000 18100 13000 17950
Text Label 16300 5800 2    50   ~ 0
PSOC_OCXO_CLK_DIV
Text Label 3250 12950 0    50   ~ 0
OCXO_VOUT
Text Label 16300 4800 2    50   ~ 0
OCXO_VOUT
NoConn ~ 16300 5200
NoConn ~ 16300 5300
NoConn ~ 16300 6400
NoConn ~ 16300 7300
NoConn ~ 16300 7600
NoConn ~ 16300 8100
NoConn ~ 16300 8400
NoConn ~ 16300 8600
NoConn ~ 16300 8700
NoConn ~ 16300 8800
NoConn ~ 16300 9500
Wire Wire Line
	3550 5050 3050 5050
Wire Wire Line
	2750 5050 2600 5050
$Comp
L Device:R R18
U 1 1 6019D71C
P 2900 5050
F 0 "R18" V 2800 5050 50  0000 C CNN
F 1 "0" V 2900 5050 50  0000 C CNN
F 2 "Resistor_SMD:R_0402_1005Metric_Pad0.72x0.64mm_HandSolder" V 2830 5050 50  0001 C CNN
F 3 "~" H 2900 5050 50  0001 C CNN
F 4 "0402" V 3000 5050 50  0001 C CNN "Package"
F 5 "0402WGF0000TCE" V 2900 5050 50  0001 C CNN "MPN"
F 6 "C17168" V 2900 5050 50  0001 C CNN "LCSC"
	1    2900 5050
	0    1    1    0   
$EndComp
Wire Wire Line
	3550 5150 3400 5150
Wire Wire Line
	3100 5150 2600 5150
$Comp
L Device:R R19
U 1 1 601E8DA6
P 3250 5150
F 0 "R19" V 3150 5150 50  0000 C CNN
F 1 "0" V 3250 5150 50  0000 C CNN
F 2 "Resistor_SMD:R_0402_1005Metric_Pad0.72x0.64mm_HandSolder" V 3180 5150 50  0001 C CNN
F 3 "~" H 3250 5150 50  0001 C CNN
F 4 "0402WGF0000TCE" V 3250 5150 50  0001 C CNN "MPN"
F 5 "0402" V 3350 5150 50  0001 C CNN "Package"
F 6 "C17168" V 3250 5150 50  0001 C CNN "LCSC"
	1    3250 5150
	0    1    1    0   
$EndComp
Wire Wire Line
	3550 5350 3050 5350
Wire Wire Line
	2750 5350 2600 5350
$Comp
L Device:R R20
U 1 1 602351F2
P 2900 5350
F 0 "R20" V 2800 5350 50  0000 C CNN
F 1 "DNI" V 2900 5350 50  0000 C CNN
F 2 "Resistor_SMD:R_0402_1005Metric_Pad0.72x0.64mm_HandSolder" V 2830 5350 50  0001 C CNN
F 3 "~" H 2900 5350 50  0001 C CNN
F 4 "0402" V 3000 5350 50  0001 C CNN "Package"
F 5 "" V 2900 5350 50  0001 C CNN "MPN"
F 6 "" V 2900 5350 50  0001 C CNN "LCSC"
	1    2900 5350
	0    1    1    0   
$EndComp
Text Label 2600 5350 2    50   ~ 0
PSOC_I2CS_SCL
Text Label 4800 5350 0    50   ~ 0
PSOC_I2CS_SDA
Wire Wire Line
	4650 5350 4800 5350
$Comp
L Device:R R21
U 1 1 602686FA
P 4500 5350
F 0 "R21" V 4400 5350 50  0000 C CNN
F 1 "DNI" V 4500 5350 50  0000 C CNN
F 2 "Resistor_SMD:R_0402_1005Metric_Pad0.72x0.64mm_HandSolder" V 4430 5350 50  0001 C CNN
F 3 "~" H 4500 5350 50  0001 C CNN
F 4 "0402" V 4600 5350 50  0000 C CNN "Package"
F 5 "" V 4500 5350 50  0001 C CNN "MPN"
F 6 "" V 4500 5350 50  0001 C CNN "LCSC"
	1    4500 5350
	0    -1   1    0   
$EndComp
Wire Wire Line
	4350 5350 4050 5350
Wire Wire Line
	3550 5250 2600 5250
Text Label 2600 5250 2    50   ~ 0
PSOC_SPIS_MISO
Wire Wire Line
	3550 5450 2600 5450
Text Label 2600 5450 2    50   ~ 0
PSOC_SPIS_SS
Text Label 16300 6700 2    50   ~ 0
PSOC_SPIS_MISO
Text Label 16300 6600 2    50   ~ 0
PSOC_SPIS_SS
Wire Wire Line
	15750 4500 16300 4500
$Comp
L Connector:Conn_Coaxial J8
U 1 1 60757E83
P 15550 4500
F 0 "J8" H 15650 4475 50  0000 L CNN
F 1 "Conn_Coaxial" H 15650 4384 50  0000 L CNN
F 2 "Connector_Coaxial:SMA_Amphenol_132134-16_Vertical" H 15550 4500 50  0001 C CNN
F 3 " ~" H 15550 4500 50  0001 C CNN
	1    15550 4500
	-1   0    0    1   
$EndComp
$Comp
L power:GND #PWR0114
U 1 1 60757E89
P 15550 4300
F 0 "#PWR0114" H 15550 4050 50  0001 C CNN
F 1 "GND" H 15550 4150 50  0000 C CNN
F 2 "" H 15550 4300 50  0001 C CNN
F 3 "" H 15550 4300 50  0001 C CNN
	1    15550 4300
	-1   0    0    1   
$EndComp
Text Label 16300 4500 2    50   ~ 0
PSOC_TST_OUT
$EndSCHEMATC
