EESchema Schematic File Version 4
EELAYER 30 0
EELAYER END
$Descr D 34000 22000
encoding utf-8
Sheet 1 1
Title ""
Date ""
Rev ""
Comp ""
Comment1 ""
Comment2 ""
Comment3 ""
Comment4 ""
$EndDescr
Wire Notes Line
	23500 2850 23500 8550
Wire Notes Line
	23300 3500 31500 3500
Wire Notes Line
	23300 4500 31500 4500
Wire Notes Line
	23300 5500 31500 5500
Wire Notes Line
	23550 4450 23650 4450
Wire Notes Line
	23750 3950 23750 4450
Wire Notes Line
	23650 3950 23750 3950
Wire Notes Line
	23650 3950 23650 4450
Wire Notes Line
	23750 4450 23850 4450
Wire Notes Line
	23950 3950 23950 4450
Wire Notes Line
	23850 3950 23950 3950
Wire Notes Line
	23850 3950 23850 4450
Wire Notes Line
	23950 4450 24050 4450
Wire Notes Line
	24150 3950 24150 4450
Wire Notes Line
	24050 3950 24150 3950
Wire Notes Line
	24050 3950 24050 4450
Wire Notes Line
	24150 4450 24250 4450
Wire Notes Line
	24350 3950 24350 4450
Wire Notes Line
	24250 3950 24350 3950
Wire Notes Line
	24250 3950 24250 4450
Wire Notes Line
	24350 4450 24450 4450
Wire Notes Line
	24550 3950 24550 4450
Wire Notes Line
	24450 3950 24550 3950
Wire Notes Line
	24450 3950 24450 4450
Wire Notes Line
	24550 4450 24650 4450
Wire Notes Line
	24750 3950 24750 4450
Wire Notes Line
	24650 3950 24750 3950
Wire Notes Line
	24650 3950 24650 4450
Wire Notes Line
	24750 4450 24850 4450
Wire Notes Line
	24950 3950 24950 4450
Wire Notes Line
	24850 3950 24950 3950
Wire Notes Line
	24850 3950 24850 4450
Wire Notes Line
	24950 4450 25050 4450
Wire Notes Line
	25150 3950 25150 4450
Wire Notes Line
	25050 3950 25150 3950
Wire Notes Line
	25050 3950 25050 4450
Wire Notes Line
	25150 4450 25250 4450
Wire Notes Line
	25350 3950 25350 4450
Wire Notes Line
	25250 3950 25350 3950
Wire Notes Line
	25250 3950 25250 4450
Wire Notes Line
	25350 4450 25450 4450
Wire Notes Line
	25550 3950 25550 4450
Wire Notes Line
	25450 3950 25550 3950
Wire Notes Line
	25450 3950 25450 4450
Wire Notes Line
	25550 4450 25650 4450
Wire Notes Line
	25750 3950 25750 4450
Wire Notes Line
	25650 3950 25750 3950
Wire Notes Line
	25650 3950 25650 4450
Wire Notes Line
	25750 4450 25850 4450
Wire Notes Line
	25950 3950 25950 4450
Wire Notes Line
	25850 3950 25950 3950
Wire Notes Line
	25850 3950 25850 4450
Wire Notes Line
	25950 4450 26050 4450
Wire Notes Line
	26150 3950 26150 4450
Wire Notes Line
	26050 3950 26150 3950
Wire Notes Line
	26050 3950 26050 4450
Wire Notes Line
	26150 4450 26250 4450
Wire Notes Line
	26350 3950 26350 4450
Wire Notes Line
	26250 3950 26350 3950
Wire Notes Line
	26250 3950 26250 4450
Wire Notes Line
	26350 4450 26450 4450
Wire Notes Line
	26550 3950 26550 4450
Wire Notes Line
	26450 3950 26550 3950
Wire Notes Line
	26450 3950 26450 4450
Wire Notes Line
	26550 4450 26650 4450
Wire Notes Line
	26750 3950 26750 4450
Wire Notes Line
	26650 3950 26750 3950
Wire Notes Line
	26650 3950 26650 4450
Wire Notes Line
	26750 4450 26850 4450
Wire Notes Line
	26950 3950 26950 4450
Wire Notes Line
	26850 3950 26950 3950
Wire Notes Line
	26850 3950 26850 4450
Wire Notes Line
	26950 4450 27050 4450
Wire Notes Line
	27150 3950 27150 4450
Wire Notes Line
	27050 3950 27150 3950
Wire Notes Line
	27050 3950 27050 4450
Wire Notes Line
	27150 4450 27250 4450
Wire Notes Line
	27350 3950 27350 4450
Wire Notes Line
	27250 3950 27350 3950
Wire Notes Line
	27250 3950 27250 4450
Wire Notes Line
	27350 4450 27450 4450
Wire Notes Line
	27550 3950 27550 4450
Wire Notes Line
	27450 3950 27550 3950
Wire Notes Line
	27450 3950 27450 4450
Wire Notes Line
	27550 4450 27650 4450
Wire Notes Line
	27750 3950 27750 4450
Wire Notes Line
	27650 3950 27750 3950
Wire Notes Line
	27650 3950 27650 4450
Wire Notes Line
	27750 4450 27850 4450
Wire Notes Line
	27950 3950 27950 4450
Wire Notes Line
	27850 3950 27950 3950
Wire Notes Line
	27850 3950 27850 4450
Wire Notes Line
	27950 4450 28050 4450
Wire Notes Line
	28150 3950 28150 4450
Wire Notes Line
	28050 3950 28150 3950
Wire Notes Line
	28050 3950 28050 4450
Wire Notes Line
	28150 4450 28250 4450
Wire Notes Line
	28350 3950 28350 4450
Wire Notes Line
	28250 3950 28350 3950
Wire Notes Line
	28250 3950 28250 4450
Wire Notes Line
	28350 4450 28450 4450
Wire Notes Line
	28550 3950 28550 4450
Wire Notes Line
	28450 3950 28550 3950
Wire Notes Line
	28450 3950 28450 4450
Wire Notes Line
	28550 4450 28650 4450
Wire Notes Line
	28750 3950 28750 4450
Wire Notes Line
	28650 3950 28750 3950
Wire Notes Line
	28650 3950 28650 4450
Wire Notes Line
	28750 4450 28850 4450
Wire Notes Line
	28950 3950 28950 4450
Wire Notes Line
	28850 3950 28950 3950
Wire Notes Line
	28850 3950 28850 4450
Wire Notes Line
	28950 4450 29050 4450
Wire Notes Line
	29150 3950 29150 4450
Wire Notes Line
	29050 3950 29150 3950
Wire Notes Line
	29050 3950 29050 4450
Wire Notes Line
	29150 4450 29250 4450
Wire Notes Line
	29350 3950 29350 4450
Wire Notes Line
	29250 3950 29350 3950
Wire Notes Line
	29250 3950 29250 4450
Wire Notes Line
	29350 4450 29450 4450
Wire Notes Line
	29550 3950 29550 4450
Wire Notes Line
	29450 3950 29550 3950
Wire Notes Line
	29450 3950 29450 4450
Wire Notes Line
	29550 4450 29650 4450
Wire Notes Line
	29750 3950 29750 4450
Wire Notes Line
	29650 3950 29750 3950
Wire Notes Line
	29650 3950 29650 4450
Wire Notes Line
	29750 4450 29850 4450
Wire Notes Line
	29950 3950 29950 4450
Wire Notes Line
	29850 3950 29950 3950
Wire Notes Line
	29850 3950 29850 4450
Wire Notes Line
	29950 4450 30050 4450
Wire Notes Line
	30150 3950 30150 4450
Wire Notes Line
	30050 3950 30150 3950
Wire Notes Line
	30050 3950 30050 4450
Wire Notes Line
	30150 4450 30250 4450
Wire Notes Line
	30350 3950 30350 4450
Wire Notes Line
	30250 3950 30350 3950
Wire Notes Line
	30250 3950 30250 4450
Wire Notes Line
	30350 4450 30450 4450
Wire Notes Line
	23550 5450 23650 5450
Wire Notes Line
	23650 4950 23650 5450
Wire Notes Line
	24050 4950 24050 5450
Wire Notes Line
	23650 4950 24050 4950
Wire Notes Line
	24050 5450 24450 5450
Wire Notes Line
	24450 4950 24450 5450
Wire Notes Line
	24850 4950 24850 5450
Wire Notes Line
	24450 4950 24850 4950
Wire Notes Line
	24850 5450 25250 5450
Wire Notes Line
	25250 4950 25250 5450
Wire Notes Line
	25650 4950 25650 5450
Wire Notes Line
	25250 4950 25650 4950
Wire Notes Line
	25650 5450 26050 5450
Wire Notes Line
	26050 4950 26050 5450
Wire Notes Line
	26450 4950 26450 5450
Wire Notes Line
	26050 4950 26450 4950
Wire Notes Line
	26450 5450 26850 5450
Wire Notes Line
	26850 4950 26850 5450
Wire Notes Line
	27250 4950 27250 5450
Wire Notes Line
	26850 4950 27250 4950
Wire Notes Line
	27250 5450 27650 5450
Wire Notes Line
	27650 4950 27650 5450
Wire Notes Line
	28050 4950 28050 5450
Wire Notes Line
	27650 4950 28050 4950
Wire Notes Line
	28050 5450 28450 5450
Wire Notes Line
	28450 4950 28450 5450
Wire Notes Line
	28850 4950 28850 5450
Wire Notes Line
	28450 4950 28850 4950
Wire Notes Line
	28850 5450 29250 5450
Wire Notes Line
	29250 4950 29250 5450
Wire Notes Line
	29650 4950 29650 5450
Wire Notes Line
	29250 4950 29650 4950
Wire Notes Line
	29650 5450 30050 5450
Wire Notes Line
	30050 4950 30050 5450
Wire Notes Line
	30450 4950 30450 5450
Wire Notes Line
	30050 4950 30450 4950
Wire Notes Line
	30550 3950 30550 4450
Wire Notes Line
	30450 3950 30550 3950
Wire Notes Line
	30550 4450 30650 4450
Wire Notes Line
	30450 3950 30450 4450
Wire Notes Line
	30450 5450 30850 5450
Wire Notes Line
	23300 6500 31500 6500
Wire Notes Line
	23800 3500 23800 3000
Wire Notes Line
	30200 3500 30200 3000
Wire Notes Line
	27000 3000 27000 3500
Wire Notes Line
	25400 3500 25400 3000
Wire Notes Line
	28600 3000 28600 3500
Wire Notes Line
	23800 6450 23800 6000
Wire Notes Line
	30200 6450 30200 6000
Wire Notes Line
	27000 6000 27000 6450
Wire Notes Line
	25400 6450 25400 6000
Wire Notes Line
	28600 6000 28600 6450
Wire Notes Line
	24450 6450 24450 6000
Wire Notes Line
	30850 6450 30850 6000
Wire Notes Line
	27650 6000 27650 6450
Wire Notes Line
	26050 6450 26050 6000
Wire Notes Line
	29250 6000 29250 6450
Wire Notes Line
	23800 6000 24450 6000
Wire Notes Line
	25400 6000 26050 6000
Wire Notes Line
	27000 6000 27650 6000
Wire Notes Line
	28600 6000 29250 6000
Wire Notes Line
	30200 6000 30850 6000
Wire Notes Line
	30850 4950 30850 5450
Wire Notes Line
	30850 4950 31250 4950
Wire Notes Line
	31250 4950 31250 5450
Wire Notes Line
	31250 5450 31650 5450
Wire Notes Line
	30750 3950 30750 4450
Wire Notes Line
	30650 3950 30750 3950
Wire Notes Line
	30750 4450 30850 4450
Wire Notes Line
	30950 3950 30950 4450
Wire Notes Line
	30850 3950 30950 3950
Wire Notes Line
	30850 3950 30850 4450
Wire Notes Line
	30950 4450 31050 4450
Wire Notes Line
	31150 3950 31150 4450
Wire Notes Line
	31050 3950 31150 3950
Wire Notes Line
	31050 3950 31050 4450
Wire Notes Line
	31150 4450 31250 4450
Wire Notes Line
	31350 3950 31350 4450
Wire Notes Line
	31250 3950 31350 3950
Wire Notes Line
	31350 4450 31450 4450
Wire Notes Line
	31250 3950 31250 4450
Wire Notes Line
	30650 3950 30650 4450
Text Notes 23450 2950 2    100  ~ 20
1PPS
Text Notes 23450 3950 2    100  ~ 20
CLK
Wire Notes Line
	24450 6450 25400 6450
Wire Notes Line
	26050 6450 27000 6450
Wire Notes Line
	27650 6450 28600 6450
Wire Notes Line
	29250 6450 30200 6450
Wire Notes Line
	30850 6450 31800 6450
Wire Notes Line
	23550 6450 23800 6450
Text Notes 23450 4950 2    100  ~ 20
DIV_CLK
Text Notes 23450 6000 2    100  ~ 20
Phase Diff
Wire Notes Line
	23300 7500 31500 7500
Wire Notes Line
	23800 7500 23800 7000
Text Notes 23450 7000 2    100  ~ 20
Start Pulse
Wire Notes Line
	25400 7500 25400 7000
Wire Notes Line
	27000 7500 27000 7000
Wire Notes Line
	28600 7500 28600 7000
Wire Notes Line
	30200 7500 30200 7000
Wire Notes Line
	23300 8500 31500 8500
Wire Notes Line
	24450 8500 24450 8000
Wire Notes Line
	26050 8500 26050 8000
Wire Notes Line
	27650 8500 27650 8000
Wire Notes Line
	29250 8500 29250 8000
Wire Notes Line
	30850 8500 30850 8000
Text Notes 23450 8000 2    100  ~ 20
Stop Pulse
Wire Notes Line
	9500 16000 20500 16000
Text Label 14550 6800 2    50   ~ 0
TDC_CLK_REF
Wire Wire Line
	11650 5700 14550 5700
Text Label 14550 7600 2    50   ~ 0
~PSOC_PHASE_CMP_RESET
Text Notes 10900 7550 0    100  ~ 0
REGULATOR
Text Notes 11150 4950 0    100  ~ 0
32 kHz
Text Label 14550 4700 2    50   ~ 0
OCXO_CLK+
Text Label 14550 3700 2    50   ~ 0
EXT_REF_CLK_EN
Text Label 14550 7900 2    50   ~ 0
EXT_REF_CLK
$Comp
L power:+5V #PWR035
U 1 1 61BEFF69
P 10950 8300
F 0 "#PWR035" H 10950 8150 50  0001 C CNN
F 1 "+5V" V 10950 8500 50  0000 C CNN
F 2 "" H 10950 8300 50  0001 C CNN
F 3 "" H 10950 8300 50  0001 C CNN
	1    10950 8300
	0    -1   1    0   
$EndComp
Wire Wire Line
	11900 8300 11900 8450
Wire Wire Line
	11750 8300 11900 8300
$Comp
L power:GND #PWR046
U 1 1 61AB0FFB
P 11900 8750
F 0 "#PWR046" H 11900 8500 50  0001 C CNN
F 1 "GND" H 11900 8600 50  0000 C CNN
F 2 "" H 11900 8750 50  0001 C CNN
F 3 "" H 11900 8750 50  0001 C CNN
	1    11900 8750
	1    0    0    -1  
$EndComp
$Comp
L Device:C C10
U 1 1 61AB0FF5
P 11900 8600
F 0 "C10" H 12015 8691 50  0000 L CNN
F 1 "10n" H 12015 8600 50  0000 L CNN
F 2 "Capacitor_SMD:C_0201_0603Metric_Pad0.64x0.40mm_HandSolder" H 11938 8450 50  0001 C CNN
F 3 "~" H 11900 8600 50  0001 C CNN
F 4 "0201" H 12015 8509 50  0000 L CNN "Package"
F 5 "" H 11900 8600 50  0001 C CNN "MPN"
F 6 "" H 11900 8600 50  0001 C CNN "LCSC"
	1    11900 8600
	1    0    0    -1  
$EndComp
Wire Wire Line
	10500 8000 10950 8000
$Comp
L power:+5V #PWR030
U 1 1 60212BD3
P 10500 7900
F 0 "#PWR030" H 10500 7750 50  0001 C CNN
F 1 "+5V" H 10500 8050 50  0000 C CNN
F 2 "" H 10500 7900 50  0001 C CNN
F 3 "" H 10500 7900 50  0001 C CNN
	1    10500 7900
	-1   0    0    -1  
$EndComp
Wire Wire Line
	13250 6300 13100 6300
Connection ~ 13250 6300
Wire Wire Line
	13250 6400 13250 6300
Wire Wire Line
	14550 6300 13250 6300
$Comp
L power:+3.3VP #PWR054
U 1 1 60751D4D
P 13100 6300
F 0 "#PWR054" H 13250 6250 50  0001 C CNN
F 1 "+3.3VP" V 13100 6550 50  0000 C CNN
F 2 "" H 13100 6300 50  0001 C CNN
F 3 "" H 13100 6300 50  0001 C CNN
	1    13100 6300
	0    -1   1    0   
$EndComp
$Comp
L power:+3.3VP #PWR053
U 1 1 6072F834
P 13100 5400
F 0 "#PWR053" H 13250 5350 50  0001 C CNN
F 1 "+3.3VP" V 13100 5650 50  0000 C CNN
F 2 "" H 13100 5400 50  0001 C CNN
F 3 "" H 13100 5400 50  0001 C CNN
	1    13100 5400
	0    -1   1    0   
$EndComp
$Comp
L power:+3.3VP #PWR052
U 1 1 6070D375
P 13100 4600
F 0 "#PWR052" H 13250 4550 50  0001 C CNN
F 1 "+3.3VP" V 13100 4850 50  0000 C CNN
F 2 "" H 13100 4600 50  0001 C CNN
F 3 "" H 13100 4600 50  0001 C CNN
	1    13100 4600
	0    -1   1    0   
$EndComp
$Comp
L power:+3.3VP #PWR051
U 1 1 606EB03B
P 13100 3900
F 0 "#PWR051" H 13250 3850 50  0001 C CNN
F 1 "+3.3VP" V 13100 4150 50  0000 C CNN
F 2 "" H 13100 3900 50  0001 C CNN
F 3 "" H 13100 3900 50  0001 C CNN
	1    13100 3900
	0    -1   1    0   
$EndComp
$Comp
L power:+3.3VP #PWR050
U 1 1 606C8BFE
P 13100 3100
F 0 "#PWR050" H 13250 3050 50  0001 C CNN
F 1 "+3.3VP" V 13100 3350 50  0000 C CNN
F 2 "" H 13100 3100 50  0001 C CNN
F 3 "" H 13100 3100 50  0001 C CNN
	1    13100 3100
	0    -1   1    0   
$EndComp
$Comp
L power:+3.3VP #PWR088
U 1 1 606845A8
P 18500 3600
F 0 "#PWR088" H 18650 3550 50  0001 C CNN
F 1 "+3.3VP" V 18500 3850 50  0000 C CNN
F 2 "" H 18500 3600 50  0001 C CNN
F 3 "" H 18500 3600 50  0001 C CNN
	1    18500 3600
	0    1    -1   0   
$EndComp
$Comp
L power:+3.3VP #PWR087
U 1 1 6063FEA2
P 18500 3500
F 0 "#PWR087" H 18650 3450 50  0001 C CNN
F 1 "+3.3VP" V 18500 3750 50  0000 C CNN
F 2 "" H 18500 3500 50  0001 C CNN
F 3 "" H 18500 3500 50  0001 C CNN
	1    18500 3500
	0    1    -1   0   
$EndComp
$Comp
L power:+3.3VP #PWR048
U 1 1 6061BF65
P 12300 7900
F 0 "#PWR048" H 12450 7850 50  0001 C CNN
F 1 "+3.3VP" H 12315 8073 50  0000 C CNN
F 2 "" H 12300 7900 50  0001 C CNN
F 3 "" H 12300 7900 50  0001 C CNN
	1    12300 7900
	1    0    0    -1  
$EndComp
Connection ~ 10500 8000
Wire Wire Line
	10500 8000 10500 8150
$Comp
L power:GND #PWR031
U 1 1 6052352A
P 10500 8450
F 0 "#PWR031" H 10500 8200 50  0001 C CNN
F 1 "GND" H 10500 8300 50  0000 C CNN
F 2 "" H 10500 8450 50  0001 C CNN
F 3 "" H 10500 8450 50  0001 C CNN
	1    10500 8450
	1    0    0    -1  
$EndComp
$Comp
L Device:C C4
U 1 1 60523524
P 10500 8300
F 0 "C4" H 10615 8391 50  0000 L CNN
F 1 "1u" H 10615 8300 50  0000 L CNN
F 2 "Capacitor_SMD:C_0201_0603Metric_Pad0.64x0.40mm_HandSolder" H 10538 8150 50  0001 C CNN
F 3 "~" H 10500 8300 50  0001 C CNN
F 4 "0201" H 10615 8209 50  0000 L CNN "Package"
F 5 "" H 10500 8300 50  0001 C CNN "MPN"
F 6 "" H 10500 8300 50  0001 C CNN "LCSC"
	1    10500 8300
	-1   0    0    -1  
$EndComp
Wire Wire Line
	12300 8000 12300 8150
Connection ~ 12300 8000
Wire Wire Line
	12300 7900 12300 8000
Wire Wire Line
	11750 8000 12300 8000
$Comp
L power:GND #PWR049
U 1 1 60523513
P 12300 8450
F 0 "#PWR049" H 12300 8200 50  0001 C CNN
F 1 "GND" H 12300 8300 50  0000 C CNN
F 2 "" H 12300 8450 50  0001 C CNN
F 3 "" H 12300 8450 50  0001 C CNN
	1    12300 8450
	1    0    0    -1  
$EndComp
Wire Wire Line
	10500 8000 10500 7900
$Comp
L power:GND #PWR036
U 1 1 605234FF
P 10950 8150
F 0 "#PWR036" H 10950 7900 50  0001 C CNN
F 1 "GND" V 10950 7950 50  0000 C CNN
F 2 "" H 10950 8150 50  0001 C CNN
F 3 "" H 10950 8150 50  0001 C CNN
	1    10950 8150
	0    1    -1   0   
$EndComp
$Comp
L power:GND #PWR021
U 1 1 605234E4
P 6250 4650
F 0 "#PWR021" H 6250 4400 50  0001 C CNN
F 1 "GND" H 6250 4500 50  0000 C CNN
F 2 "" H 6250 4650 50  0001 C CNN
F 3 "" H 6250 4650 50  0001 C CNN
	1    6250 4650
	-1   0    0    -1  
$EndComp
$Comp
L power:GND #PWR065
U 1 1 62728540
P 14550 2900
F 0 "#PWR065" H 14550 2650 50  0001 C CNN
F 1 "GND" V 14550 2700 50  0000 C CNN
F 2 "" H 14550 2900 50  0001 C CNN
F 3 "" H 14550 2900 50  0001 C CNN
	1    14550 2900
	0    1    -1   0   
$EndComp
Wire Wire Line
	14550 4100 13900 4100
Wire Wire Line
	14550 5600 13900 5600
NoConn ~ 14550 3200
NoConn ~ 17350 3000
Text Notes 17300 1800 2    250  ~ 0
PSoC 5LP Microcontroller
Wire Notes Line
	9500 2000 20000 2000
Wire Notes Line
	9500 9500 9500 2000
Wire Notes Line
	20000 9500 9500 9500
Wire Notes Line
	20000 2000 20000 9500
Wire Wire Line
	17700 3400 17350 3400
Text Label 11800 5700 0    50   ~ 0
PSOC_32KHZ_RTC
$Comp
L power:GND #PWR047
U 1 1 60745E00
P 11850 5250
F 0 "#PWR047" H 11850 5000 50  0001 C CNN
F 1 "GND" V 11850 5050 50  0000 C CNN
F 2 "" H 11850 5250 50  0001 C CNN
F 3 "" H 11850 5250 50  0001 C CNN
	1    11850 5250
	0    -1   -1   0   
$EndComp
$Comp
L power:GND #PWR042
U 1 1 6073A395
P 11350 6000
F 0 "#PWR042" H 11350 5750 50  0001 C CNN
F 1 "GND" H 11350 5850 50  0000 C CNN
F 2 "" H 11350 6000 50  0001 C CNN
F 3 "" H 11350 6000 50  0001 C CNN
	1    11350 6000
	1    0    0    -1  
$EndComp
Wire Wire Line
	11350 5250 11350 5400
Connection ~ 11350 5250
Wire Wire Line
	11200 5250 11350 5250
Wire Wire Line
	11550 5250 11350 5250
$Comp
L Device:C C9
U 1 1 6070DA01
P 11700 5250
F 0 "C9" V 11800 5350 50  0000 L CNN
F 1 "0.1u" V 11800 5150 50  0000 R CNN
F 2 "Capacitor_SMD:C_0201_0603Metric_Pad0.64x0.40mm_HandSolder" H 11738 5100 50  0001 C CNN
F 3 "~" H 11700 5250 50  0001 C CNN
F 4 "0201" V 11550 5250 50  0000 C CNN "Package"
F 5 "" H 11700 5250 50  0001 C CNN "MPN"
F 6 "" V 11700 5250 50  0001 C CNN "LCSC"
	1    11700 5250
	0    -1   -1   0   
$EndComp
$Comp
L Sundial:SIT1568 X1
U 1 1 6070BCC3
P 11350 5700
F 0 "X1" H 11120 5746 50  0000 R CNN
F 1 "SIT1630" H 11120 5655 50  0000 R CNN
F 2 "Sundial:4-CSPBGA" H 11350 5350 50  0001 C CNN
F 3 "https://www.sitime.com/support/resource-library/datasheets/sit1568-datasheet" H 11250 5700 50  0001 C CNN
	1    11350 5700
	1    0    0    -1  
$EndComp
Text Label 14550 6500 2    50   ~ 0
OCXO_HSENSE1
Text Label 14550 4400 2    50   ~ 0
OCXO_HSET2
Text Label 14550 4300 2    50   ~ 0
OCXO_HSET1
Text Label 14550 6100 2    50   ~ 0
OCXO_HSENSE2
Text Label 14550 3300 2    50   ~ 0
OCXO_SPI_MISO
Text Label 14550 8400 2    50   ~ 0
I2CM_SDA
Text Label 14550 8500 2    50   ~ 0
I2CM_SCL
Text Label 17700 3400 0    50   ~ 0
~PSOC_XRES
Text Label 14550 8300 2    50   ~ 0
PSOC_SWDIO
Text Label 14550 6000 2    50   ~ 0
PSOC_I2CS_SCL
Text Label 14550 5900 2    50   ~ 0
PSOC_I2CS_SDA
Text Label 14550 7700 2    50   ~ 0
TDC_TRIGGER
Text Label 14550 3000 2    50   ~ 0
TDC_ENABLE
Text Label 14550 7500 2    50   ~ 0
TDC_SPI_CLK
Text Label 14550 7000 2    50   ~ 0
~TDC_SPI_CS
Text Label 14550 7400 2    50   ~ 0
TDC_SPI_MOSI
Text Label 14550 6900 2    50   ~ 0
TDC_SPI_MISO
Text Label 14550 6700 2    50   ~ 0
~TDC_INTB
$Comp
L Device:C C18
U 1 1 5F4BB5C6
P 13750 5600
F 0 "C18" V 13650 5700 50  0000 L CNN
F 1 "1u" V 13650 5500 50  0000 R CNN
F 2 "Capacitor_SMD:C_0201_0603Metric_Pad0.64x0.40mm_HandSolder" H 13788 5450 50  0001 C CNN
F 3 "~" H 13750 5600 50  0001 C CNN
F 4 "0201" V 13600 5600 50  0000 C CNN "Package"
F 5 "" H 13750 5600 50  0001 C CNN "MPN"
F 6 "" V 13750 5600 50  0001 C CNN "LCSC"
	1    13750 5600
	0    1    1    0   
$EndComp
$Comp
L power:GND #PWR062
U 1 1 5F4BB5BE
P 13600 5600
F 0 "#PWR062" H 13600 5350 50  0001 C CNN
F 1 "GND" H 13600 5450 50  0000 C CNN
F 2 "" H 13600 5600 50  0001 C CNN
F 3 "" H 13600 5600 50  0001 C CNN
	1    13600 5600
	0    1    -1   0   
$EndComp
$Comp
L Device:C C17
U 1 1 5F4B6B6E
P 13750 4100
F 0 "C17" V 13650 4200 50  0000 L CNN
F 1 "1u" V 13650 4000 50  0000 R CNN
F 2 "Capacitor_SMD:C_0201_0603Metric_Pad0.64x0.40mm_HandSolder" H 13788 3950 50  0001 C CNN
F 3 "~" H 13750 4100 50  0001 C CNN
F 4 "0201" V 13600 4100 50  0000 C CNN "Package"
F 5 "" H 13750 4100 50  0001 C CNN "MPN"
F 6 "" V 13750 4100 50  0001 C CNN "LCSC"
	1    13750 4100
	0    1    1    0   
$EndComp
$Comp
L power:GND #PWR061
U 1 1 5F4B6B66
P 13600 4100
F 0 "#PWR061" H 13600 3850 50  0001 C CNN
F 1 "GND" H 13600 3950 50  0000 C CNN
F 2 "" H 13600 4100 50  0001 C CNN
F 3 "" H 13600 4100 50  0001 C CNN
	1    13600 4100
	0    1    -1   0   
$EndComp
$Comp
L power:GND #PWR068
U 1 1 5F4AB577
P 14550 5500
F 0 "#PWR068" H 14550 5250 50  0001 C CNN
F 1 "GND" V 14550 5300 50  0000 C CNN
F 2 "" H 14550 5500 50  0001 C CNN
F 3 "" H 14550 5500 50  0001 C CNN
	1    14550 5500
	0    1    -1   0   
$EndComp
$Comp
L power:GND #PWR067
U 1 1 5F4AA30A
P 14550 5300
F 0 "#PWR067" H 14550 5050 50  0001 C CNN
F 1 "GND" V 14550 5100 50  0000 C CNN
F 2 "" H 14550 5300 50  0001 C CNN
F 3 "" H 14550 5300 50  0001 C CNN
	1    14550 5300
	0    1    -1   0   
$EndComp
$Comp
L power:GND #PWR066
U 1 1 5F4A9058
P 14550 4000
F 0 "#PWR066" H 14550 3750 50  0001 C CNN
F 1 "GND" V 14550 3800 50  0000 C CNN
F 2 "" H 14550 4000 50  0001 C CNN
F 3 "" H 14550 4000 50  0001 C CNN
	1    14550 4000
	0    1    -1   0   
$EndComp
Wire Wire Line
	17350 3800 17500 3800
Wire Wire Line
	17500 3950 17500 3800
$Comp
L power:GND #PWR079
U 1 1 5F4A2A11
P 17500 4250
F 0 "#PWR079" H 17500 4000 50  0001 C CNN
F 1 "GND" H 17505 4077 50  0000 C CNN
F 2 "" H 17500 4250 50  0001 C CNN
F 3 "" H 17500 4250 50  0001 C CNN
	1    17500 4250
	-1   0    0    -1  
$EndComp
$Comp
L Device:C C21
U 1 1 5F4A2A0B
P 17500 4100
F 0 "C21" H 17615 4191 50  0000 L CNN
F 1 "1u" H 17615 4100 50  0000 L CNN
F 2 "Capacitor_SMD:C_0201_0603Metric_Pad0.64x0.40mm_HandSolder" H 17538 3950 50  0001 C CNN
F 3 "~" H 17500 4100 50  0001 C CNN
F 4 "0201" H 17615 4009 50  0000 L CNN "Package"
F 5 "" H 17500 4100 50  0001 C CNN "MPN"
F 6 "" H 17500 4100 50  0001 C CNN "LCSC"
	1    17500 4100
	-1   0    0    -1  
$EndComp
$Comp
L power:GND #PWR077
U 1 1 5F4A03C7
P 17350 3700
F 0 "#PWR077" H 17350 3450 50  0001 C CNN
F 1 "GND" V 17350 3500 50  0000 C CNN
F 2 "" H 17350 3700 50  0001 C CNN
F 3 "" H 17350 3700 50  0001 C CNN
	1    17350 3700
	0    -1   1    0   
$EndComp
$Comp
L power:GND #PWR074
U 1 1 5F49EAB6
P 17350 3100
F 0 "#PWR074" H 17350 2850 50  0001 C CNN
F 1 "GND" V 17350 2900 50  0000 C CNN
F 2 "" H 17350 3100 50  0001 C CNN
F 3 "" H 17350 3100 50  0001 C CNN
	1    17350 3100
	0    -1   1    0   
$EndComp
$Comp
L power:GND #PWR075
U 1 1 5F49D7DA
P 17350 3200
F 0 "#PWR075" H 17350 2950 50  0001 C CNN
F 1 "GND" V 17350 3000 50  0000 C CNN
F 2 "" H 17350 3200 50  0001 C CNN
F 3 "" H 17350 3200 50  0001 C CNN
	1    17350 3200
	0    -1   1    0   
$EndComp
$Comp
L power:GND #PWR076
U 1 1 5F49C24E
P 17350 3300
F 0 "#PWR076" H 17350 3050 50  0001 C CNN
F 1 "GND" V 17350 3100 50  0000 C CNN
F 2 "" H 17350 3300 50  0001 C CNN
F 3 "" H 17350 3300 50  0001 C CNN
	1    17350 3300
	0    -1   1    0   
$EndComp
$Comp
L power:GND #PWR073
U 1 1 5F49B126
P 17350 2900
F 0 "#PWR073" H 17350 2650 50  0001 C CNN
F 1 "GND" V 17350 2700 50  0000 C CNN
F 2 "" H 17350 2900 50  0001 C CNN
F 3 "" H 17350 2900 50  0001 C CNN
	1    17350 2900
	0    -1   1    0   
$EndComp
Wire Wire Line
	18350 3600 18500 3600
Connection ~ 18350 3600
Wire Wire Line
	17350 3600 18350 3600
Wire Wire Line
	18350 3750 18350 3600
$Comp
L power:GND #PWR086
U 1 1 5F499D6B
P 18350 4050
F 0 "#PWR086" H 18350 3800 50  0001 C CNN
F 1 "GND" H 18355 3877 50  0000 C CNN
F 2 "" H 18350 4050 50  0001 C CNN
F 3 "" H 18350 4050 50  0001 C CNN
	1    18350 4050
	-1   0    0    -1  
$EndComp
$Comp
L Device:C C24
U 1 1 5F499D65
P 18350 3900
F 0 "C24" H 18465 3991 50  0000 L CNN
F 1 "0.1u" H 18465 3900 50  0000 L CNN
F 2 "Capacitor_SMD:C_0201_0603Metric_Pad0.64x0.40mm_HandSolder" H 18388 3750 50  0001 C CNN
F 3 "~" H 18350 3900 50  0001 C CNN
F 4 "0201" H 18465 3809 50  0000 L CNN "Package"
F 5 "" H 18350 3900 50  0001 C CNN "MPN"
F 6 "" H 18350 3900 50  0001 C CNN "LCSC"
	1    18350 3900
	1    0    0    -1  
$EndComp
Wire Wire Line
	18350 3500 18500 3500
Connection ~ 18350 3500
Wire Wire Line
	17350 3500 18350 3500
Wire Wire Line
	18350 3350 18350 3500
$Comp
L power:GND #PWR085
U 1 1 5F49847B
P 18350 3050
F 0 "#PWR085" H 18350 2800 50  0001 C CNN
F 1 "GND" H 18355 2877 50  0000 C CNN
F 2 "" H 18350 3050 50  0001 C CNN
F 3 "" H 18350 3050 50  0001 C CNN
	1    18350 3050
	-1   0    0    1   
$EndComp
$Comp
L Device:C C23
U 1 1 5F498475
P 18350 3200
F 0 "C23" H 18465 3291 50  0000 L CNN
F 1 "0.1u" H 18465 3200 50  0000 L CNN
F 2 "Capacitor_SMD:C_0201_0603Metric_Pad0.64x0.40mm_HandSolder" H 18388 3050 50  0001 C CNN
F 3 "~" H 18350 3200 50  0001 C CNN
F 4 "0201" H 18465 3109 50  0000 L CNN "Package"
F 5 "" H 18350 3200 50  0001 C CNN "MPN"
F 6 "" H 18350 3200 50  0001 C CNN "LCSC"
	1    18350 3200
	1    0    0    -1  
$EndComp
$Comp
L power:GND #PWR059
U 1 1 5F4955A7
P 13250 6700
F 0 "#PWR059" H 13250 6450 50  0001 C CNN
F 1 "GND" H 13255 6527 50  0000 C CNN
F 2 "" H 13250 6700 50  0001 C CNN
F 3 "" H 13250 6700 50  0001 C CNN
	1    13250 6700
	-1   0    0    -1  
$EndComp
$Comp
L Device:C C16
U 1 1 5F4955A1
P 13250 6550
F 0 "C16" H 13365 6641 50  0000 L CNN
F 1 "0.1u" H 13365 6550 50  0000 L CNN
F 2 "Capacitor_SMD:C_0201_0603Metric_Pad0.64x0.40mm_HandSolder" H 13288 6400 50  0001 C CNN
F 3 "~" H 13250 6550 50  0001 C CNN
F 4 "0201" H 13365 6459 50  0000 L CNN "Package"
F 5 "" H 13250 6550 50  0001 C CNN "MPN"
F 6 "" H 13250 6550 50  0001 C CNN "LCSC"
	1    13250 6550
	-1   0    0    -1  
$EndComp
Wire Wire Line
	13250 5400 13100 5400
Connection ~ 13250 5400
Wire Wire Line
	14550 5400 13250 5400
Wire Wire Line
	13250 5250 13250 5400
$Comp
L power:GND #PWR058
U 1 1 5F493F80
P 13250 4950
F 0 "#PWR058" H 13250 4700 50  0001 C CNN
F 1 "GND" H 13255 4777 50  0000 C CNN
F 2 "" H 13250 4950 50  0001 C CNN
F 3 "" H 13250 4950 50  0001 C CNN
	1    13250 4950
	1    0    0    1   
$EndComp
$Comp
L Device:C C15
U 1 1 5F493F7A
P 13250 5100
F 0 "C15" H 13365 5191 50  0000 L CNN
F 1 "0.1u" H 13365 5100 50  0000 L CNN
F 2 "Capacitor_SMD:C_0201_0603Metric_Pad0.64x0.40mm_HandSolder" H 13288 4950 50  0001 C CNN
F 3 "~" H 13250 5100 50  0001 C CNN
F 4 "0201" H 13365 5009 50  0000 L CNN "Package"
F 5 "" H 13250 5100 50  0001 C CNN "MPN"
F 6 "" H 13250 5100 50  0001 C CNN "LCSC"
	1    13250 5100
	-1   0    0    -1  
$EndComp
Wire Wire Line
	13250 4600 13100 4600
Connection ~ 13250 4600
Wire Wire Line
	14550 4600 13250 4600
Wire Wire Line
	13250 4450 13250 4600
$Comp
L power:GND #PWR057
U 1 1 5F4926DA
P 13250 4150
F 0 "#PWR057" H 13250 3900 50  0001 C CNN
F 1 "GND" H 13255 3977 50  0000 C CNN
F 2 "" H 13250 4150 50  0001 C CNN
F 3 "" H 13250 4150 50  0001 C CNN
	1    13250 4150
	1    0    0    1   
$EndComp
$Comp
L Device:C C14
U 1 1 5F4926D4
P 13250 4300
F 0 "C14" H 13365 4391 50  0000 L CNN
F 1 "0.1u" H 13365 4300 50  0000 L CNN
F 2 "Capacitor_SMD:C_0201_0603Metric_Pad0.64x0.40mm_HandSolder" H 13288 4150 50  0001 C CNN
F 3 "~" H 13250 4300 50  0001 C CNN
F 4 "0201" H 13365 4209 50  0000 L CNN "Package"
F 5 "" H 13250 4300 50  0001 C CNN "MPN"
F 6 "" H 13250 4300 50  0001 C CNN "LCSC"
	1    13250 4300
	-1   0    0    -1  
$EndComp
Wire Wire Line
	13250 3900 13100 3900
Connection ~ 13250 3900
Wire Wire Line
	14550 3900 13250 3900
Wire Wire Line
	13250 3750 13250 3900
$Comp
L power:GND #PWR056
U 1 1 5F491662
P 13250 3450
F 0 "#PWR056" H 13250 3200 50  0001 C CNN
F 1 "GND" H 13255 3277 50  0000 C CNN
F 2 "" H 13250 3450 50  0001 C CNN
F 3 "" H 13250 3450 50  0001 C CNN
	1    13250 3450
	1    0    0    1   
$EndComp
$Comp
L Device:C C13
U 1 1 5F49165C
P 13250 3600
F 0 "C13" H 13365 3691 50  0000 L CNN
F 1 "0.1u" H 13365 3600 50  0000 L CNN
F 2 "Capacitor_SMD:C_0201_0603Metric_Pad0.64x0.40mm_HandSolder" H 13288 3450 50  0001 C CNN
F 3 "~" H 13250 3600 50  0001 C CNN
F 4 "0201" H 13365 3509 50  0000 L CNN "Package"
F 5 "" H 13250 3600 50  0001 C CNN "MPN"
F 6 "" H 13250 3600 50  0001 C CNN "LCSC"
	1    13250 3600
	-1   0    0    -1  
$EndComp
Wire Wire Line
	13250 3100 13100 3100
Connection ~ 13250 3100
Wire Wire Line
	14550 3100 13250 3100
Wire Wire Line
	13250 2950 13250 3100
$Comp
L power:GND #PWR055
U 1 1 5F48E89D
P 13250 2650
F 0 "#PWR055" H 13250 2400 50  0001 C CNN
F 1 "GND" H 13255 2477 50  0000 C CNN
F 2 "" H 13250 2650 50  0001 C CNN
F 3 "" H 13250 2650 50  0001 C CNN
	1    13250 2650
	1    0    0    1   
$EndComp
$Comp
L Device:C C12
U 1 1 5F48E897
P 13250 2800
F 0 "C12" H 13365 2891 50  0000 L CNN
F 1 "0.1u" H 13365 2800 50  0000 L CNN
F 2 "Capacitor_SMD:C_0201_0603Metric_Pad0.64x0.40mm_HandSolder" H 13288 2650 50  0001 C CNN
F 3 "~" H 13250 2800 50  0001 C CNN
F 4 "0201" H 13365 2709 50  0000 L CNN "Package"
F 5 "" H 13250 2800 50  0001 C CNN "MPN"
F 6 "" H 13250 2800 50  0001 C CNN "LCSC"
	1    13250 2800
	-1   0    0    -1  
$EndComp
$Comp
L power:+5V #PWR020
U 1 1 64DF738B
P 6250 4350
F 0 "#PWR020" H 6250 4200 50  0001 C CNN
F 1 "+5V" H 6250 4500 50  0000 C CNN
F 2 "" H 6250 4350 50  0001 C CNN
F 3 "" H 6250 4350 50  0001 C CNN
	1    6250 4350
	-1   0    0    -1  
$EndComp
Text Label 16900 15150 2    50   ~ 0
OCXO_CLK+_RETIMER_OUT
Wire Wire Line
	15300 15150 15000 15150
$Comp
L power:GND #PWR041
U 1 1 64A5A5BB
P 14750 15500
F 0 "#PWR041" H 14750 15250 50  0001 C CNN
F 1 "GND" H 14750 15350 50  0000 C CNN
F 2 "" H 14750 15500 50  0001 C CNN
F 3 "" H 14750 15500 50  0001 C CNN
	1    14750 15500
	1    0    0    -1  
$EndComp
$Comp
L power:GND #PWR043
U 1 1 64A7310A
P 15250 14850
F 0 "#PWR043" H 15250 14600 50  0001 C CNN
F 1 "GND" V 15250 14650 50  0000 C CNN
F 2 "" H 15250 14850 50  0001 C CNN
F 3 "" H 15250 14850 50  0001 C CNN
	1    15250 14850
	0    -1   -1   0   
$EndComp
Wire Wire Line
	14750 14850 14750 15000
Connection ~ 14750 14850
Wire Wire Line
	14750 14700 14750 14850
Wire Wire Line
	14950 14850 14750 14850
$Comp
L Device:C C8
U 1 1 64A73116
P 15100 14850
F 0 "C8" V 15200 14950 50  0000 L CNN
F 1 "0.1u" V 15200 14750 50  0000 R CNN
F 2 "Capacitor_SMD:C_0201_0603Metric_Pad0.64x0.40mm_HandSolder" H 15138 14700 50  0001 C CNN
F 3 "~" H 15100 14850 50  0001 C CNN
F 4 "0201" V 14950 14850 50  0000 C CNN "Package"
F 5 "" H 15100 14850 50  0001 C CNN "MPN"
F 6 "" V 15100 14850 50  0001 C CNN "LCSC"
	1    15100 14850
	0    -1   -1   0   
$EndComp
$Comp
L Sundial:74x1G79GM U6
U 1 1 60670B7C
P 14750 15250
F 0 "U6" H 15000 15100 50  0000 L CNN
F 1 "74x1G79GM" H 15000 15000 50  0000 L CNN
F 2 "Sundial:PSON50P145X100X50-6N" H 14750 15250 50  0001 C CNN
F 3 "" H 14750 15250 50  0001 C CNN
F 4 "SOT-886" H 15000 14900 50  0000 L CNN "Package"
F 5 "74LVC1G79GM" H 14750 15250 50  0001 C CNN "MPN"
F 6 "" H 14750 15250 50  0001 C CNN "LCSC"
	1    14750 15250
	1    0    0    -1  
$EndComp
Text Label 14500 15350 2    50   ~ 0
OCXO_CLK+
NoConn ~ 12600 14950
$Comp
L Sundial:74x4017BQ U3
U 1 1 644FFDAE
P 12100 14550
F 0 "U3" H 11700 14150 50  0000 R CNN
F 1 "4017" H 11700 14050 50  0000 R CNN
F 2 "Sundial:QFN50P250X350X100-17N" H 12100 14550 50  0001 C CNN
F 3 "https://assets.nexperia.com/documents/data-sheet/74HC_HCT4017_Q100.pdf" H 12100 14550 50  0001 C CNN
F 4 "DHVQFN-16" H 11700 13950 50  0000 R CNN "Package"
F 5 "74HC4017PW,118" H 12100 14550 50  0001 C CNN "MPN"
F 6 "" H 12100 14550 50  0001 C CNN "LCSC"
	1    12100 14550
	1    0    0    -1  
$EndComp
Text Label 11600 14050 2    50   ~ 0
OCXO_CLK+
$Comp
L power:GND #PWR023
U 1 1 645F5C93
P 11600 14150
F 0 "#PWR023" H 11600 13900 50  0001 C CNN
F 1 "GND" V 11600 13950 50  0000 C CNN
F 2 "" H 11600 14150 50  0001 C CNN
F 3 "" H 11600 14150 50  0001 C CNN
	1    11600 14150
	0    1    1    0   
$EndComp
$Comp
L power:GND #PWR026
U 1 1 6460CB51
P 12100 15450
F 0 "#PWR026" H 12100 15200 50  0001 C CNN
F 1 "GND" H 12100 15300 50  0000 C CNN
F 2 "" H 12100 15450 50  0001 C CNN
F 3 "" H 12100 15450 50  0001 C CNN
	1    12100 15450
	1    0    0    -1  
$EndComp
$Comp
L Device:C C5
U 1 1 64624837
P 12450 13550
F 0 "C5" V 12550 13650 50  0000 L CNN
F 1 "0.1u" V 12550 13450 50  0000 R CNN
F 2 "Capacitor_SMD:C_0201_0603Metric_Pad0.64x0.40mm_HandSolder" H 12488 13400 50  0001 C CNN
F 3 "~" H 12450 13550 50  0001 C CNN
F 4 "0201" V 12300 13550 50  0000 C CNN "Package"
F 5 "" H 12450 13550 50  0001 C CNN "MPN"
F 6 "" V 12450 13550 50  0001 C CNN "LCSC"
	1    12450 13550
	0    -1   -1   0   
$EndComp
Wire Wire Line
	12300 13550 12100 13550
Wire Wire Line
	11950 13550 12100 13550
Connection ~ 12100 13550
Wire Wire Line
	12100 13550 12100 13750
$Comp
L power:GND #PWR034
U 1 1 64624841
P 12600 13550
F 0 "#PWR034" H 12600 13300 50  0001 C CNN
F 1 "GND" V 12600 13350 50  0000 C CNN
F 2 "" H 12600 13550 50  0001 C CNN
F 3 "" H 12600 13550 50  0001 C CNN
	1    12600 13550
	0    -1   -1   0   
$EndComp
NoConn ~ 12600 14050
NoConn ~ 12600 14150
NoConn ~ 12600 14250
NoConn ~ 12600 14350
NoConn ~ 12600 14650
NoConn ~ 12600 14750
NoConn ~ 12600 14850
NoConn ~ 12600 14450
Wire Wire Line
	18100 15050 17950 15050
Text Label 18100 15050 0    50   ~ 0
TDC_STOP_PULSE
$Comp
L power:GND #PWR032
U 1 1 63B3E5E3
P 17200 15250
F 0 "#PWR032" H 17200 15000 50  0001 C CNN
F 1 "GND" H 17200 15100 50  0000 C CNN
F 2 "" H 17200 15250 50  0001 C CNN
F 3 "" H 17200 15250 50  0001 C CNN
	1    17200 15250
	1    0    0    -1  
$EndComp
$Comp
L power:GND #PWR037
U 1 1 63B3E5D7
P 17700 14650
F 0 "#PWR037" H 17700 14400 50  0001 C CNN
F 1 "GND" V 17700 14450 50  0000 C CNN
F 2 "" H 17700 14650 50  0001 C CNN
F 3 "" H 17700 14650 50  0001 C CNN
	1    17700 14650
	0    -1   -1   0   
$EndComp
Wire Wire Line
	17200 14650 17200 14850
Connection ~ 17200 14650
Wire Wire Line
	17050 14650 17200 14650
Wire Wire Line
	17400 14650 17200 14650
$Comp
L Device:C C6
U 1 1 63B3E5CD
P 17550 14650
F 0 "C6" V 17650 14750 50  0000 L CNN
F 1 "0.1u" V 17650 14550 50  0000 R CNN
F 2 "Capacitor_SMD:C_0201_0603Metric_Pad0.64x0.40mm_HandSolder" H 17588 14500 50  0001 C CNN
F 3 "~" H 17550 14650 50  0001 C CNN
F 4 "0201" V 17400 14650 50  0000 C CNN "Package"
F 5 "" H 17550 14650 50  0001 C CNN "MPN"
F 6 "" V 17550 14650 50  0001 C CNN "LCSC"
	1    17550 14650
	0    -1   -1   0   
$EndComp
$Comp
L Sundial:74x1G126GM U4
U 1 1 63B3E5C4
P 17200 15050
F 0 "U4" H 17350 14850 50  0000 L CNN
F 1 "74x1G126GM" H 17350 14750 50  0000 L CNN
F 2 "Sundial:PSON50P145X100X50-6N" H 17200 15050 50  0001 C CNN
F 3 "" H 17200 15050 50  0001 C CNN
F 4 "SOT-886" H 17350 14650 50  0000 L CNN "Package"
F 5 "74LVC1G126GM" H 17200 15050 50  0001 C CNN "MPN"
F 6 "" H 17200 15050 50  0001 C CNN "LCSC"
	1    17200 15050
	1    0    0    -1  
$EndComp
Wire Wire Line
	17650 15050 17500 15050
Text Label 17350 11800 2    50   ~ 0
~CLK_PULSE_RESET
Wire Wire Line
	17550 11800 17350 11800
Wire Wire Line
	18050 11800 17850 11800
$Comp
L Device:R R6
U 1 1 62E88B2C
P 17700 11800
F 0 "R6" V 17600 11800 50  0000 C CNN
F 1 "0" V 17700 11800 50  0000 C CNN
F 2 "Resistor_SMD:R_0201_0603Metric_Pad0.64x0.40mm_HandSolder" V 17630 11800 50  0001 C CNN
F 3 "~" H 17700 11800 50  0001 C CNN
F 4 "0201" V 17800 11800 50  0000 C CNN "Package"
F 5 "" V 17700 11800 50  0001 C CNN "MPN"
F 6 "" V 17700 11800 50  0001 C CNN "LCSC"
	1    17700 11800
	0    -1   1    0   
$EndComp
Text Label 18050 11800 0    50   ~ 0
~PSOC_PHASE_CMP_RESET
Text Label 17350 11500 2    50   ~ 0
~CLK_PULSE_RESET
Wire Wire Line
	17550 11500 17350 11500
Wire Wire Line
	18050 11500 17850 11500
$Comp
L Device:R R5
U 1 1 62E5A13E
P 17700 11500
F 0 "R5" V 17600 11500 50  0000 C CNN
F 1 "DNI" V 17700 11500 50  0000 C CNN
F 2 "Resistor_SMD:R_0201_0603Metric_Pad0.64x0.40mm_HandSolder" V 17630 11500 50  0001 C CNN
F 3 "~" H 17700 11500 50  0001 C CNN
F 4 "0201" V 17800 11500 50  0000 C CNN "Package"
F 5 "" V 17700 11500 50  0001 C CNN "MPN"
F 6 "" V 17700 11500 50  0001 C CNN "LCSC"
	1    17700 11500
	0    -1   1    0   
$EndComp
Text Label 11700 12800 2    50   ~ 0
~CLK_PULSE_RESET
Wire Notes Line
	9500 16000 9500 11000
Wire Notes Line
	20500 11000 20500 16000
$Comp
L power:GND #PWR027
U 1 1 6186F159
P 12600 11900
F 0 "#PWR027" H 12600 11650 50  0001 C CNN
F 1 "GND" V 12600 11700 50  0000 C CNN
F 2 "" H 12600 11900 50  0001 C CNN
F 3 "" H 12600 11900 50  0001 C CNN
	1    12600 11900
	0    -1   -1   0   
$EndComp
Connection ~ 12100 11900
Wire Wire Line
	12100 11750 12100 11900
Wire Wire Line
	12300 11900 12100 11900
$Comp
L Device:C C3
U 1 1 6186F14F
P 12450 11900
F 0 "C3" V 12550 12000 50  0000 L CNN
F 1 "0.1u" V 12550 11800 50  0000 R CNN
F 2 "Capacitor_SMD:C_0201_0603Metric_Pad0.64x0.40mm_HandSolder" H 12488 11750 50  0001 C CNN
F 3 "~" H 12450 11900 50  0001 C CNN
F 4 "0201" V 12300 11900 50  0000 C CNN "Package"
F 5 "" H 12450 11900 50  0001 C CNN "MPN"
F 6 "" V 12450 11900 50  0001 C CNN "LCSC"
	1    12450 11900
	0    -1   -1   0   
$EndComp
$Comp
L power:GND #PWR022
U 1 1 6167388A
P 11950 12500
F 0 "#PWR022" H 11950 12250 50  0001 C CNN
F 1 "GND" H 11950 12350 50  0000 C CNN
F 2 "" H 11950 12500 50  0001 C CNN
F 3 "" H 11950 12500 50  0001 C CNN
	1    11950 12500
	1    0    0    -1  
$EndComp
NoConn ~ 12350 12450
Wire Wire Line
	11700 12250 11850 12250
Wire Wire Line
	12100 11900 12100 12100
Wire Wire Line
	11950 11900 12100 11900
Wire Wire Line
	11950 12200 11950 11900
Wire Wire Line
	12350 12250 12650 12250
$Comp
L Device:R R4
U 1 1 609B6291
P 12800 12250
F 0 "R4" V 12700 12250 50  0000 C CNN
F 1 "10" V 12800 12250 50  0000 C CNN
F 2 "Resistor_SMD:R_0201_0603Metric_Pad0.64x0.40mm_HandSolder" V 12730 12250 50  0001 C CNN
F 3 "~" H 12800 12250 50  0001 C CNN
F 4 "0201" V 12900 12250 50  0000 C CNN "Package"
F 5 "" V 12800 12250 50  0001 C CNN "MPN"
F 6 "" V 12800 12250 50  0001 C CNN "LCSC"
	1    12800 12250
	0    1    1    0   
$EndComp
Wire Wire Line
	12100 12800 11700 12800
Wire Wire Line
	12100 12600 12100 12800
$Comp
L 74xGxx:74AUP1G74 U2
U 1 1 60969320
P 12100 12350
F 0 "U2" H 12250 12100 50  0000 L CNN
F 1 "74AUP1G74" H 12250 12000 50  0000 L CNN
F 2 "Sundial:PSON25P195X100X50-8N" H 12100 12350 50  0001 C CNN
F 3 "https://assets.nexperia.com/documents/data-sheet/74AUP1G74.pdf" H 12100 12350 50  0001 C CNN
F 4 "XSON8" H 12250 11900 50  0000 L CNN "Package"
F 5 "74AUP1G74GF" H 12100 12350 50  0001 C CNN "MPN"
F 6 "" H 12100 12350 50  0001 C CNN "LCSC"
	1    12100 12350
	1    0    0    -1  
$EndComp
$Comp
L Device:R R8
U 1 1 607E1EAA
P 17800 15050
F 0 "R8" V 17700 15050 50  0000 C CNN
F 1 "10" V 17800 15050 50  0000 C CNN
F 2 "Resistor_SMD:R_0201_0603Metric_Pad0.64x0.40mm_HandSolder" V 17730 15050 50  0001 C CNN
F 3 "~" H 17800 15050 50  0001 C CNN
F 4 "0201" V 17900 15050 50  0000 C CNN "Package"
F 5 "" V 17800 15050 50  0001 C CNN "MPN"
F 6 "" V 17800 15050 50  0001 C CNN "LCSC"
	1    17800 15050
	0    1    1    0   
$EndComp
Text Label 18050 11500 0    50   ~ 0
~TDC_INTB
Text Notes 15050 16800 0    250  ~ 0
Phase Measurement
Wire Notes Line
	20500 17000 13000 17000
Wire Notes Line
	20500 20000 20500 17000
Wire Notes Line
	13000 20000 20500 20000
Wire Notes Line
	13000 17000 13000 20000
Text Notes 6750 1750 0    250  ~ 0
Connectors
Text Label 6650 2500 2    50   ~ 0
PSOC_I2CS_SCL
Text Label 6650 2650 2    50   ~ 0
PSOC_I2CS_SDA
Text Label 6650 3100 2    50   ~ 0
PSOC_SWDIO
Text Label 6650 2800 2    50   ~ 0
~PSOC_XRES
Text Label 6650 2950 2    50   ~ 0
PSOC_SWCLK
Wire Notes Line
	9000 5500 9000 2000
Wire Notes Line
	9000 2000 5500 2000
Wire Notes Line
	5500 5500 9000 5500
Wire Notes Line
	5500 2000 5500 5500
$Comp
L Device:R R16
U 1 1 60991C00
P 12900 15150
F 0 "R16" V 12800 15150 50  0000 C CNN
F 1 "10" V 12900 15150 50  0000 C CNN
F 2 "Resistor_SMD:R_0201_0603Metric_Pad0.64x0.40mm_HandSolder" V 12830 15150 50  0001 C CNN
F 3 "~" H 12900 15150 50  0001 C CNN
F 4 "0201" V 13000 15150 50  0000 C CNN "Package"
F 5 "" V 12900 15150 50  0001 C CNN "MPN"
F 6 "" V 12900 15150 50  0001 C CNN "LCSC"
	1    12900 15150
	0    1    1    0   
$EndComp
NoConn ~ 14550 3600
NoConn ~ 14550 3800
NoConn ~ 14550 5800
NoConn ~ 14550 8700
NoConn ~ 14550 6600
NoConn ~ 14550 6200
NoConn ~ 14550 7100
NoConn ~ 14550 7300
Wire Wire Line
	6800 2500 6650 2500
Text Label 14550 8100 2    50   ~ 0
PSOC_1PPS_OUT
Text Label 14550 8200 2    50   ~ 0
PSOC_SWCLK
NoConn ~ 14550 8000
$Comp
L Device:R R23
U 1 1 613A4FF4
P 15450 15150
F 0 "R23" V 15350 15150 50  0000 C CNN
F 1 "10" V 15450 15150 50  0000 C CNN
F 2 "Resistor_SMD:R_0201_0603Metric_Pad0.64x0.40mm_HandSolder" V 15380 15150 50  0001 C CNN
F 3 "~" H 15450 15150 50  0001 C CNN
F 4 "0201" V 15550 15150 50  0000 C CNN "Package"
F 5 "" V 15450 15150 50  0001 C CNN "MPN"
F 6 "" V 15450 15150 50  0001 C CNN "LCSC"
	1    15450 15150
	0    1    1    0   
$EndComp
Wire Wire Line
	16900 15150 15600 15150
$Comp
L power:+5V #PWR0102
U 1 1 6193057E
P 17650 13300
F 0 "#PWR0102" H 17650 13150 50  0001 C CNN
F 1 "+5V" V 17650 13500 50  0000 C CNN
F 2 "" H 17650 13300 50  0001 C CNN
F 3 "" H 17650 13300 50  0001 C CNN
	1    17650 13300
	0    -1   1    0   
$EndComp
Wire Wire Line
	18600 13300 18600 13450
Wire Wire Line
	18450 13300 18600 13300
$Comp
L power:GND #PWR0104
U 1 1 61930591
P 18600 13750
F 0 "#PWR0104" H 18600 13500 50  0001 C CNN
F 1 "GND" H 18600 13600 50  0000 C CNN
F 2 "" H 18600 13750 50  0001 C CNN
F 3 "" H 18600 13750 50  0001 C CNN
	1    18600 13750
	1    0    0    -1  
$EndComp
$Comp
L Device:C C28
U 1 1 6193059A
P 18600 13600
F 0 "C28" H 18715 13691 50  0000 L CNN
F 1 "10n" H 18715 13600 50  0000 L CNN
F 2 "Capacitor_SMD:C_0201_0603Metric_Pad0.64x0.40mm_HandSolder" H 18638 13450 50  0001 C CNN
F 3 "~" H 18600 13600 50  0001 C CNN
F 4 "0201" H 18715 13509 50  0000 L CNN "Package"
F 5 "" H 18600 13600 50  0001 C CNN "MPN"
F 6 "" H 18600 13600 50  0001 C CNN "LCSC"
	1    18600 13600
	1    0    0    -1  
$EndComp
Wire Wire Line
	17200 13000 17650 13000
$Comp
L power:+5V #PWR0105
U 1 1 619305AA
P 17200 12900
F 0 "#PWR0105" H 17200 12750 50  0001 C CNN
F 1 "+5V" H 17200 13050 50  0000 C CNN
F 2 "" H 17200 12900 50  0001 C CNN
F 3 "" H 17200 12900 50  0001 C CNN
	1    17200 12900
	-1   0    0    -1  
$EndComp
Connection ~ 17200 13000
Wire Wire Line
	17200 13000 17200 13150
$Comp
L power:GND #PWR0106
U 1 1 619305B2
P 17200 13450
F 0 "#PWR0106" H 17200 13200 50  0001 C CNN
F 1 "GND" H 17200 13300 50  0000 C CNN
F 2 "" H 17200 13450 50  0001 C CNN
F 3 "" H 17200 13450 50  0001 C CNN
	1    17200 13450
	1    0    0    -1  
$EndComp
$Comp
L Device:C C25
U 1 1 619305BB
P 17200 13300
F 0 "C25" H 17315 13391 50  0000 L CNN
F 1 "1u" H 17315 13300 50  0000 L CNN
F 2 "Capacitor_SMD:C_0201_0603Metric_Pad0.64x0.40mm_HandSolder" H 17238 13150 50  0001 C CNN
F 3 "~" H 17200 13300 50  0001 C CNN
F 4 "0201" H 17315 13209 50  0000 L CNN "Package"
F 5 "" H 17200 13300 50  0001 C CNN "MPN"
F 6 "" H 17200 13300 50  0001 C CNN "LCSC"
	1    17200 13300
	-1   0    0    -1  
$EndComp
Wire Wire Line
	19050 13000 19050 13150
Connection ~ 19050 13000
Wire Wire Line
	19050 12900 19050 13000
Wire Wire Line
	18450 13000 19050 13000
$Comp
L power:GND #PWR0108
U 1 1 619305C5
P 19050 13450
F 0 "#PWR0108" H 19050 13200 50  0001 C CNN
F 1 "GND" H 19050 13300 50  0000 C CNN
F 2 "" H 19050 13450 50  0001 C CNN
F 3 "" H 19050 13450 50  0001 C CNN
	1    19050 13450
	1    0    0    -1  
$EndComp
Wire Wire Line
	17200 13000 17200 12900
$Comp
L power:GND #PWR0113
U 1 1 619305CC
P 17650 13150
F 0 "#PWR0113" H 17650 12900 50  0001 C CNN
F 1 "GND" V 17650 12950 50  0000 C CNN
F 2 "" H 17650 13150 50  0001 C CNN
F 3 "" H 17650 13150 50  0001 C CNN
	1    17650 13150
	0    1    -1   0   
$EndComp
$Comp
L power:+3.3VP #PWR0116
U 1 1 6199B5AC
P 11200 5250
F 0 "#PWR0116" H 11350 5200 50  0001 C CNN
F 1 "+3.3VP" H 11215 5423 50  0000 C CNN
F 2 "" H 11200 5250 50  0001 C CNN
F 3 "" H 11200 5250 50  0001 C CNN
	1    11200 5250
	0    -1   -1   0   
$EndComp
$Comp
L Sundial:TDC7200PW U9
U 1 1 5F457643
P 18200 18400
F 0 "U9" H 18200 19205 50  0000 C CNN
F 1 "TDC7200PW" H 18200 19114 50  0000 C CNN
F 2 "Package_SO:TSSOP-14_4.4x5mm_P0.65mm" H 18250 18600 50  0001 C CNN
F 3 "http://www.ti.com/lit/ds/symlink/tdc7200.pdf" H 18250 18600 50  0001 C CNN
F 4 "TSSOP-14" H 18200 19023 50  0000 C CNN "Package"
F 5 "TDC7200PW" H 18200 18400 50  0001 C CNN "MPN"
F 6 "C1523567" H 18200 18400 50  0001 C CNN "LCSC"
	1    18200 18400
	1    0    0    -1  
$EndComp
Wire Wire Line
	17750 17950 17650 17950
Text Label 17750 18100 2    50   ~ 0
TDC_TRIGGER
Text Label 17750 18250 2    50   ~ 0
TDC_START_PULSE
Text Label 17750 18400 2    50   ~ 0
TDC_STOP_PULSE
Text Label 17750 18550 2    50   ~ 0
TDC_CLK_REF
NoConn ~ 17750 18700
$Comp
L power:GND #PWR070
U 1 1 5F4806BF
P 17750 18850
F 0 "#PWR070" H 17750 18600 50  0001 C CNN
F 1 "GND" V 17750 18650 50  0000 C CNN
F 2 "" H 17750 18850 50  0001 C CNN
F 3 "" H 17750 18850 50  0001 C CNN
	1    17750 18850
	0    1    1    0   
$EndComp
Text Label 19000 18850 0    50   ~ 0
~TDC_INTB
Text Label 18650 18700 0    50   ~ 0
TDC_SPI_MISO
Text Label 18650 18550 0    50   ~ 0
TDC_SPI_MOSI
Text Label 18650 18400 0    50   ~ 0
~TDC_SPI_CS
Text Label 18650 18250 0    50   ~ 0
TDC_SPI_CLK
$Comp
L power:GND #PWR084
U 1 1 5F4829ED
P 19600 18100
F 0 "#PWR084" H 19600 17850 50  0001 C CNN
F 1 "GND" H 19600 17950 50  0000 C CNN
F 2 "" H 19600 18100 50  0001 C CNN
F 3 "" H 19600 18100 50  0001 C CNN
	1    19600 18100
	0    -1   -1   0   
$EndComp
$Comp
L Device:C C22
U 1 1 5F483C36
P 19450 18100
F 0 "C22" V 19350 18200 50  0000 L CNN
F 1 "1u" V 19350 18000 50  0000 R CNN
F 2 "Capacitor_SMD:C_0201_0603Metric_Pad0.64x0.40mm_HandSolder" H 19488 17950 50  0001 C CNN
F 3 "~" H 19450 18100 50  0001 C CNN
F 4 "0201" V 19250 18100 50  0000 C CNN "Package"
F 5 "" H 19450 18100 50  0001 C CNN "MPN"
F 6 "" V 19450 18100 50  0001 C CNN "LCSC"
	1    19450 18100
	0    -1   -1   0   
$EndComp
Wire Wire Line
	19300 18100 18650 18100
$Comp
L Device:R R10
U 1 1 5F485F6C
P 17650 17650
F 0 "R10" V 17550 17650 50  0000 C CNN
F 1 "10k" V 17650 17650 50  0000 C CNN
F 2 "Resistor_SMD:R_0201_0603Metric_Pad0.64x0.40mm_HandSolder" V 17580 17650 50  0001 C CNN
F 3 "~" H 17650 17650 50  0001 C CNN
F 4 "0201" V 17750 17650 50  0000 C CNN "Package"
F 5 "" V 17650 17650 50  0001 C CNN "MPN"
F 6 "" V 17650 17650 50  0001 C CNN "LCSC"
	1    17650 17650
	1    0    0    -1  
$EndComp
$Comp
L power:GND #PWR069
U 1 1 5F486881
P 17650 17500
F 0 "#PWR069" H 17650 17250 50  0001 C CNN
F 1 "GND" H 17655 17327 50  0000 C CNN
F 2 "" H 17650 17500 50  0001 C CNN
F 3 "" H 17650 17500 50  0001 C CNN
	1    17650 17500
	-1   0    0    1   
$EndComp
Wire Wire Line
	17650 17800 17650 17950
Connection ~ 17650 17950
$Comp
L Device:R R11
U 1 1 5FD0CFA3
P 18800 19100
F 0 "R11" V 18700 19100 50  0000 C CNN
F 1 "10k" V 18800 19100 50  0000 C CNN
F 2 "Resistor_SMD:R_0201_0603Metric_Pad0.64x0.40mm_HandSolder" V 18730 19100 50  0001 C CNN
F 3 "~" H 18800 19100 50  0001 C CNN
F 4 "0201" V 18900 19100 50  0000 C CNN "Package"
F 5 "" V 18800 19100 50  0001 C CNN "MPN"
F 6 "" V 18800 19100 50  0001 C CNN "LCSC"
	1    18800 19100
	1    0    0    -1  
$EndComp
Wire Wire Line
	18650 18850 18800 18850
Wire Wire Line
	18800 18950 18800 18850
Connection ~ 18800 18850
Wire Wire Line
	18800 18850 19000 18850
Wire Wire Line
	17650 17950 17450 17950
Text Label 17450 17950 2    50   ~ 0
TDC_ENABLE
Wire Wire Line
	18800 17950 18950 17950
Wire Wire Line
	18650 17950 18800 17950
Connection ~ 18800 17950
Wire Wire Line
	18800 17800 18800 17950
$Comp
L power:GND #PWR071
U 1 1 5F48BB57
P 18800 17500
F 0 "#PWR071" H 18800 17250 50  0001 C CNN
F 1 "GND" H 18805 17327 50  0000 C CNN
F 2 "" H 18800 17500 50  0001 C CNN
F 3 "" H 18800 17500 50  0001 C CNN
	1    18800 17500
	-1   0    0    1   
$EndComp
$Comp
L Device:C C20
U 1 1 5F48B355
P 18800 17650
F 0 "C20" H 18915 17741 50  0000 L CNN
F 1 "0.1u" H 18915 17650 50  0000 L CNN
F 2 "Capacitor_SMD:C_0201_0603Metric_Pad0.64x0.40mm_HandSolder" H 18838 17500 50  0001 C CNN
F 3 "~" H 18800 17650 50  0001 C CNN
F 4 "0201" H 18915 17559 50  0000 L CNN "Package"
F 5 "" H 18800 17650 50  0001 C CNN "MPN"
F 6 "" H 18800 17650 50  0001 C CNN "LCSC"
	1    18800 17650
	1    0    0    -1  
$EndComp
Wire Wire Line
	15650 18100 16150 18100
Connection ~ 15650 18100
Wire Wire Line
	15650 17950 15650 18100
$Comp
L power:GND #PWR063
U 1 1 6189B12A
P 15650 17650
F 0 "#PWR063" H 15650 17400 50  0001 C CNN
F 1 "GND" H 15650 17500 50  0000 C CNN
F 2 "" H 15650 17650 50  0001 C CNN
F 3 "" H 15650 17650 50  0001 C CNN
	1    15650 17650
	-1   0    0    1   
$EndComp
$Comp
L Device:C C19
U 1 1 6189B124
P 15650 17800
F 0 "C19" H 15765 17891 50  0000 L CNN
F 1 "0.1u" H 15765 17800 50  0000 L CNN
F 2 "Capacitor_SMD:C_0201_0603Metric_Pad0.64x0.40mm_HandSolder" H 15688 17650 50  0001 C CNN
F 3 "~" H 15650 17800 50  0001 C CNN
F 4 "0201" H 15765 17709 50  0000 L CNN "Package"
F 5 "" H 15650 17800 50  0001 C CNN "MPN"
F 6 "" H 15650 17800 50  0001 C CNN "LCSC"
	1    15650 17800
	1    0    0    -1  
$EndComp
Wire Wire Line
	15050 18100 15650 18100
$Comp
L power:GND #PWR060
U 1 1 6065AFBC
P 14150 18400
F 0 "#PWR060" H 14150 18150 50  0001 C CNN
F 1 "GND" H 14150 18250 50  0000 C CNN
F 2 "" H 14150 18400 50  0001 C CNN
F 3 "" H 14150 18400 50  0001 C CNN
	1    14150 18400
	0    1    1    0   
$EndComp
$Comp
L Sundial:Elite_5032_10L_SPI U8
U 1 1 60507004
P 14600 18250
F 0 "U8" H 14600 18837 60  0000 C CNN
F 1 "Elite_5032_10L_SPI" H 14600 18731 60  0000 C CNN
F 2 "Sundial:Elite_TCXO_Ceramic_5032" H 14500 18300 60  0001 C CNN
F 3 "" H 14500 18300 60  0001 C CNN
F 4 "" H 14600 18250 50  0001 C CNN "MPN"
	1    14600 18250
	1    0    0    -1  
$EndComp
NoConn ~ 15050 18250
NoConn ~ 15050 18400
NoConn ~ 14150 17950
NoConn ~ 14150 18250
NoConn ~ 14150 18550
Wire Wire Line
	15050 18550 17750 18550
Wire Wire Line
	12600 15150 12750 15150
NoConn ~ 12600 14550
Wire Notes Line
	9500 11000 20500 11000
Text Notes 4750 8750 0    250  ~ 0
ELITE OCXO
Wire Wire Line
	15950 12350 15950 14950
Wire Wire Line
	15950 14950 16900 14950
$Comp
L power:+3.3V #PWR0127
U 1 1 6259375E
P 19050 12900
F 0 "#PWR0127" H 19050 12750 50  0001 C CNN
F 1 "+3.3V" H 19065 13073 50  0000 C CNN
F 2 "" H 19050 12900 50  0001 C CNN
F 3 "" H 19050 12900 50  0001 C CNN
	1    19050 12900
	1    0    0    -1  
$EndComp
$Comp
L power:+3.3V #PWR0129
U 1 1 625CA546
P 12100 11750
F 0 "#PWR0129" H 12100 11600 50  0001 C CNN
F 1 "+3.3V" H 12115 11923 50  0000 C CNN
F 2 "" H 12100 11750 50  0001 C CNN
F 3 "" H 12100 11750 50  0001 C CNN
	1    12100 11750
	1    0    0    -1  
$EndComp
$Comp
L power:+3.3V #PWR0131
U 1 1 625FE9A0
P 14750 14700
F 0 "#PWR0131" H 14750 14550 50  0001 C CNN
F 1 "+3.3V" H 14765 14873 50  0000 C CNN
F 2 "" H 14750 14700 50  0001 C CNN
F 3 "" H 14750 14700 50  0001 C CNN
	1    14750 14700
	1    0    0    -1  
$EndComp
$Comp
L power:+3.3V #PWR0132
U 1 1 62632B5E
P 17050 14650
F 0 "#PWR0132" H 17050 14500 50  0001 C CNN
F 1 "+3.3V" H 17065 14823 50  0000 C CNN
F 2 "" H 17050 14650 50  0001 C CNN
F 3 "" H 17050 14650 50  0001 C CNN
	1    17050 14650
	0    -1   -1   0   
$EndComp
Text Notes 13350 10750 0    250  ~ 0
START/STOP PULSE
$Comp
L power:+3.3V #PWR0117
U 1 1 63384363
P 16300 18100
F 0 "#PWR0117" H 16300 17950 50  0001 C CNN
F 1 "+3.3V" V 16300 18350 50  0000 C CNN
F 2 "" H 16300 18100 50  0001 C CNN
F 3 "" H 16300 18100 50  0001 C CNN
	1    16300 18100
	0    1    1    0   
$EndComp
$Comp
L power:+3.3V #PWR0118
U 1 1 63399D51
P 18950 17950
F 0 "#PWR0118" H 18950 17800 50  0001 C CNN
F 1 "+3.3V" V 18950 18200 50  0000 C CNN
F 2 "" H 18950 17950 50  0001 C CNN
F 3 "" H 18950 17950 50  0001 C CNN
	1    18950 17950
	0    1    1    0   
$EndComp
Wire Wire Line
	16150 17950 16150 18100
$Comp
L power:GND #PWR0119
U 1 1 633C5E0B
P 16150 17650
F 0 "#PWR0119" H 16150 17400 50  0001 C CNN
F 1 "GND" H 16150 17500 50  0000 C CNN
F 2 "" H 16150 17650 50  0001 C CNN
F 3 "" H 16150 17650 50  0001 C CNN
	1    16150 17650
	-1   0    0    1   
$EndComp
$Comp
L Device:C C32
U 1 1 633C5E14
P 16150 17800
F 0 "C32" H 16265 17891 50  0000 L CNN
F 1 "1u" H 16265 17800 50  0000 L CNN
F 2 "Capacitor_SMD:C_0201_0603Metric_Pad0.64x0.40mm_HandSolder" H 16188 17650 50  0001 C CNN
F 3 "~" H 16150 17800 50  0001 C CNN
F 4 "0201" H 16265 17709 50  0000 L CNN "Package"
F 5 "" H 16150 17800 50  0001 C CNN "MPN"
F 6 "" H 16150 17800 50  0001 C CNN "LCSC"
	1    16150 17800
	1    0    0    -1  
$EndComp
$Comp
L power:+3.3V #PWR0120
U 1 1 633F6BD1
P 18800 19250
F 0 "#PWR0120" H 18800 19100 50  0001 C CNN
F 1 "+3.3V" H 18800 19400 50  0000 C CNN
F 2 "" H 18800 19250 50  0001 C CNN
F 3 "" H 18800 19250 50  0001 C CNN
	1    18800 19250
	-1   0    0    1   
$EndComp
Connection ~ 16150 18100
Wire Wire Line
	16150 18100 16300 18100
Text Label 10950 2800 2    50   ~ 0
PSOC_I2CS_SCL
Text Label 10950 3100 2    50   ~ 0
PSOC_I2CS_SDA
$Comp
L Device:R R13
U 1 1 6067E0F1
P 11250 2800
F 0 "R13" V 11150 2800 50  0000 C CNN
F 1 "1k" V 11250 2800 50  0000 C CNN
F 2 "Resistor_SMD:R_0201_0603Metric_Pad0.64x0.40mm_HandSolder" V 11180 2800 50  0001 C CNN
F 3 "~" H 11250 2800 50  0001 C CNN
F 4 "0201" V 11350 2800 50  0000 C CNN "Package"
F 5 "" V 11250 2800 50  0001 C CNN "MPN"
F 6 "" V 11250 2800 50  0001 C CNN "LCSC"
	1    11250 2800
	0    1    1    0   
$EndComp
$Comp
L Device:R R14
U 1 1 60693D20
P 11250 3100
F 0 "R14" V 11150 3100 50  0000 C CNN
F 1 "1k" V 11250 3100 50  0000 C CNN
F 2 "Resistor_SMD:R_0201_0603Metric_Pad0.64x0.40mm_HandSolder" V 11180 3100 50  0001 C CNN
F 3 "~" H 11250 3100 50  0001 C CNN
F 4 "0201" V 11350 3100 50  0000 C CNN "Package"
F 5 "" V 11250 3100 50  0001 C CNN "MPN"
F 6 "" V 11250 3100 50  0001 C CNN "LCSC"
	1    11250 3100
	0    1    1    0   
$EndComp
Wire Wire Line
	14350 19300 14500 19300
Wire Wire Line
	14500 19600 14350 19600
Wire Wire Line
	14800 19600 14950 19600
Wire Wire Line
	14800 19300 14950 19300
Text Notes 14150 19050 0    100  ~ 0
I2CM_PULLUP
$Comp
L Device:R R22
U 1 1 6078D9EF
P 14650 19300
F 0 "R22" V 14550 19300 50  0000 C CNN
F 1 "1k" V 14650 19300 50  0000 C CNN
F 2 "Resistor_SMD:R_0201_0603Metric_Pad0.64x0.40mm_HandSolder" V 14580 19300 50  0001 C CNN
F 3 "~" H 14650 19300 50  0001 C CNN
F 4 "0201" V 14750 19300 50  0000 C CNN "Package"
F 5 "" V 14650 19300 50  0001 C CNN "MPN"
F 6 "" V 14650 19300 50  0001 C CNN "LCSC"
	1    14650 19300
	0    1    1    0   
$EndComp
$Comp
L Device:R R24
U 1 1 6078D9F8
P 14650 19600
F 0 "R24" V 14550 19600 50  0000 C CNN
F 1 "1k" V 14650 19600 50  0000 C CNN
F 2 "Resistor_SMD:R_0201_0603Metric_Pad0.64x0.40mm_HandSolder" V 14580 19600 50  0001 C CNN
F 3 "~" H 14650 19600 50  0001 C CNN
F 4 "0201" V 14750 19600 50  0000 C CNN "Package"
F 5 "" V 14650 19600 50  0001 C CNN "MPN"
F 6 "" V 14650 19600 50  0001 C CNN "LCSC"
	1    14650 19600
	0    1    1    0   
$EndComp
Wire Wire Line
	10950 2800 11100 2800
Wire Wire Line
	11100 3100 10950 3100
Wire Wire Line
	11400 3100 11550 3100
Wire Wire Line
	11400 2800 11550 2800
Text Notes 10750 2600 0    100  ~ 0
I2CS_PULLUP
$Comp
L power:GND #PWR0101
U 1 1 606D17F5
P 11600 14350
F 0 "#PWR0101" H 11600 14100 50  0001 C CNN
F 1 "GND" V 11600 14150 50  0000 C CNN
F 2 "" H 11600 14350 50  0001 C CNN
F 3 "" H 11600 14350 50  0001 C CNN
	1    11600 14350
	0    1    1    0   
$EndComp
Text Label 14350 19600 2    50   ~ 0
I2CM_SDA
Text Label 14350 19300 2    50   ~ 0
I2CM_SCL
Wire Wire Line
	13050 15150 14500 15150
NoConn ~ 14550 7200
Text Label 11700 12250 2    50   ~ 0
EXT_REF_CLK_EN
Wire Wire Line
	14150 12250 14350 12250
Connection ~ 14150 12250
Wire Wire Line
	14150 12350 14150 12250
Wire Wire Line
	14350 12350 14150 12350
$Comp
L power:+3.3V #PWR0128
U 1 1 625B039F
P 11950 13550
F 0 "#PWR0128" H 11950 13400 50  0001 C CNN
F 1 "+3.3V" H 11965 13723 50  0000 C CNN
F 2 "" H 11950 13550 50  0001 C CNN
F 3 "" H 11950 13550 50  0001 C CNN
	1    11950 13550
	0    -1   -1   0   
$EndComp
Wire Wire Line
	12950 12250 14150 12250
$Comp
L Sundial:74x164BQ U5
U 1 1 6065F156
P 14750 12250
F 0 "U5" H 14900 11650 50  0000 L CNN
F 1 "74HC164" H 14900 11550 50  0000 L CNN
F 2 "Sundial:QFN50P300X250X100-15N" H 15650 11950 50  0001 C CNN
F 3 "https://assets.nexperia.com/documents/data-sheet/74HC_HCT164.pdf" H 15650 11950 50  0001 C CNN
F 4 "DHVQFN-14" H 14900 11450 50  0000 L CNN "Package"
F 5 "" H 14750 12250 50  0001 C CNN "LCSC"
F 6 "74HC164BQ,115" H 14750 12250 50  0001 C CNN "MPN"
	1    14750 12250
	1    0    0    -1  
$EndComp
$Comp
L Device:C C7
U 1 1 606F6332
P 15100 11550
F 0 "C7" V 15200 11650 50  0000 L CNN
F 1 "0.1u" V 15200 11450 50  0000 R CNN
F 2 "Capacitor_SMD:C_0201_0603Metric_Pad0.64x0.40mm_HandSolder" H 15138 11400 50  0001 C CNN
F 3 "~" H 15100 11550 50  0001 C CNN
F 4 "0201" V 14950 11550 50  0000 C CNN "Package"
F 5 "" H 15100 11550 50  0001 C CNN "MPN"
F 6 "" V 15100 11550 50  0001 C CNN "LCSC"
	1    15100 11550
	0    -1   -1   0   
$EndComp
Wire Wire Line
	14950 11550 14750 11550
Wire Wire Line
	14600 11550 14750 11550
Connection ~ 14750 11550
Wire Wire Line
	14750 11550 14750 11750
$Comp
L power:GND #PWR038
U 1 1 606F633C
P 15250 11550
F 0 "#PWR038" H 15250 11300 50  0001 C CNN
F 1 "GND" V 15250 11350 50  0000 C CNN
F 2 "" H 15250 11550 50  0001 C CNN
F 3 "" H 15250 11550 50  0001 C CNN
	1    15250 11550
	0    -1   -1   0   
$EndComp
$Comp
L power:GND #PWR033
U 1 1 607741E7
P 14750 12850
F 0 "#PWR033" H 14750 12600 50  0001 C CNN
F 1 "GND" H 14750 12700 50  0000 C CNN
F 2 "" H 14750 12850 50  0001 C CNN
F 3 "" H 14750 12850 50  0001 C CNN
	1    14750 12850
	1    0    0    -1  
$EndComp
Wire Wire Line
	15150 12350 15950 12350
NoConn ~ 15150 11950
NoConn ~ 15150 12050
NoConn ~ 15150 12150
NoConn ~ 15150 12250
NoConn ~ 15150 12450
NoConn ~ 15150 12550
NoConn ~ 15150 12650
Text Label 14350 12250 2    50   ~ 0
TDC_START_PULSE
Text Label 14350 12050 2    50   ~ 0
~CLK_PULSE_RESET
Text Label 14350 12550 2    50   ~ 0
OCXO_CLK+
$Comp
L power:+3.3VP #PWR0123
U 1 1 6168CDA0
P 11550 2800
F 0 "#PWR0123" H 11700 2750 50  0001 C CNN
F 1 "+3.3VP" V 11550 3050 50  0000 C CNN
F 2 "" H 11550 2800 50  0001 C CNN
F 3 "" H 11550 2800 50  0001 C CNN
	1    11550 2800
	0    1    -1   0   
$EndComp
$Comp
L power:+3.3VP #PWR0124
U 1 1 616A5FF7
P 11550 3100
F 0 "#PWR0124" H 11700 3050 50  0001 C CNN
F 1 "+3.3VP" V 11550 3350 50  0000 C CNN
F 2 "" H 11550 3100 50  0001 C CNN
F 3 "" H 11550 3100 50  0001 C CNN
	1    11550 3100
	0    1    -1   0   
$EndComp
NoConn ~ 14550 4900
Text Label 15050 17950 0    50   ~ 0
I2CM_SDA
Text Label 14150 18100 2    50   ~ 0
I2CM_SCL
$Comp
L Sundial:CY8C5866LTI-LP022 U10
U 1 1 5F458528
P 17350 2900
F 0 "U10" H 18750 3288 60  0000 C CNN
F 1 "CY8C5888LTQ-LP097" H 18750 3182 60  0000 C CNN
F 2 "Package_DFN_QFN:QFN-68-1EP_8x8mm_P0.4mm_EP5.2x5.2mm" H 18750 3140 60  0001 C CNN
F 3 "" H 17350 2900 60  0000 C CNN
F 4 "CY8C5888LTQ-LP097" H 17350 2900 50  0001 C CNN "MPN"
	1    17350 2900
	-1   0    0    -1  
$EndComp
$Comp
L Device:CP C2
U 1 1 605234EC
P 6250 4500
F 0 "C2" H 6150 4600 50  0000 R CNN
F 1 "10u" H 6150 4500 50  0000 R CNN
F 2 "Capacitor_Tantalum_SMD:CP_EIA-1608-08_AVX-J_Pad1.25x1.05mm_HandSolder" H 6288 4350 50  0001 C CNN
F 3 "~" H 6250 4500 50  0001 C CNN
F 4 "1608" H 6150 4400 50  0000 R CNN "Package"
F 5 "" H 6250 4500 50  0001 C CNN "MPN"
F 6 "" H 6250 4500 50  0001 C CNN "LCSC"
	1    6250 4500
	1    0    0    -1  
$EndComp
Text Label 6900 14800 2    50   ~ 0
OCXO_CLK+_OUT_EN
Wire Wire Line
	7200 14500 7050 14500
$Comp
L power:+3.3V #PWR0134
U 1 1 62666E5B
P 7050 14500
F 0 "#PWR0134" H 7050 14350 50  0001 C CNN
F 1 "+3.3V" H 7065 14673 50  0000 C CNN
F 2 "" H 7050 14500 50  0001 C CNN
F 3 "" H 7050 14500 50  0001 C CNN
	1    7050 14500
	0    -1   -1   0   
$EndComp
$Comp
L Device:R R15
U 1 1 60631CA6
P 7800 14900
F 0 "R15" V 7700 14900 50  0000 C CNN
F 1 "10" V 7800 14900 50  0000 C CNN
F 2 "Resistor_SMD:R_0201_0603Metric_Pad0.64x0.40mm_HandSolder" V 7730 14900 50  0001 C CNN
F 3 "~" H 7800 14900 50  0001 C CNN
F 4 "0201" V 7900 14900 50  0000 C CNN "Package"
F 5 "0402WGF100JTCE" V 7800 14900 50  0001 C CNN "MPN"
F 6 "C25077" V 7800 14900 50  0001 C CNN "LCSC"
	1    7800 14900
	0    1    1    0   
$EndComp
Wire Wire Line
	7650 14900 7500 14900
$Comp
L Sundial:74x1G126GM U12
U 1 1 60631C9D
P 7200 14900
F 0 "U12" H 7350 14700 50  0000 L CNN
F 1 "74x1G126GM" H 7350 14600 50  0000 L CNN
F 2 "Sundial:PSON50P145X100X50-6N" H 7200 14900 50  0001 C CNN
F 3 "" H 7200 14900 50  0001 C CNN
F 4 "SOT-886" H 7350 14500 50  0000 L CNN "Package"
F 5 "74LVC1G126GM" H 7200 14900 50  0001 C CNN "MPN"
F 6 "" H 7200 14900 50  0001 C CNN "LCSC"
	1    7200 14900
	1    0    0    -1  
$EndComp
$Comp
L Device:C C26
U 1 1 60631C96
P 7550 14500
F 0 "C26" V 7650 14600 50  0000 L CNN
F 1 "0.1u" V 7650 14400 50  0000 R CNN
F 2 "Capacitor_SMD:C_0201_0603Metric_Pad0.64x0.40mm_HandSolder" H 7588 14350 50  0001 C CNN
F 3 "~" H 7550 14500 50  0001 C CNN
F 4 "0201" V 7400 14500 50  0000 C CNN "Package"
F 5 "" H 7550 14500 50  0001 C CNN "MPN"
F 6 "" V 7550 14500 50  0001 C CNN "LCSC"
	1    7550 14500
	0    -1   -1   0   
$EndComp
Wire Wire Line
	7400 14500 7200 14500
Connection ~ 7200 14500
Wire Wire Line
	7200 14500 7200 14700
$Comp
L power:GND #PWR0109
U 1 1 60631C8A
P 7700 14500
F 0 "#PWR0109" H 7700 14250 50  0001 C CNN
F 1 "GND" V 7700 14300 50  0000 C CNN
F 2 "" H 7700 14500 50  0001 C CNN
F 3 "" H 7700 14500 50  0001 C CNN
	1    7700 14500
	0    -1   -1   0   
$EndComp
$Comp
L power:GND #PWR0107
U 1 1 60631C7E
P 7200 15100
F 0 "#PWR0107" H 7200 14850 50  0001 C CNN
F 1 "GND" H 7200 14950 50  0000 C CNN
F 2 "" H 7200 15100 50  0001 C CNN
F 3 "" H 7200 15100 50  0001 C CNN
	1    7200 15100
	1    0    0    -1  
$EndComp
Wire Wire Line
	8100 14900 7950 14900
Text Label 5100 12500 0    50   ~ 0
OCXO_HSENSE1
Text Label 5150 15000 0    50   ~ 0
OCXO_CLK+
$Comp
L power:GND #PWR0151
U 1 1 6086E8BD
P 6200 10250
F 0 "#PWR0151" H 6200 10000 50  0001 C CNN
F 1 "GND" H 6200 10100 50  0000 C CNN
F 2 "" H 6200 10250 50  0001 C CNN
F 3 "" H 6200 10250 50  0001 C CNN
	1    6200 10250
	1    0    0    -1  
$EndComp
$Comp
L power:GND #PWR0152
U 1 1 6086E8CD
P 4250 14850
F 0 "#PWR0152" H 4250 14600 50  0001 C CNN
F 1 "GND" V 4250 14650 50  0000 C CNN
F 2 "" H 4250 14850 50  0001 C CNN
F 3 "" H 4250 14850 50  0001 C CNN
	1    4250 14850
	0    1    1    0   
$EndComp
$Comp
L Sundial:Elite_5032_10L_SPI U14
U 1 1 6086E8D4
P 4700 14700
F 0 "U14" H 4700 15287 60  0000 C CNN
F 1 "Elite_5032_10L_SPI" H 4700 15181 60  0000 C CNN
F 2 "Sundial:Elite_TCXO_Ceramic_5032" H 4600 14750 60  0001 C CNN
F 3 "" H 4600 14750 60  0001 C CNN
F 4 "" H 4700 14700 50  0001 C CNN "MPN"
	1    4700 14700
	1    0    0    -1  
$EndComp
Wire Wire Line
	5150 15000 6900 15000
$Comp
L Device:C C39
U 1 1 6086E8F0
P 6200 10100
F 0 "C39" H 6315 10191 50  0000 L CNN
F 1 "1u" H 6315 10100 50  0000 L CNN
F 2 "Capacitor_SMD:C_0201_0603Metric_Pad0.64x0.40mm_HandSolder" H 6238 9950 50  0001 C CNN
F 3 "~" H 6200 10100 50  0001 C CNN
F 4 "0201" H 6315 10009 50  0000 L CNN "Package"
F 5 "" H 6200 10100 50  0001 C CNN "MPN"
F 6 "" H 6200 10100 50  0001 C CNN "LCSC"
	1    6200 10100
	1    0    0    -1  
$EndComp
Text Label 5150 14400 0    50   ~ 0
OCXO_SPI_MISO
Text Label 4250 14550 2    50   ~ 0
OCXO_SPI_CLK
$Comp
L power:GND #PWR0155
U 1 1 60888FA7
P 4250 14700
F 0 "#PWR0155" H 4250 14450 50  0001 C CNN
F 1 "GND" V 4250 14500 50  0000 C CNN
F 2 "" H 4250 14700 50  0001 C CNN
F 3 "" H 4250 14700 50  0001 C CNN
	1    4250 14700
	0    1    1    0   
$EndComp
Text Label 4250 15000 2    50   ~ 0
OCXO_SPI_MOSI
$Comp
L power:GND #PWR0156
U 1 1 608DA70B
P 5150 14700
F 0 "#PWR0156" H 5150 14450 50  0001 C CNN
F 1 "GND" V 5150 14500 50  0000 C CNN
F 2 "" H 5150 14700 50  0001 C CNN
F 3 "" H 5150 14700 50  0001 C CNN
	1    5150 14700
	0    -1   1    0   
$EndComp
$Comp
L Sundial:CSD13202Q2 Q4
U 1 1 60BA24DB
P 4950 11900
F 0 "Q4" H 5050 11950 50  0000 L CNN
F 1 "CSD13202Q2" H 5050 11850 50  0000 L CNN
F 2 "Package_SON:Texas_DQK" H 5050 12000 50  0001 C CNN
F 3 "" H 4850 11900 50  0001 C CNN
F 4 "CSD13202Q2" H 4950 11900 50  0001 C CNN "MPN"
F 5 "C187839" H 4950 11900 50  0001 C CNN "LCSC"
	1    4950 11900
	1    0    0    -1  
$EndComp
$Comp
L Device:R R29
U 1 1 60BA460A
P 4650 12800
F 0 "R29" V 4550 12800 50  0000 C CNN
F 1 "4" V 4650 12800 50  0000 C CNN
F 2 "Resistor_SMD:R_0402_1005Metric" V 4580 12800 50  0001 C CNN
F 3 "~" H 4650 12800 50  0001 C CNN
F 4 "0402" V 4750 12800 50  0000 C CNN "Package"
F 5 "0402WGF100JTCE" V 4650 12800 50  0001 C CNN "MPN"
F 6 "C25077" V 4650 12800 50  0001 C CNN "LCSC"
	1    4650 12800
	1    0    0    1   
$EndComp
$Comp
L Sundial:CSD13202Q2 Q5
U 1 1 60BBE987
P 6700 11900
F 0 "Q5" H 6800 11950 50  0000 L CNN
F 1 "CSD13202Q2" H 6800 11850 50  0000 L CNN
F 2 "Package_SON:Texas_DQK" H 6800 12000 50  0001 C CNN
F 3 "" H 6600 11900 50  0001 C CNN
F 4 "CSD13202Q2" H 6700 11900 50  0001 C CNN "MPN"
F 5 "C187839" H 6700 11900 50  0001 C CNN "LCSC"
	1    6700 11900
	-1   0    0    -1  
$EndComp
Wire Wire Line
	4650 12650 4650 12500
$Comp
L power:GND #PWR0159
U 1 1 60C742B1
P 4650 12950
F 0 "#PWR0159" H 4650 12700 50  0001 C CNN
F 1 "GND" H 4650 12800 50  0000 C CNN
F 2 "" H 4650 12950 50  0001 C CNN
F 3 "" H 4650 12950 50  0001 C CNN
	1    4650 12950
	-1   0    0    -1  
$EndComp
Connection ~ 4950 12500
$Comp
L Device:R R30
U 1 1 60DE3835
P 4950 12800
F 0 "R30" V 4850 12800 50  0000 C CNN
F 1 "4" V 4950 12800 50  0000 C CNN
F 2 "Resistor_SMD:R_0402_1005Metric" V 4880 12800 50  0001 C CNN
F 3 "~" H 4950 12800 50  0001 C CNN
F 4 "0402" V 5050 12800 50  0000 C CNN "Package"
F 5 "0402WGF100JTCE" V 4950 12800 50  0001 C CNN "MPN"
F 6 "C25077" V 4950 12800 50  0001 C CNN "LCSC"
	1    4950 12800
	1    0    0    1   
$EndComp
Wire Wire Line
	4950 12650 4950 12500
$Comp
L power:GND #PWR0161
U 1 1 60DE383C
P 4950 12950
F 0 "#PWR0161" H 4950 12700 50  0001 C CNN
F 1 "GND" H 4950 12800 50  0000 C CNN
F 2 "" H 4950 12950 50  0001 C CNN
F 3 "" H 4950 12950 50  0001 C CNN
	1    4950 12950
	-1   0    0    -1  
$EndComp
$Comp
L power:+5V #PWR0162
U 1 1 60E19D01
P 4950 11700
F 0 "#PWR0162" H 4950 11550 50  0001 C CNN
F 1 "+5V" H 4950 11850 50  0000 C CNN
F 2 "" H 4950 11700 50  0001 C CNN
F 3 "" H 4950 11700 50  0001 C CNN
	1    4950 11700
	-1   0    0    -1  
$EndComp
Text Label 6500 12500 2    50   ~ 0
OCXO_HSENSE2
$Comp
L Device:R R32
U 1 1 60E52F91
P 6700 12800
F 0 "R32" V 6600 12800 50  0000 C CNN
F 1 "4" V 6700 12800 50  0000 C CNN
F 2 "Resistor_SMD:R_0402_1005Metric" V 6630 12800 50  0001 C CNN
F 3 "~" H 6700 12800 50  0001 C CNN
F 4 "0402" V 6800 12800 50  0000 C CNN "Package"
F 5 "0402WGF100JTCE" V 6700 12800 50  0001 C CNN "MPN"
F 6 "C25077" V 6700 12800 50  0001 C CNN "LCSC"
	1    6700 12800
	1    0    0    1   
$EndComp
Wire Wire Line
	6700 12650 6700 12500
$Comp
L power:GND #PWR0163
U 1 1 60E52F98
P 6700 12950
F 0 "#PWR0163" H 6700 12700 50  0001 C CNN
F 1 "GND" H 6700 12800 50  0000 C CNN
F 2 "" H 6700 12950 50  0001 C CNN
F 3 "" H 6700 12950 50  0001 C CNN
	1    6700 12950
	1    0    0    -1  
$EndComp
Connection ~ 6700 12500
$Comp
L Device:R R31
U 1 1 60E52FC0
P 7000 12800
F 0 "R31" V 6900 12800 50  0000 C CNN
F 1 "4" V 7000 12800 50  0000 C CNN
F 2 "Resistor_SMD:R_0402_1005Metric" V 6930 12800 50  0001 C CNN
F 3 "~" H 7000 12800 50  0001 C CNN
F 4 "0402" V 7100 12800 50  0000 C CNN "Package"
F 5 "0402WGF100JTCE" V 7000 12800 50  0001 C CNN "MPN"
F 6 "C25077" V 7000 12800 50  0001 C CNN "LCSC"
	1    7000 12800
	1    0    0    1   
$EndComp
Wire Wire Line
	7000 12650 7000 12500
$Comp
L power:GND #PWR0165
U 1 1 60E52FC7
P 7000 12950
F 0 "#PWR0165" H 7000 12700 50  0001 C CNN
F 1 "GND" H 7000 12800 50  0000 C CNN
F 2 "" H 7000 12950 50  0001 C CNN
F 3 "" H 7000 12950 50  0001 C CNN
	1    7000 12950
	1    0    0    -1  
$EndComp
Wire Wire Line
	6500 12500 6700 12500
Text Label 8050 11800 0    50   ~ 0
OCXO_HSET2
$Comp
L power:+5V #PWR0166
U 1 1 60ECA95E
P 6700 11700
F 0 "#PWR0166" H 6700 11550 50  0001 C CNN
F 1 "+5V" H 6700 11850 50  0000 C CNN
F 2 "" H 6700 11700 50  0001 C CNN
F 3 "" H 6700 11700 50  0001 C CNN
	1    6700 11700
	-1   0    0    -1  
$EndComp
$Comp
L power:GND #PWR0167
U 1 1 611AD602
P 5150 14850
F 0 "#PWR0167" H 5150 14600 50  0001 C CNN
F 1 "GND" V 5150 14650 50  0000 C CNN
F 2 "" H 5150 14850 50  0001 C CNN
F 3 "" H 5150 14850 50  0001 C CNN
	1    5150 14850
	0    -1   1    0   
$EndComp
Text Label 14550 3500 2    50   ~ 0
OCXO_SPI_MOSI
Text Label 14550 3400 2    50   ~ 0
OCXO_SPI_CLK
$Comp
L power:+5V #PWR0153
U 1 1 6125273E
P 4750 10100
F 0 "#PWR0153" H 4750 9950 50  0001 C CNN
F 1 "+5V" V 4750 10300 50  0000 C CNN
F 2 "" H 4750 10100 50  0001 C CNN
F 3 "" H 4750 10100 50  0001 C CNN
	1    4750 10100
	0    -1   1    0   
$EndComp
Wire Wire Line
	4300 9800 4750 9800
$Comp
L Sundial:TPS717DCK U15
U 1 1 6125275B
P 5150 9950
F 0 "U15" H 5150 10300 60  0000 C CNN
F 1 "TPS717DCK" H 5150 9600 60  0000 C CNN
F 2 "Package_TO_SOT_SMD:SOT-353_SC-70-5" H 5150 9800 60  0001 C CNN
F 3 "https://www.ti.com/lit/ds/symlink/tps717.pdf" H 5150 9800 60  0001 C CNN
F 4 "SC-70-5" H 5150 9500 50  0000 C CNN "Package"
F 5 "MIC5219-3.3YM5" H 5150 9950 50  0001 C CNN "MPN"
F 6 "C29613" H 5150 9950 50  0001 C CNN "LCSC"
	1    5150 9950
	1    0    0    -1  
$EndComp
$Comp
L power:+5V #PWR0158
U 1 1 61252761
P 4300 9700
F 0 "#PWR0158" H 4300 9550 50  0001 C CNN
F 1 "+5V" H 4300 9850 50  0000 C CNN
F 2 "" H 4300 9700 50  0001 C CNN
F 3 "" H 4300 9700 50  0001 C CNN
	1    4300 9700
	-1   0    0    -1  
$EndComp
Connection ~ 4300 9800
Wire Wire Line
	4300 9800 4300 9950
$Comp
L power:GND #PWR0168
U 1 1 61252769
P 4300 10250
F 0 "#PWR0168" H 4300 10000 50  0001 C CNN
F 1 "GND" H 4300 10100 50  0000 C CNN
F 2 "" H 4300 10250 50  0001 C CNN
F 3 "" H 4300 10250 50  0001 C CNN
	1    4300 10250
	1    0    0    -1  
$EndComp
$Comp
L Device:C C40
U 1 1 61252772
P 4300 10100
F 0 "C40" H 4415 10191 50  0000 L CNN
F 1 "1u" H 4415 10100 50  0000 L CNN
F 2 "Capacitor_SMD:C_0201_0603Metric_Pad0.64x0.40mm_HandSolder" H 4338 9950 50  0001 C CNN
F 3 "~" H 4300 10100 50  0001 C CNN
F 4 "0201" H 4415 10009 50  0000 L CNN "Package"
F 5 "" H 4300 10100 50  0001 C CNN "MPN"
F 6 "" H 4300 10100 50  0001 C CNN "LCSC"
	1    4300 10100
	-1   0    0    -1  
$EndComp
Wire Wire Line
	4300 9800 4300 9700
$Comp
L power:GND #PWR0170
U 1 1 61252783
P 4750 9950
F 0 "#PWR0170" H 4750 9700 50  0001 C CNN
F 1 "GND" V 4750 9750 50  0000 C CNN
F 2 "" H 4750 9950 50  0001 C CNN
F 3 "" H 4750 9950 50  0001 C CNN
	1    4750 9950
	0    1    -1   0   
$EndComp
Wire Wire Line
	6200 9800 6200 9950
Text Label 5150 14550 0    50   ~ 0
OCXO_+3.3V
Text Label 5550 9800 0    50   ~ 0
OCXO_+3.3V
$Comp
L Device:C C41
U 1 1 61252751
P 5700 10400
F 0 "C41" H 5815 10491 50  0000 L CNN
F 1 "10n" H 5815 10400 50  0000 L CNN
F 2 "Capacitor_SMD:C_0201_0603Metric_Pad0.64x0.40mm_HandSolder" H 5738 10250 50  0001 C CNN
F 3 "~" H 5700 10400 50  0001 C CNN
F 4 "0201" H 5815 10309 50  0000 L CNN "Package"
F 5 "" H 5700 10400 50  0001 C CNN "MPN"
F 6 "" H 5700 10400 50  0001 C CNN "LCSC"
	1    5700 10400
	1    0    0    -1  
$EndComp
$Comp
L power:GND #PWR0157
U 1 1 61252748
P 5700 10550
F 0 "#PWR0157" H 5700 10300 50  0001 C CNN
F 1 "GND" H 5700 10400 50  0000 C CNN
F 2 "" H 5700 10550 50  0001 C CNN
F 3 "" H 5700 10550 50  0001 C CNN
	1    5700 10550
	1    0    0    -1  
$EndComp
Wire Wire Line
	5550 10100 5700 10100
Wire Wire Line
	5700 10100 5700 10250
$Comp
L Amplifier_Operational:OPA376xxDCK U13
U 1 1 6194E791
P 7600 11900
F 0 "U13" H 7700 11750 50  0000 L CNN
F 1 "OPA376xxDCK" H 7700 11650 50  0000 L CNN
F 2 "Package_TO_SOT_SMD:SOT-353_SC-70-5" H 7600 11900 50  0001 L CNN
F 3 "http://www.ti.com/lit/ds/symlink/opa376.pdf" H 7600 11900 50  0001 C CNN
F 4 "SC-70-5" H 7700 11550 50  0000 L CNN "Package"
	1    7600 11900
	-1   0    0    -1  
$EndComp
Wire Wire Line
	7900 11800 8050 11800
$Comp
L power:GND #PWR0103
U 1 1 619A9A55
P 7700 12200
F 0 "#PWR0103" H 7700 11950 50  0001 C CNN
F 1 "GND" H 7700 12050 50  0000 C CNN
F 2 "" H 7700 12200 50  0001 C CNN
F 3 "" H 7700 12200 50  0001 C CNN
	1    7700 12200
	-1   0    0    -1  
$EndComp
Text Label 7850 11450 0    50   ~ 0
OCXO_+3.3V
Wire Wire Line
	7900 12000 8050 12000
$Comp
L Device:C C34
U 1 1 61BC1A81
P 7400 11450
F 0 "C34" V 7500 11550 50  0000 L CNN
F 1 "0.1u" V 7500 11350 50  0000 R CNN
F 2 "Capacitor_SMD:C_0201_0603Metric_Pad0.64x0.40mm_HandSolder" H 7438 11300 50  0001 C CNN
F 3 "~" H 7400 11450 50  0001 C CNN
F 4 "0201" V 7250 11450 50  0000 C CNN "Package"
F 5 "" H 7400 11450 50  0001 C CNN "MPN"
F 6 "" V 7400 11450 50  0001 C CNN "LCSC"
	1    7400 11450
	0    -1   -1   0   
$EndComp
Wire Wire Line
	7550 11450 7700 11450
Wire Wire Line
	7700 11600 7700 11450
Connection ~ 7700 11450
Wire Wire Line
	7700 11450 7850 11450
$Comp
L Device:R R2
U 1 1 61D4A1D0
P 7150 11900
F 0 "R2" V 7050 11900 50  0000 C CNN
F 1 "10" V 7150 11900 50  0000 C CNN
F 2 "Resistor_SMD:R_0201_0603Metric_Pad0.64x0.40mm_HandSolder" V 7080 11900 50  0001 C CNN
F 3 "~" H 7150 11900 50  0001 C CNN
F 4 "0201" V 7250 11900 50  0000 C CNN "Package"
F 5 "" V 7150 11900 50  0001 C CNN "MPN"
F 6 "" V 7150 11900 50  0001 C CNN "LCSC"
	1    7150 11900
	0    1    1    0   
$EndComp
$Comp
L power:GND #PWR0110
U 1 1 61BC1A77
P 7250 11450
F 0 "#PWR0110" H 7250 11200 50  0001 C CNN
F 1 "GND" V 7250 11250 50  0000 C CNN
F 2 "" H 7250 11450 50  0001 C CNN
F 3 "" H 7250 11450 50  0001 C CNN
	1    7250 11450
	0    1    1    0   
$EndComp
Text Label 3600 11800 2    50   ~ 0
OCXO_HSET1
$Comp
L Amplifier_Operational:OPA376xxDCK U1
U 1 1 61F0B421
P 4050 11900
F 0 "U1" H 4150 11750 50  0000 L CNN
F 1 "OPA376xxDCK" H 4150 11650 50  0000 L CNN
F 2 "Package_TO_SOT_SMD:SOT-353_SC-70-5" H 4050 11900 50  0001 L CNN
F 3 "http://www.ti.com/lit/ds/symlink/opa376.pdf" H 4050 11900 50  0001 C CNN
F 4 "SC-70-5" H 4150 11550 50  0000 L CNN "Package"
	1    4050 11900
	1    0    0    -1  
$EndComp
Wire Wire Line
	3750 11800 3600 11800
$Comp
L power:GND #PWR0114
U 1 1 61F0B428
P 3950 12200
F 0 "#PWR0114" H 3950 11950 50  0001 C CNN
F 1 "GND" H 3950 12050 50  0000 C CNN
F 2 "" H 3950 12200 50  0001 C CNN
F 3 "" H 3950 12200 50  0001 C CNN
	1    3950 12200
	1    0    0    -1  
$EndComp
Text Label 3800 11450 2    50   ~ 0
OCXO_+3.3V
Wire Wire Line
	3750 12000 3600 12000
$Comp
L Device:C C1
U 1 1 61F0B434
P 4250 11450
F 0 "C1" V 4350 11550 50  0000 L CNN
F 1 "0.1u" V 4350 11350 50  0000 R CNN
F 2 "Capacitor_SMD:C_0201_0603Metric_Pad0.64x0.40mm_HandSolder" H 4288 11300 50  0001 C CNN
F 3 "~" H 4250 11450 50  0001 C CNN
F 4 "0201" V 4100 11450 50  0000 C CNN "Package"
F 5 "" H 4250 11450 50  0001 C CNN "MPN"
F 6 "" V 4250 11450 50  0001 C CNN "LCSC"
	1    4250 11450
	0    1    -1   0   
$EndComp
Wire Wire Line
	4100 11450 3950 11450
Wire Wire Line
	3950 11600 3950 11450
Connection ~ 3950 11450
Wire Wire Line
	3950 11450 3800 11450
$Comp
L Device:R R1
U 1 1 61F0B441
P 4500 11900
F 0 "R1" V 4400 11900 50  0000 C CNN
F 1 "10" V 4500 11900 50  0000 C CNN
F 2 "Resistor_SMD:R_0201_0603Metric_Pad0.64x0.40mm_HandSolder" V 4430 11900 50  0001 C CNN
F 3 "~" H 4500 11900 50  0001 C CNN
F 4 "0201" V 4600 11900 50  0000 C CNN "Package"
F 5 "" V 4500 11900 50  0001 C CNN "MPN"
F 6 "" V 4500 11900 50  0001 C CNN "LCSC"
	1    4500 11900
	0    -1   1    0   
$EndComp
$Comp
L power:GND #PWR0115
U 1 1 61F0B447
P 4400 11450
F 0 "#PWR0115" H 4400 11200 50  0001 C CNN
F 1 "GND" V 4400 11250 50  0000 C CNN
F 2 "" H 4400 11450 50  0001 C CNN
F 3 "" H 4400 11450 50  0001 C CNN
	1    4400 11450
	0    -1   1    0   
$EndComp
Wire Wire Line
	4950 12500 4950 12100
Connection ~ 4650 12500
Wire Wire Line
	4650 12500 4950 12500
Wire Wire Line
	4950 12500 5100 12500
Connection ~ 7000 12500
Wire Wire Line
	7000 12500 6700 12500
Wire Notes Line
	2500 16000 2500 9000
Wire Notes Line
	9000 16000 9000 9000
Wire Notes Line
	9000 9000 2500 9000
Wire Notes Line
	9000 16000 2500 16000
$Comp
L Connector:Conn_01x01_Male P1
U 1 1 626C4B55
P 7000 2500
F 0 "P1" H 6900 2500 50  0000 C CNN
F 1 "Conn_01x01_Male" H 7108 2590 50  0001 C CNN
F 2 "Sundial:3128-1-00-34-00-00-08-0" H 7000 2500 50  0001 C CNN
F 3 "~" H 7000 2500 50  0001 C CNN
	1    7000 2500
	-1   0    0    -1  
$EndComp
Text Label 11700 12450 2    50   ~ 0
EXT_REF_CLK
Wire Wire Line
	6800 2650 6650 2650
$Comp
L Connector:Conn_01x01_Male P2
U 1 1 6099F3D8
P 7000 2650
F 0 "P2" H 6900 2650 50  0000 C CNN
F 1 "Conn_01x01_Male" H 7108 2740 50  0001 C CNN
F 2 "Sundial:3128-1-00-34-00-00-08-0" H 7000 2650 50  0001 C CNN
F 3 "~" H 7000 2650 50  0001 C CNN
	1    7000 2650
	-1   0    0    -1  
$EndComp
$Comp
L Connector:Conn_01x01_Male P3
U 1 1 60A78717
P 7000 2800
F 0 "P3" H 6900 2800 50  0000 C CNN
F 1 "Conn_01x01_Male" H 7108 2890 50  0001 C CNN
F 2 "Sundial:3128-1-00-34-00-00-08-0" H 7000 2800 50  0001 C CNN
F 3 "~" H 7000 2800 50  0001 C CNN
	1    7000 2800
	-1   0    0    -1  
$EndComp
$Comp
L Connector:Conn_01x01_Male P4
U 1 1 60A7871D
P 7000 2950
F 0 "P4" H 6900 2950 50  0000 C CNN
F 1 "Conn_01x01_Male" H 7108 3040 50  0001 C CNN
F 2 "Sundial:3128-1-00-34-00-00-08-0" H 7000 2950 50  0001 C CNN
F 3 "~" H 7000 2950 50  0001 C CNN
	1    7000 2950
	-1   0    0    -1  
$EndComp
$Comp
L Connector:Conn_01x01_Male P5
U 1 1 60A9369F
P 7000 3100
F 0 "P5" H 6900 3100 50  0000 C CNN
F 1 "Conn_01x01_Male" H 7108 3190 50  0001 C CNN
F 2 "Sundial:3128-1-00-34-00-00-08-0" H 7000 3100 50  0001 C CNN
F 3 "~" H 7000 3100 50  0001 C CNN
	1    7000 3100
	-1   0    0    -1  
$EndComp
Wire Wire Line
	6800 2800 6650 2800
Wire Wire Line
	6800 2950 6650 2950
Wire Wire Line
	6800 3100 6650 3100
$Comp
L power:+5V #PWR06
U 1 1 6214D7B5
P 6650 3600
F 0 "#PWR06" H 6650 3450 50  0001 C CNN
F 1 "+5V" V 6650 3800 50  0000 C CNN
F 2 "" H 6650 3600 50  0001 C CNN
F 3 "" H 6650 3600 50  0001 C CNN
	1    6650 3600
	0    -1   1    0   
$EndComp
$Comp
L power:GND #PWR07
U 1 1 62176361
P 6650 3750
F 0 "#PWR07" H 6650 3500 50  0001 C CNN
F 1 "GND" V 6650 3550 50  0000 C CNN
F 2 "" H 6650 3750 50  0001 C CNN
F 3 "" H 6650 3750 50  0001 C CNN
	1    6650 3750
	0    1    1    0   
$EndComp
$Comp
L Connector:Conn_01x01_Male P6
U 1 1 60B3B023
P 7000 3600
F 0 "P6" H 6900 3600 50  0000 C CNN
F 1 "Conn_01x01_Male" H 7108 3690 50  0001 C CNN
F 2 "Sundial:3128-1-00-34-00-00-08-0" H 7000 3600 50  0001 C CNN
F 3 "~" H 7000 3600 50  0001 C CNN
	1    7000 3600
	-1   0    0    -1  
$EndComp
$Comp
L Connector:Conn_01x01_Male P7
U 1 1 60B3B029
P 7000 3750
F 0 "P7" H 6900 3750 50  0000 C CNN
F 1 "Conn_01x01_Male" H 7108 3840 50  0001 C CNN
F 2 "Sundial:3128-1-00-34-00-00-08-0" H 7000 3750 50  0001 C CNN
F 3 "~" H 7000 3750 50  0001 C CNN
	1    7000 3750
	-1   0    0    -1  
$EndComp
Wire Wire Line
	6800 3600 6650 3600
Wire Wire Line
	6800 3750 6650 3750
Text Label 8100 14900 0    50   ~ 0
OCXO_CLK+_OUT
Text Label 7900 2500 0    50   ~ 0
OCXO_CLK+_OUT
Text Label 7900 2650 0    50   ~ 0
PSOC_1PPS_OUT
$Comp
L Connector:Conn_01x01_Male P10
U 1 1 60CA692A
P 7550 2500
F 0 "P10" H 7450 2500 50  0000 C CNN
F 1 "Conn_01x01_Male" H 7658 2590 50  0001 C CNN
F 2 "Sundial:3128-1-00-34-00-00-08-0" H 7550 2500 50  0001 C CNN
F 3 "~" H 7550 2500 50  0001 C CNN
	1    7550 2500
	1    0    0    -1  
$EndComp
$Comp
L Connector:Conn_01x01_Male P11
U 1 1 60CA6930
P 7550 2650
F 0 "P11" H 7450 2650 50  0000 C CNN
F 1 "Conn_01x01_Male" H 7658 2740 50  0001 C CNN
F 2 "Sundial:3128-1-00-34-00-00-08-0" H 7550 2650 50  0001 C CNN
F 3 "~" H 7550 2650 50  0001 C CNN
	1    7550 2650
	1    0    0    -1  
$EndComp
Wire Wire Line
	7900 2500 7750 2500
Wire Wire Line
	7900 2650 7750 2650
$Comp
L Connector:Conn_01x01_Male P12
U 1 1 60D32A87
P 7550 2800
F 0 "P12" H 7450 2800 50  0000 C CNN
F 1 "Conn_01x01_Male" H 7658 2890 50  0001 C CNN
F 2 "Sundial:3128-1-00-34-00-00-08-0" H 7550 2800 50  0001 C CNN
F 3 "~" H 7550 2800 50  0001 C CNN
	1    7550 2800
	1    0    0    -1  
$EndComp
Text Label 7900 2800 0    50   ~ 0
EXT_REF_CLK
Wire Wire Line
	7900 2800 7750 2800
NoConn ~ 14550 4200
NoConn ~ 14550 8600
NoConn ~ 14550 6400
NoConn ~ 14550 4800
NoConn ~ 14550 5000
$Comp
L power:+3.3V #PWR0121
U 1 1 61352D85
P 14950 19300
F 0 "#PWR0121" H 14950 19150 50  0001 C CNN
F 1 "+3.3V" V 14950 19550 50  0000 C CNN
F 2 "" H 14950 19300 50  0001 C CNN
F 3 "" H 14950 19300 50  0001 C CNN
	1    14950 19300
	0    1    1    0   
$EndComp
$Comp
L power:+3.3V #PWR0122
U 1 1 6136F0F5
P 14950 19600
F 0 "#PWR0122" H 14950 19450 50  0001 C CNN
F 1 "+3.3V" V 14950 19850 50  0000 C CNN
F 2 "" H 14950 19600 50  0001 C CNN
F 3 "" H 14950 19600 50  0001 C CNN
	1    14950 19600
	0    1    1    0   
$EndComp
$Comp
L Sundial:TPS717DCK U7
U 1 1 60BEA93B
P 11350 8150
F 0 "U7" H 11350 8500 60  0000 C CNN
F 1 "TPS717DCK" H 11350 7800 60  0000 C CNN
F 2 "Package_TO_SOT_SMD:SOT-353_SC-70-5" H 11350 8000 60  0001 C CNN
F 3 "https://www.ti.com/lit/ds/symlink/tps717.pdf" H 11350 8000 60  0001 C CNN
F 4 "SC-70-5" H 11350 7700 50  0000 C CNN "Package"
F 5 "MIC5219-3.3YM5" H 11350 8150 50  0001 C CNN "MPN"
F 6 "C29613" H 11350 8150 50  0001 C CNN "LCSC"
	1    11350 8150
	1    0    0    -1  
$EndComp
$Comp
L Device:C C11
U 1 1 60C06B33
P 12300 8300
F 0 "C11" H 12415 8391 50  0000 L CNN
F 1 "1u" H 12415 8300 50  0000 L CNN
F 2 "Capacitor_SMD:C_0201_0603Metric_Pad0.64x0.40mm_HandSolder" H 12338 8150 50  0001 C CNN
F 3 "~" H 12300 8300 50  0001 C CNN
F 4 "0201" H 12415 8209 50  0000 L CNN "Package"
F 5 "" H 12300 8300 50  0001 C CNN "MPN"
F 6 "" H 12300 8300 50  0001 C CNN "LCSC"
	1    12300 8300
	1    0    0    -1  
$EndComp
$Comp
L Sundial:TPS717DCK U11
U 1 1 60DC3C62
P 18050 13150
F 0 "U11" H 18050 13500 60  0000 C CNN
F 1 "TPS717DCK" H 18050 12800 60  0000 C CNN
F 2 "Package_TO_SOT_SMD:SOT-353_SC-70-5" H 18050 13000 60  0001 C CNN
F 3 "https://www.ti.com/lit/ds/symlink/tps717.pdf" H 18050 13000 60  0001 C CNN
F 4 "SC-70-5" H 18050 12700 50  0000 C CNN "Package"
F 5 "MIC5219-3.3YM5" H 18050 13150 50  0001 C CNN "MPN"
F 6 "C29613" H 18050 13150 50  0001 C CNN "LCSC"
	1    18050 13150
	1    0    0    -1  
$EndComp
$Comp
L Device:C C30
U 1 1 60E32370
P 19050 13300
F 0 "C30" H 19165 13391 50  0000 L CNN
F 1 "1u" H 19165 13300 50  0000 L CNN
F 2 "Capacitor_SMD:C_0201_0603Metric_Pad0.64x0.40mm_HandSolder" H 19088 13150 50  0001 C CNN
F 3 "~" H 19050 13300 50  0001 C CNN
F 4 "0201" H 19165 13209 50  0000 L CNN "Package"
F 5 "" H 19050 13300 50  0001 C CNN "MPN"
F 6 "" H 19050 13300 50  0001 C CNN "LCSC"
	1    19050 13300
	1    0    0    -1  
$EndComp
Wire Wire Line
	3600 12000 3600 12500
Wire Wire Line
	3600 12500 4650 12500
Wire Wire Line
	8050 12000 8050 12500
Wire Wire Line
	6700 12100 6700 12500
Wire Wire Line
	7000 12500 8050 12500
Wire Wire Line
	11700 12450 11850 12450
$Comp
L power:GND #PWR0111
U 1 1 61805FF1
P 6750 4650
F 0 "#PWR0111" H 6750 4400 50  0001 C CNN
F 1 "GND" H 6750 4500 50  0000 C CNN
F 2 "" H 6750 4650 50  0001 C CNN
F 3 "" H 6750 4650 50  0001 C CNN
	1    6750 4650
	-1   0    0    -1  
$EndComp
$Comp
L power:+5V #PWR0112
U 1 1 61805FF7
P 6750 4350
F 0 "#PWR0112" H 6750 4200 50  0001 C CNN
F 1 "+5V" H 6750 4500 50  0000 C CNN
F 2 "" H 6750 4350 50  0001 C CNN
F 3 "" H 6750 4350 50  0001 C CNN
	1    6750 4350
	-1   0    0    -1  
$EndComp
$Comp
L Device:CP C27
U 1 1 61806000
P 6750 4500
F 0 "C27" H 6650 4600 50  0000 R CNN
F 1 "10u" H 6650 4500 50  0000 R CNN
F 2 "Capacitor_Tantalum_SMD:CP_EIA-1608-08_AVX-J_Pad1.25x1.05mm_HandSolder" H 6788 4350 50  0001 C CNN
F 3 "~" H 6750 4500 50  0001 C CNN
F 4 "1608" H 6650 4400 50  0000 R CNN "Package"
F 5 "" H 6750 4500 50  0001 C CNN "MPN"
F 6 "" H 6750 4500 50  0001 C CNN "LCSC"
	1    6750 4500
	1    0    0    -1  
$EndComp
$Comp
L power:+3.3VP #PWR0125
U 1 1 60A91A5A
P 14600 11550
F 0 "#PWR0125" H 14750 11500 50  0001 C CNN
F 1 "+3.3VP" H 14615 11723 50  0000 C CNN
F 2 "" H 14600 11550 50  0001 C CNN
F 3 "" H 14600 11550 50  0001 C CNN
	1    14600 11550
	0    -1   -1   0   
$EndComp
NoConn ~ 14550 7800
NoConn ~ 14550 4500
Wire Wire Line
	5550 9800 6200 9800
$Comp
L Device:C C29
U 1 1 60C897A9
P 6000 14250
F 0 "C29" H 6115 14341 50  0000 L CNN
F 1 "0.1u" H 6115 14250 50  0000 L CNN
F 2 "Capacitor_SMD:C_0201_0603Metric_Pad0.64x0.40mm_HandSolder" H 6038 14100 50  0001 C CNN
F 3 "~" H 6000 14250 50  0001 C CNN
F 4 "0201" H 6115 14159 50  0000 L CNN "Package"
F 5 "" H 6000 14250 50  0001 C CNN "MPN"
F 6 "" H 6000 14250 50  0001 C CNN "LCSC"
	1    6000 14250
	1    0    0    1   
$EndComp
$Comp
L power:GND #PWR0126
U 1 1 60C897AF
P 6000 14100
F 0 "#PWR0126" H 6000 13850 50  0001 C CNN
F 1 "GND" H 6000 13950 50  0000 C CNN
F 2 "" H 6000 14100 50  0001 C CNN
F 3 "" H 6000 14100 50  0001 C CNN
	1    6000 14100
	1    0    0    1   
$EndComp
Wire Wire Line
	6000 14550 6000 14400
NoConn ~ 14550 5200
Text Label 14550 5100 2    50   ~ 0
OCXO_PROG
Text Label 3250 14400 2    50   ~ 0
OCXO_PROG
$Comp
L Device:R R3
U 1 1 60EC9523
P 3450 14100
F 0 "R3" V 3350 14100 50  0000 C CNN
F 1 "1k" V 3450 14100 50  0000 C CNN
F 2 "Resistor_SMD:R_0201_0603Metric_Pad0.64x0.40mm_HandSolder" V 3380 14100 50  0001 C CNN
F 3 "~" H 3450 14100 50  0001 C CNN
F 4 "0201" V 3550 14100 50  0000 C CNN "Package"
F 5 "" V 3450 14100 50  0001 C CNN "MPN"
F 6 "" V 3450 14100 50  0001 C CNN "LCSC"
	1    3450 14100
	1    0    0    1   
$EndComp
$Comp
L Device:R R7
U 1 1 60EE334F
P 3450 14700
F 0 "R7" V 3350 14700 50  0000 C CNN
F 1 "1k" V 3450 14700 50  0000 C CNN
F 2 "Resistor_SMD:R_0201_0603Metric_Pad0.64x0.40mm_HandSolder" V 3380 14700 50  0001 C CNN
F 3 "~" H 3450 14700 50  0001 C CNN
F 4 "0201" V 3550 14700 50  0000 C CNN "Package"
F 5 "" V 3450 14700 50  0001 C CNN "MPN"
F 6 "" V 3450 14700 50  0001 C CNN "LCSC"
	1    3450 14700
	1    0    0    1   
$EndComp
$Comp
L power:GND #PWR0130
U 1 1 60EFD14B
P 3450 14850
F 0 "#PWR0130" H 3450 14600 50  0001 C CNN
F 1 "GND" H 3450 14700 50  0000 C CNN
F 2 "" H 3450 14850 50  0001 C CNN
F 3 "" H 3450 14850 50  0001 C CNN
	1    3450 14850
	1    0    0    -1  
$EndComp
Wire Wire Line
	4250 14400 3450 14400
Wire Wire Line
	3450 14400 3450 14250
Connection ~ 3450 14400
Wire Wire Line
	3450 14400 3250 14400
Wire Wire Line
	3450 14400 3450 14550
Text Label 3300 13800 2    50   ~ 0
OCXO_+3.3V
Wire Wire Line
	3450 13800 3450 13950
$Comp
L Device:C C31
U 1 1 60AF5AC3
P 3750 13800
F 0 "C31" V 3850 13900 50  0000 L CNN
F 1 "0.1u" V 3850 13700 50  0000 R CNN
F 2 "Capacitor_SMD:C_0201_0603Metric_Pad0.64x0.40mm_HandSolder" H 3788 13650 50  0001 C CNN
F 3 "~" H 3750 13800 50  0001 C CNN
F 4 "0201" V 3600 13800 50  0000 C CNN "Package"
F 5 "" H 3750 13800 50  0001 C CNN "MPN"
F 6 "" V 3750 13800 50  0001 C CNN "LCSC"
	1    3750 13800
	0    -1   -1   0   
$EndComp
Wire Wire Line
	3600 13800 3450 13800
$Comp
L power:GND #PWR0133
U 1 1 60AF5ACA
P 3900 13800
F 0 "#PWR0133" H 3900 13550 50  0001 C CNN
F 1 "GND" V 3900 13600 50  0000 C CNN
F 2 "" H 3900 13800 50  0001 C CNN
F 3 "" H 3900 13800 50  0001 C CNN
	1    3900 13800
	0    -1   1    0   
$EndComp
Wire Wire Line
	3450 13800 3300 13800
Connection ~ 3450 13800
$Comp
L power:GND #PWR0135
U 1 1 60BD1712
P 6700 10250
F 0 "#PWR0135" H 6700 10000 50  0001 C CNN
F 1 "GND" H 6700 10100 50  0000 C CNN
F 2 "" H 6700 10250 50  0001 C CNN
F 3 "" H 6700 10250 50  0001 C CNN
	1    6700 10250
	1    0    0    -1  
$EndComp
$Comp
L Device:C C33
U 1 1 60BD171B
P 6700 10100
F 0 "C33" H 6815 10191 50  0000 L CNN
F 1 "1u" H 6815 10100 50  0000 L CNN
F 2 "Capacitor_SMD:C_0201_0603Metric_Pad0.64x0.40mm_HandSolder" H 6738 9950 50  0001 C CNN
F 3 "~" H 6700 10100 50  0001 C CNN
F 4 "0201" H 6815 10009 50  0000 L CNN "Package"
F 5 "" H 6700 10100 50  0001 C CNN "MPN"
F 6 "" H 6700 10100 50  0001 C CNN "LCSC"
	1    6700 10100
	1    0    0    -1  
$EndComp
$Comp
L power:GND #PWR0137
U 1 1 60C24DFD
P 7200 10250
F 0 "#PWR0137" H 7200 10000 50  0001 C CNN
F 1 "GND" H 7200 10100 50  0000 C CNN
F 2 "" H 7200 10250 50  0001 C CNN
F 3 "" H 7200 10250 50  0001 C CNN
	1    7200 10250
	1    0    0    -1  
$EndComp
$Comp
L Device:C C35
U 1 1 60C24E06
P 7200 10100
F 0 "C35" H 7315 10191 50  0000 L CNN
F 1 "1u" H 7315 10100 50  0000 L CNN
F 2 "Capacitor_SMD:C_0201_0603Metric_Pad0.64x0.40mm_HandSolder" H 7238 9950 50  0001 C CNN
F 3 "~" H 7200 10100 50  0001 C CNN
F 4 "0201" H 7315 10009 50  0000 L CNN "Package"
F 5 "" H 7200 10100 50  0001 C CNN "MPN"
F 6 "" H 7200 10100 50  0001 C CNN "LCSC"
	1    7200 10100
	1    0    0    -1  
$EndComp
$Comp
L power:GND #PWR0139
U 1 1 60C3FE65
P 7700 10250
F 0 "#PWR0139" H 7700 10000 50  0001 C CNN
F 1 "GND" H 7700 10100 50  0000 C CNN
F 2 "" H 7700 10250 50  0001 C CNN
F 3 "" H 7700 10250 50  0001 C CNN
	1    7700 10250
	1    0    0    -1  
$EndComp
$Comp
L Device:C C36
U 1 1 60C3FE6E
P 7700 10100
F 0 "C36" H 7815 10191 50  0000 L CNN
F 1 "1u" H 7815 10100 50  0000 L CNN
F 2 "Capacitor_SMD:C_0201_0603Metric_Pad0.64x0.40mm_HandSolder" H 7738 9950 50  0001 C CNN
F 3 "~" H 7700 10100 50  0001 C CNN
F 4 "0201" H 7815 10009 50  0000 L CNN "Package"
F 5 "" H 7700 10100 50  0001 C CNN "MPN"
F 6 "" H 7700 10100 50  0001 C CNN "LCSC"
	1    7700 10100
	1    0    0    -1  
$EndComp
Wire Wire Line
	6700 9800 6700 9950
Wire Wire Line
	7200 9800 7200 9950
Wire Wire Line
	7700 9800 7700 9950
Wire Wire Line
	7700 9800 7200 9800
Connection ~ 6200 9800
Connection ~ 6700 9800
Wire Wire Line
	6700 9800 6200 9800
Connection ~ 7200 9800
Wire Wire Line
	7200 9800 6700 9800
Wire Wire Line
	5150 14550 6000 14550
$EndSCHEMATC
