Ref,Val,Package,PosX,PosY,Rot,Side
"C15","0.1u","C_0402_1005Metric_Pad0.74x0.62mm_HandSolder",40.537500,-45.342500,90.000000,bottom
"C17","1u","C_0603_1608Metric_Pad1.05x0.95mm_HandSolder",45.600000,-48.212500,0.000000,bottom
"C18","1u","C_0603_1608Metric_Pad1.05x0.95mm_HandSolder",41.787500,-44.750000,270.000000,bottom
"C21","1u","C_0603_1608Metric_Pad1.05x0.95mm_HandSolder",46.600000,-40.337500,0.000000,bottom
"R3","1k","R_0402_1005Metric_Pad0.72x0.64mm_HandSolder",39.372500,-37.795000,180.000000,bottom
"C1","0.1u","C_0402_1005Metric_Pad0.74x0.62mm_HandSolder",50.975000,-16.990000,270.000000,top
"C2","22u","CP_EIA-3528-15_AVX-H",16.777500,-13.350000,0.000000,top
"C3","0.1u","C_0402_1005Metric_Pad0.74x0.62mm_HandSolder",49.675000,-25.285000,270.000000,top
"C4","1u","C_0603_1608Metric_Pad1.05x0.95mm_HandSolder",20.202500,-20.225000,270.000000,top
"C5","0.1u","C_0402_1005Metric_Pad0.74x0.62mm_HandSolder",29.885000,-35.905000,0.000000,top
"C6","0.1u","C_0402_1005Metric_Pad0.74x0.62mm_HandSolder",29.660000,-41.525000,0.000000,top
"C7","0.1u","C_0402_1005Metric_Pad0.74x0.62mm_HandSolder",50.325000,-32.787500,90.000000,top
"C8","0.1u","C_0402_1005Metric_Pad0.74x0.62mm_HandSolder",41.865000,-30.637500,90.000000,top
"C9","0.1u","C_0402_1005Metric_Pad0.74x0.62mm_HandSolder",37.305000,-44.975000,0.000000,top
"C10","10n","C_0402_1005Metric_Pad0.74x0.62mm_HandSolder",25.470000,-23.000000,0.000000,top
"C11","2.2u","C_0805_2012Metric_Pad1.15x1.40mm_HandSolder",27.402500,-20.375000,270.000000,top
"C12","0.1u","C_0402_1005Metric_Pad0.74x0.62mm_HandSolder",49.092500,-49.712500,180.000000,top
"C13","0.1u","C_0402_1005Metric_Pad0.74x0.62mm_HandSolder",45.325000,-50.530000,90.000000,top
"C14","0.1u","C_0402_1005Metric_Pad0.74x0.62mm_HandSolder",40.525000,-48.780000,90.000000,top
"C16","0.1u","C_0402_1005Metric_Pad0.74x0.62mm_HandSolder",41.220000,-39.075000,180.000000,top
"C19","0.1u","C_0402_1005Metric_Pad0.74x0.62mm_HandSolder",44.427500,-20.657500,270.000000,top
"C20","0.1u","C_0402_1005Metric_Pad0.74x0.62mm_HandSolder",35.057500,-28.712500,0.000000,top
"C22","1u","C_0603_1608Metric_Pad1.05x0.95mm_HandSolder",33.625000,-25.687500,90.000000,top
"C23","0.1u","C_0402_1005Metric_Pad0.74x0.62mm_HandSolder",49.662500,-38.020000,270.000000,top
"C24","0.1u","C_0402_1005Metric_Pad0.74x0.62mm_HandSolder",46.525000,-38.020000,90.000000,top
"C25","0.1u","C_0402_1005Metric_Pad0.74x0.62mm_HandSolder",34.960000,-39.905000,0.000000,top
"C26","0.1u","C_0402_1005Metric_Pad0.74x0.62mm_HandSolder",28.350000,-25.850000,180.000000,top
"C27","47u","CP_EIA-3528-15_AVX-H",15.240000,-20.887500,270.000000,top
"D1","LED","LED_0603_1608Metric_Pad1.05x0.95mm_HandSolder",25.287500,-49.475000,180.000000,top
"D2","LED","LED_0603_1608Metric_Pad1.05x0.95mm_HandSolder",38.775000,-37.062500,270.000000,top
"D3","LED","LED_0603_1608Metric_Pad1.05x0.95mm_HandSolder",45.550000,-23.012500,0.000000,top
"D4","LED","LED_0603_1608Metric_Pad1.05x0.95mm_HandSolder",29.852500,-45.562500,0.000000,top
"D5","LED","LED_0603_1608Metric_Pad1.05x0.95mm_HandSolder",33.517500,-43.825000,0.000000,top
"D6","LED","LED_0603_1608Metric_Pad1.05x0.95mm_HandSolder",31.000000,-19.350000,180.000000,top
"J2","MECF-08-01-L-DV_02x08","Samtec_MECF-08-01-L-DV-WT_2x08_P1.27mm_Polarized_Socket_Horizontal",23.412500,-37.800000,90.000000,top
"Q1","Q_NMOS_GSD","SOT-323_SC-70",37.272500,-48.475000,270.000000,top
"Q2","Q_NMOS_GSD","SOT-323_SC-70",41.525000,-36.187500,180.000000,top
"Q3","Q_NMOS_GSD","SOT-323_SC-70",45.675000,-25.262500,180.000000,top
"Q4","Q_NMOS_GSD","SOT-323_SC-70",29.977500,-48.062500,180.000000,top
"Q5","Q_NMOS_GSD","SOT-323_SC-70",33.642500,-46.225000,180.000000,top
"Q6","Q_NMOS_GSD","SOT-323_SC-70",34.625000,-19.350000,180.000000,top
"R1","10","R_0402_1005Metric_Pad0.72x0.64mm_HandSolder",49.675000,-17.020000,90.000000,top
"R2","1k","R_0402_1005Metric_Pad0.72x0.64mm_HandSolder",22.315000,-49.475000,0.000000,top
"R4","10","R_0402_1005Metric_Pad0.72x0.64mm_HandSolder",48.175000,-25.315000,90.000000,top
"R5","0","R_0402_1005Metric_Pad0.72x0.64mm_HandSolder",49.122500,-35.642500,0.000000,top
"R6","0","R_0402_1005Metric_Pad0.72x0.64mm_HandSolder",48.525000,-37.490000,270.000000,top
"R7","10k","R_0402_1005Metric_Pad0.72x0.64mm_HandSolder",22.105000,-23.000000,180.000000,top
"R8","10","R_0402_1005Metric_Pad0.72x0.64mm_HandSolder",29.690000,-37.155000,180.000000,top
"R9","1k","R_0402_1005Metric_Pad0.72x0.64mm_HandSolder",46.425000,-20.915000,270.000000,top
"R10","10k","R_0402_1005Metric_Pad0.72x0.64mm_HandSolder",43.015000,-27.810000,90.000000,top
"R11","10k","R_0402_1005Metric_Pad0.72x0.64mm_HandSolder",35.027500,-21.662500,180.000000,top
"R12","1k","R_0402_1005Metric_Pad0.72x0.64mm_HandSolder",30.130000,-44.062500,0.000000,top
"R13","1k","R_0402_1005Metric_Pad0.72x0.64mm_HandSolder",34.392500,-41.752500,270.000000,top
"R14","1k","R_0402_1005Metric_Pad0.72x0.64mm_HandSolder",30.125000,-21.447500,90.000000,top
"R15","10","R_0402_1005Metric_Pad0.72x0.64mm_HandSolder",31.717500,-22.752500,270.000000,top
"R16","10","R_0402_1005Metric_Pad0.72x0.64mm_HandSolder",36.792500,-37.007500,270.000000,top
"R17","DNI","R_0402_1005Metric_Pad0.72x0.64mm_HandSolder",39.965000,-30.607500,270.000000,top
"R18","0","R_0402_1005Metric_Pad0.72x0.64mm_HandSolder",14.815000,-42.672500,90.000000,top
"R19","0","R_0402_1005Metric_Pad0.72x0.64mm_HandSolder",14.815000,-38.687500,270.000000,top
"R20","DNI","R_0402_1005Metric_Pad0.72x0.64mm_HandSolder",13.315000,-42.672500,90.000000,top
"R21","DNI","R_0402_1005Metric_Pad0.72x0.64mm_HandSolder",12.717500,-39.285000,0.000000,top
"U1","74LVC1G126","SOT-353_SC-70-5",50.325000,-13.972500,270.000000,top
"U2","74AUP1G74","VSSOP-8_2.3x2mm_P0.5mm",48.925000,-21.667500,270.000000,top
"U3","4017","TSSOP-16_4.4x5mm_P0.65mm",32.180000,-32.380000,180.000000,top
"U4","74LVC1G126","SOT-353_SC-70-5",30.042500,-39.305000,180.000000,top
"U5","74HCT164","TSSOP-14_4.4x5mm_P0.65mm",46.875000,-30.492500,270.000000,top
"U6","74x1G79","SOT-353_SC-70-5",40.915000,-33.355000,0.000000,top
"U7","MIC5219YM5","SOT-23-5",23.802500,-20.300000,0.000000,top
"U8","Elite_5032_10L_SPI","Elite_TCXO_Ceramic_5032",40.565000,-19.962500,270.000000,top
"U9","TDC7200PW","TSSOP-14_4.4x5mm_P0.65mm",38.487500,-25.262500,180.000000,top
"U10","CY8C5866LTI-LP022","QFN-68-1EP_8x8mm_P0.4mm_EP5.2x5.2mm",45.725000,-44.275000,180.000000,top
"U11","74LVC1G3157","SOT-363_SC-70-6",34.392500,-37.605000,270.000000,top
"U12","74LVC1G126","SOT-353_SC-70-5",31.067500,-26.800000,90.000000,top
"X1","SIT1630","SOT-23-5",37.687500,-42.375000,270.000000,top
