M48
; DRILL file {KiCad (5.1.9)-1} date 02/12/21 14:05:58
; FORMAT={-:-/ absolute / metric / decimal}
; #@! TF.CreationDate,2021-02-12T14:05:58-08:00
; #@! TF.GenerationSoftware,Kicad,Pcbnew,(5.1.9)-1
FMAT,2
METRIC
T1C0.200
T2C1.000
T3C1.190
T4C1.500
T5C1.700
T6C4.300
T7C1.450
%
G90
G05
T1
X12.99Y-22.425
X15.24Y-23.925
X16.315Y-39.285
X16.315Y-42.075
X17.49Y-22.425
X18.315Y-11.1
X18.315Y-15.6
X18.508Y-33.355
X18.953Y-21.1
X19.008Y-35.895
X19.508Y-37.165
X19.815Y-13.35
X20.008Y-34.625
X20.008Y-40.975
X20.008Y-48.212
X20.203Y-18.1
X20.203Y-22.35
X20.508Y-23.0
X20.717Y-49.475
X21.453Y-20.3
X21.508Y-43.245
X25.317Y-43.245
X25.817Y-32.055
X26.782Y-25.85
X26.787Y-43.375
X26.817Y-34.625
X26.817Y-35.895
X26.817Y-37.165
X26.817Y-39.285
X27.402Y-18.1
X27.402Y-23.0
X27.467Y-40.975
X27.567Y-38.435
X27.918Y-32.705
X28.092Y-41.525
X28.317Y-35.905
X28.532Y-44.062
X28.902Y-19.35
X28.902Y-21.4
X28.918Y-24.85
X30.125Y-23.045
X30.417Y-28.75
X30.977Y-46.663
X30.992Y-37.905
X31.067Y-24.5
X31.227Y-41.525
X31.452Y-35.905
X31.487Y-37.155
X31.717Y-20.905
X32.227Y-48.712
X32.317Y-34.005
X32.692Y-39.955
X32.718Y-27.75
X33.392Y-39.905
X33.43Y-21.662
X33.49Y-28.712
X33.625Y-23.562
X33.742Y-35.78
X34.392Y-35.78
X35.387Y-42.675
X35.642Y-45.575
X35.642Y-46.875
X35.737Y-44.875
X36.442Y-30.105
X36.525Y-28.712
X36.527Y-39.905
X36.622Y-46.225
X36.625Y-18.7
X37.125Y-20.0
X37.125Y-23.962
X37.125Y-25.262
X37.125Y-26.662
X37.288Y-45.875
X37.453Y-18.7
X37.675Y-37.938
X37.775Y-24.612
X37.883Y-39.555
X38.46Y-30.312
X38.637Y-40.025
X38.865Y-33.355
X38.872Y-44.975
X38.922Y-46.875
X39.21Y-26.562
X39.652Y-39.075
X39.725Y-48.212
X39.737Y-44.675
X39.737Y-45.275
X39.737Y-46.475
X39.965Y-29.01
X39.965Y-34.755
X40.387Y-41.475
X40.387Y-42.675
X40.525Y-50.148
X40.587Y-43.925
X40.788Y-42.075
X41.35Y-22.562
X41.35Y-28.412
X41.788Y-37.795
X41.865Y-29.07
X42.125Y-49.612
X42.525Y-34.788
X42.85Y-24.612
X42.865Y-31.205
X42.865Y-34.005
X43.015Y-29.407
X43.125Y-38.435
X43.525Y-39.137
X43.6Y-25.262
X43.725Y-42.675
X43.725Y-43.475
X43.725Y-44.275
X43.725Y-45.075
X43.725Y-45.875
X43.725Y-51.612
X44.125Y-38.087
X44.427Y-19.09
X44.525Y-49.812
X44.725Y-42.675
X44.725Y-44.275
X44.725Y-45.075
X44.725Y-45.875
X44.725Y-49.212
X44.925Y-29.38
X45.325Y-52.112
X45.427Y-21.225
X45.575Y-31.355
X45.675Y-24.612
X45.725Y-38.587
X45.725Y-39.337
X45.725Y-42.675
X45.725Y-43.475
X45.725Y-44.275
X45.725Y-45.075
X45.725Y-45.875
X46.125Y-42.075
X46.125Y-49.212
X46.125Y-49.962
X46.225Y-34.855
X46.325Y-50.612
X46.425Y-19.317
X46.475Y-46.475
X46.525Y-36.502
X46.725Y-42.675
X46.725Y-44.275
X46.725Y-45.075
X46.725Y-45.875
X46.925Y-51.112
X47.225Y-39.337
X47.475Y-42.075
X47.725Y-38.788
X47.725Y-42.675
X47.725Y-44.275
X47.725Y-45.075
X47.725Y-45.875
X47.725Y-52.612
X48.175Y-19.117
X48.525Y-50.712
X48.675Y-21.967
X49.125Y-30.312
X49.125Y-39.337
X49.175Y-19.117
X49.662Y-36.453
X49.675Y-12.022
X49.675Y-26.852
X50.162Y-28.412
X50.325Y-31.22
X50.325Y-34.355
X50.425Y-24.717
X50.462Y-38.587
X50.612Y-35.642
X50.66Y-49.712
X50.662Y-40.725
X50.975Y-18.557
X51.062Y-45.675
X51.662Y-46.039
X51.725Y-16.422
X52.162Y-25.912
X52.162Y-41.335
X52.162Y-47.475
X52.662Y-46.075
X53.162Y-13.022
T2
X5.08Y-31.915
X5.08Y-34.455
X5.08Y-36.995
X5.08Y-39.535
X5.08Y-42.075
X7.62Y-31.915
X7.62Y-34.455
X7.62Y-36.995
X7.62Y-39.535
X7.62Y-42.075
X23.412Y-29.67
X23.412Y-45.93
T3
X6.35Y-16.81
X6.35Y-19.35
X15.24Y-6.35
X17.78Y-6.35
X63.5Y-38.795
X63.5Y-41.335
X63.5Y-43.875
X63.5Y-46.415
X63.5Y-48.955
T4
X31.717Y-6.35
X48.925Y-57.15
X50.325Y-6.35
T5
X29.177Y-3.81
X29.177Y-8.89
X34.258Y-3.81
X34.258Y-8.89
X46.385Y-54.61
X46.385Y-59.69
X47.785Y-3.81
X47.785Y-8.89
X51.465Y-54.61
X51.465Y-59.69
X52.865Y-3.81
X52.865Y-8.89
T6
X6.35Y-6.35
X6.35Y-57.15
X63.5Y-6.35
X63.5Y-57.15
T7
X23.412Y-44.025
X24.412Y-31.575
T0
M30
